
Inactive Modules:
  1) CMake/3.11.1        6) Python/3.6.4                       11) libffi/3.2.1
  2) FFTW/3.3.7          7) SQLite/3.21.0                      12) libreadline/7.0
  3) GMP/6.1.2           8) ScaLAPACK/2.0.2-OpenBLAS-0.2.20    13) tbb/2018_U3
  4) OpenBLAS/0.2.20     9) Tcl/8.6.8
  5) OpenMPI/2.1.2      10) imkl/2018.1.163

Due to MODULEPATH changes, the following have been reloaded:
  1) bzip2/1.0.6     2) zlib/1.2.11

The following have been reloaded with a version change:
  1) GNU/6.4.0-2.28 => GNU/4.8.3

slurmstepd: error: *** JOB 21498573 ON lac-025 CANCELLED AT 2019-05-15T18:13:35 ***
srun: Job step aborted: Waiting up to 32 seconds for job step to finish.
slurmstepd: error: *** STEP 21498573.0 ON lac-025 CANCELLED AT 2019-05-15T18:13:35 ***
