
Inactive Modules:
  1) CMake/3.11.1        6) Python/3.6.4                       11) libffi/3.2.1
  2) FFTW/3.3.7          7) SQLite/3.21.0                      12) libreadline/7.0
  3) GMP/6.1.2           8) ScaLAPACK/2.0.2-OpenBLAS-0.2.20    13) tbb/2018_U3
  4) OpenBLAS/0.2.20     9) Tcl/8.6.8
  5) OpenMPI/2.1.2      10) imkl/2018.1.163

Due to MODULEPATH changes, the following have been reloaded:
  1) bzip2/1.0.6     2) zlib/1.2.11

The following have been reloaded with a version change:
  1) GNU/6.4.0-2.28 => GNU/4.8.3

INFO:root:Loading the starting snapshot file
INFO:root:Creating orchestrating orch database
INFO:root:Adding the starting snapshot to database
INFO:root:Orchestrator loaded
INFO:root:Running snapshot by time
DEBUG:root:checkpoint directory defaulted to the work_dir
DEBUG:root:In the orchestrate run, calling to run_snapshot by time
DEBUG:root:Initialization of checkpoint database is requested
DEBUG:root:Initializing checkpoint orch database
DEBUG:root:Creating checkpoint database
DEBUG:root:Setting the starting snapshot
DEBUG:root:closing connection to checkpoint database
DEBUG:root:finished initializing checkpoint database
DEBUG:root:Running sim_manager.init
INFO:root:Starting simulation
INFO:root:Worker process started as name: OpenMMGPUWorker-0; PID: 12683
INFO:root:Worker process started as name: OpenMMGPUWorker-0; PID: 12683
INFO:root:Worker process started as name: OpenMMGPUWorker-1; PID: 12684
INFO:root:Worker process started as name: OpenMMGPUWorker-1; PID: 12684
INFO:root:Worker process started as name: OpenMMGPUWorker-2; PID: 12685
INFO:root:Worker process started as name: OpenMMGPUWorker-2; PID: 12685
INFO:root:Worker process started as name: OpenMMGPUWorker-3; PID: 12686
INFO:root:Worker process started as name: OpenMMGPUWorker-3; PID: 12686
INFO:root:Worker process started as name: OpenMMGPUWorker-4; PID: 12687
INFO:root:Worker process started as name: OpenMMGPUWorker-4; PID: 12687
INFO:root:Worker process started as name: OpenMMGPUWorker-5; PID: 12688
INFO:root:Worker process started as name: OpenMMGPUWorker-5; PID: 12688
INFO:root:Worker process started as name: OpenMMGPUWorker-6; PID: 12689
INFO:root:Worker process started as name: OpenMMGPUWorker-6; PID: 12689
INFO:root:Worker process started as name: OpenMMGPUWorker-7; PID: 12690
INFO:root:Worker process started as name: OpenMMGPUWorker-7; PID: 12690
INFO:root:Initializing HDF5 file at /mnt/gs18/scratch/users/lotzsamu/seh.pathway_hopping/jobs/22029895_lig_3_sims/lig-3_contig-0-5_production/lig-3_contig-0-5_production.wepy.h5
/mnt/home/lotzsamu/devel/wepy/src/wepy/runners/openmm.py:710: UserWarning: Unknown exception handled from `self.sim_state.getEnergyParameterDerivatives()`, this is probably because this attribute is not in the State.
  warn("Unknown exception handled from `self.sim_state.getEnergyParameterDerivatives()`, "
INFO:root:Writing initial state to /mnt/gs18/scratch/users/lotzsamu/seh.pathway_hopping/jobs/22029895_lig_3_sims/lig-3_contig-0-5_production/lig-3_contig-0-5_production.init_top.pdb
INFO:root:Writing initial image to /mnt/gs18/scratch/users/lotzsamu/seh.pathway_hopping/jobs/22029895_lig_3_sims/lig-3_contig-0-5_production/lig-3_contig-0-5_production.image_top.pdb
DEBUG:root:Starting run loop
DEBUG:root:Running cycle 0
INFO:root:Begin cycle 0
INFO:root:Starting segment
INFO:root:Mapping from process MainProcess; PID 12389
INFO:root:Waiting for tasks to be run
INFO:root:Worker: OpenMMGPUWorker-0; task_idx : 0; args : (<wepy.runners.openmm.OpenMMWalker object at 0x2b17eb92f438>, 10000) 
INFO:root:Time to generate the system: 1.3588294982910156
INFO:root:Worker: OpenMMGPUWorker-1; task_idx : 1; args : (<wepy.runners.openmm.OpenMMWalker object at 0x2b17eb92f4a8>, 10000) 
INFO:root:Time to generate the system: 0.5386226177215576
INFO:root:Worker: OpenMMGPUWorker-2; task_idx : 2; args : (<wepy.runners.openmm.OpenMMWalker object at 0x2b17eb92f518>, 10000) 
INFO:root:Time to generate the system: 0.9642410278320312
INFO:root:Worker: OpenMMGPUWorker-3; task_idx : 3; args : (<wepy.runners.openmm.OpenMMWalker object at 0x2b17eb92f588>, 10000) 
INFO:root:Time to generate the system: 1.0220155715942383
INFO:root:Worker: OpenMMGPUWorker-4; task_idx : 4; args : (<wepy.runners.openmm.OpenMMWalker object at 0x2b17eb92f5f8>, 10000) 
INFO:root:Time to generate the system: 1.0225839614868164
INFO:root:Worker: OpenMMGPUWorker-5; task_idx : 5; args : (<wepy.runners.openmm.OpenMMWalker object at 0x2b17eb92f668>, 10000) 
INFO:root:Time to generate the system: 1.1829490661621094
INFO:root:Worker: OpenMMGPUWorker-6; task_idx : 6; args : (<wepy.runners.openmm.OpenMMWalker object at 0x2b17eb92f6d8>, 10000) 
INFO:root:Time to generate the system: 1.2617316246032715
INFO:root:Worker: OpenMMGPUWorker-7; task_idx : 7; args : (<wepy.runners.openmm.OpenMMWalker object at 0x2b17eb92f748>, 10000) 
INFO:root:Time to generate the system: 1.0023753643035889
INFO:root:Time to run 10000 sim steps: 55.3037793636322
INFO:root:Getting context state time: 2.384185791015625e-07
INFO:root:Total internal run_segment time: 55.86745834350586
INFO:root:Worker: OpenMMGPUWorker-1; task_idx : 1; COMPLETED in 56.022316455841064 s
INFO:root:Time to run 10000 sim steps: 52.939499855041504
INFO:root:Getting context state time: 2.384185791015625e-07
INFO:root:Total internal run_segment time: 53.94041609764099
INFO:root:Worker: OpenMMGPUWorker-2; task_idx : 2; COMPLETED in 54.08226943016052 s
INFO:root:Time to run 10000 sim steps: 64.26104497909546
INFO:root:Getting context state time: 2.384185791015625e-07
INFO:root:Total internal run_segment time: 65.6404619216919
INFO:root:Worker: OpenMMGPUWorker-0; task_idx : 0; COMPLETED in 65.78284907341003 s
INFO:root:Worker: OpenMMGPUWorker-1; task_idx : 8; args : (<wepy.runners.openmm.OpenMMWalker object at 0x2b17eb92f8d0>, 10000) 
INFO:root:Time to generate the system: 0.8859403133392334
INFO:root:Time to run 10000 sim steps: 61.61003923416138
INFO:root:Getting context state time: 2.384185791015625e-07
INFO:root:Total internal run_segment time: 62.64665412902832
INFO:root:Worker: OpenMMGPUWorker-4; task_idx : 4; COMPLETED in 62.7539918422699 s
INFO:root:Worker: OpenMMGPUWorker-2; task_idx : 9; args : (<wepy.runners.openmm.OpenMMWalker object at 0x2b17eb92f9b0>, 10000) 
INFO:root:Time to generate the system: 1.32820725440979
INFO:root:Time to run 10000 sim steps: 75.87225103378296
INFO:root:Getting context state time: 4.76837158203125e-07
INFO:root:Total internal run_segment time: 76.93281888961792
INFO:root:Worker: OpenMMGPUWorker-3; task_idx : 3; COMPLETED in 77.07491517066956 s
INFO:root:Worker: OpenMMGPUWorker-0; task_idx : 10; args : (<wepy.runners.openmm.OpenMMWalker object at 0x2b17eb92f8d0>, 10000) 
INFO:root:Time to generate the system: 1.4249496459960938
INFO:root:Time to run 10000 sim steps: 67.95580172538757
INFO:root:Getting context state time: 2.384185791015625e-07
INFO:root:Total internal run_segment time: 69.19400644302368
INFO:root:Worker: OpenMMGPUWorker-5; task_idx : 5; COMPLETED in 69.3345878124237 s
INFO:root:Time to run 10000 sim steps: 59.774773836135864
INFO:root:Getting context state time: 2.384185791015625e-07
INFO:root:Total internal run_segment time: 61.051055669784546
INFO:root:Worker: OpenMMGPUWorker-6; task_idx : 6; COMPLETED in 61.16884708404541 s
INFO:root:Worker: OpenMMGPUWorker-4; task_idx : 11; args : (<wepy.runners.openmm.OpenMMWalker object at 0x2b17eb92fa90>, 10000) 
INFO:root:Time to generate the system: 0.9765968322753906
INFO:root:Worker: OpenMMGPUWorker-3; task_idx : 12; args : (<wepy.runners.openmm.OpenMMWalker object at 0x2b17eb92fa20>, 10000) 
INFO:root:Time to generate the system: 0.8595552444458008
INFO:root:Time to run 10000 sim steps: 64.64778304100037
INFO:root:Getting context state time: 2.384185791015625e-07
INFO:root:Total internal run_segment time: 65.68934631347656
INFO:root:Worker: OpenMMGPUWorker-7; task_idx : 7; COMPLETED in 65.87396621704102 s
INFO:root:Worker: OpenMMGPUWorker-5; task_idx : 13; args : (<wepy.runners.openmm.OpenMMWalker object at 0x2b17eb92fb00>, 10000) 
INFO:root:Time to generate the system: 1.3966104984283447
INFO:root:Time to run 10000 sim steps: 61.74388122558594
INFO:root:Getting context state time: 2.384185791015625e-07
INFO:root:Total internal run_segment time: 62.644097566604614
INFO:root:Worker: OpenMMGPUWorker-1; task_idx : 8; COMPLETED in 62.75204586982727 s
INFO:root:Worker: OpenMMGPUWorker-6; task_idx : 14; args : (<wepy.runners.openmm.OpenMMWalker object at 0x2b17eb92fb70>, 10000) 
INFO:root:Time to generate the system: 0.8218460083007812
INFO:root:Worker: OpenMMGPUWorker-7; task_idx : 15; args : (<wepy.runners.openmm.OpenMMWalker object at 0x2b17eb92fbe0>, 10000) 
INFO:root:Time to generate the system: 0.928917407989502
INFO:root:Time to run 10000 sim steps: 72.61260676383972
INFO:root:Getting context state time: 2.384185791015625e-07
INFO:root:Total internal run_segment time: 73.98190402984619
INFO:root:Worker: OpenMMGPUWorker-2; task_idx : 9; COMPLETED in 74.12453246116638 s
INFO:root:Worker: OpenMMGPUWorker-1; task_idx : 16; args : (<wepy.runners.openmm.OpenMMWalker object at 0x2b17e34a1128>, 10000) 
INFO:root:Time to generate the system: 1.3678863048553467
INFO:root:Time to run 10000 sim steps: 67.77502775192261
INFO:root:Getting context state time: 2.384185791015625e-07
INFO:root:Total internal run_segment time: 69.21388530731201
INFO:root:Worker: OpenMMGPUWorker-0; task_idx : 10; COMPLETED in 69.31791687011719 s
INFO:root:Worker: OpenMMGPUWorker-2; task_idx : 17; args : (<wepy.runners.openmm.OpenMMWalker object at 0x2b17e9b36780>, 10000) 
INFO:root:Time to generate the system: 1.02984619140625
INFO:root:Time to run 10000 sim steps: 71.05168318748474
INFO:root:Getting context state time: 2.384185791015625e-07
INFO:root:Total internal run_segment time: 72.0400915145874
INFO:root:Worker: OpenMMGPUWorker-4; task_idx : 11; COMPLETED in 72.18402528762817 s
INFO:root:Time to run 10000 sim steps: 69.0404908657074
INFO:root:Getting context state time: 2.384185791015625e-07
INFO:root:Total internal run_segment time: 69.92129349708557
INFO:root:Worker: OpenMMGPUWorker-3; task_idx : 12; COMPLETED in 70.05559206008911 s
INFO:root:Worker: OpenMMGPUWorker-0; task_idx : 18; args : (<wepy.runners.openmm.OpenMMWalker object at 0x2b17e9b39630>, 10000) 
INFO:root:Time to generate the system: 0.9863643646240234
INFO:root:Time to run 10000 sim steps: 64.2780339717865
INFO:root:Getting context state time: 2.384185791015625e-07
INFO:root:Total internal run_segment time: 65.68843102455139
INFO:root:Worker: OpenMMGPUWorker-5; task_idx : 13; COMPLETED in 65.76039505004883 s
INFO:root:Worker: OpenMMGPUWorker-4; task_idx : 19; args : (<wepy.runners.openmm.OpenMMWalker object at 0x2b17e9b368d0>, 10000) 
INFO:root:Time to generate the system: 0.9704349040985107
INFO:root:Worker: OpenMMGPUWorker-3; task_idx : 20; args : (<wepy.runners.openmm.OpenMMWalker object at 0x2b17e9b36828>, 10000) 
INFO:root:Time to run 10000 sim steps: 70.64424443244934
INFO:root:Getting context state time: 2.384185791015625e-07
INFO:root:Total internal run_segment time: 71.49618268013
INFO:root:Worker: OpenMMGPUWorker-6; task_idx : 14; COMPLETED in 71.73406457901001 s
INFO:root:Time to generate the system: 0.9641087055206299
INFO:root:Time to run 10000 sim steps: 70.14550018310547
INFO:root:Getting context state time: 0.0
INFO:root:Total internal run_segment time: 71.10125923156738
INFO:root:Worker: OpenMMGPUWorker-7; task_idx : 15; COMPLETED in 71.24476075172424 s
INFO:root:Worker: OpenMMGPUWorker-5; task_idx : 21; args : (<wepy.runners.openmm.OpenMMWalker object at 0x2b17e9b36978>, 10000) 
INFO:root:Time to generate the system: 1.417344331741333
INFO:root:Worker: OpenMMGPUWorker-6; task_idx : 22; args : (<wepy.runners.openmm.OpenMMWalker object at 0x2b17e9b36a20>, 10000) 
INFO:root:Time to generate the system: 1.3550724983215332
INFO:root:Time to run 10000 sim steps: 68.75601577758789
INFO:root:Getting context state time: 2.384185791015625e-07
INFO:root:Total internal run_segment time: 70.15112781524658
INFO:root:Worker: OpenMMGPUWorker-1; task_idx : 16; COMPLETED in 70.29385209083557 s
INFO:root:Worker: OpenMMGPUWorker-7; task_idx : 23; args : (<wepy.runners.openmm.OpenMMWalker object at 0x2b17e9b36ac8>, 10000) 
INFO:root:Time to generate the system: 0.9895389080047607
INFO:root:Time to run 10000 sim steps: 64.92674136161804
INFO:root:Getting context state time: 2.384185791015625e-07
INFO:root:Total internal run_segment time: 66.00921607017517
INFO:root:Worker: OpenMMGPUWorker-2; task_idx : 17; COMPLETED in 66.14792323112488 s
INFO:root:Worker: OpenMMGPUWorker-1; task_idx : 24; args : (<wepy.runners.openmm.OpenMMWalker object at 0x2b17b53f80b8>, 10000) 
INFO:root:Time to generate the system: 1.5084609985351562
INFO:root:Worker: OpenMMGPUWorker-2; task_idx : 25; args : (<wepy.runners.openmm.OpenMMWalker object at 0x2b17b53f80b8>, 10000) 
INFO:root:Time to generate the system: 0.8403749465942383
INFO:root:Time to run 10000 sim steps: 68.11559772491455
INFO:root:Getting context state time: 2.384185791015625e-07
INFO:root:Total internal run_segment time: 69.14168405532837
INFO:root:Worker: OpenMMGPUWorker-0; task_idx : 18; COMPLETED in 69.28675675392151 s
INFO:root:Worker: OpenMMGPUWorker-0; task_idx : 26; args : (<wepy.runners.openmm.OpenMMWalker object at 0x2b17b53f80b8>, 10000) 
INFO:root:Time to generate the system: 0.90517258644104
INFO:root:Time to run 10000 sim steps: 77.51428008079529
INFO:root:Getting context state time: 2.384185791015625e-07
INFO:root:Total internal run_segment time: 78.51134991645813
INFO:root:Worker: OpenMMGPUWorker-4; task_idx : 19; COMPLETED in 78.68957328796387 s
INFO:root:Time to run 10000 sim steps: 70.12650775909424
INFO:root:Getting context state time: 0.0
INFO:root:Total internal run_segment time: 71.11473298072815
INFO:root:Worker: OpenMMGPUWorker-3; task_idx : 20; COMPLETED in 71.25601077079773 s
INFO:root:Worker: OpenMMGPUWorker-4; task_idx : 27; args : (<wepy.runners.openmm.OpenMMWalker object at 0x2b17b53f80b8>, 10000) 
INFO:root:Time to run 10000 sim steps: 73.59806275367737
INFO:root:Getting context state time: 2.384185791015625e-07
INFO:root:Total internal run_segment time: 75.05579876899719
INFO:root:Worker: OpenMMGPUWorker-5; task_idx : 21; COMPLETED in 75.28823924064636 s
INFO:root:Time to generate the system: 1.0221233367919922
INFO:root:Time to run 10000 sim steps: 71.67263913154602
INFO:root:Getting context state time: 0.0
INFO:root:Total internal run_segment time: 73.0541479587555
INFO:root:Worker: OpenMMGPUWorker-6; task_idx : 22; COMPLETED in 73.19957566261292 s
INFO:root:Time to run 10000 sim steps: 62.568445444107056
INFO:root:Getting context state time: 2.384185791015625e-07
INFO:root:Total internal run_segment time: 63.58420205116272
INFO:root:Worker: OpenMMGPUWorker-7; task_idx : 23; COMPLETED in 63.73217797279358 s
INFO:root:Worker: OpenMMGPUWorker-3; task_idx : 28; args : (<wepy.runners.openmm.OpenMMWalker object at 0x2b17b53f80b8>, 10000) 
INFO:root:Time to generate the system: 0.9985291957855225
INFO:root:Worker: OpenMMGPUWorker-5; task_idx : 29; args : (<wepy.runners.openmm.OpenMMWalker object at 0x2b17b53f80b8>, 10000) 
INFO:root:Time to run 10000 sim steps: 66.34937119483948
INFO:root:Getting context state time: 0.0
INFO:root:Total internal run_segment time: 67.87851595878601
INFO:root:Worker: OpenMMGPUWorker-1; task_idx : 24; COMPLETED in 68.02257061004639 s
INFO:root:Time to generate the system: 1.4094042778015137
INFO:root:Time to run 10000 sim steps: 69.38223218917847
INFO:root:Getting context state time: 2.384185791015625e-07
INFO:root:Total internal run_segment time: 70.24714732170105
INFO:root:Worker: OpenMMGPUWorker-2; task_idx : 25; COMPLETED in 70.39691519737244 s
INFO:root:Worker: OpenMMGPUWorker-6; task_idx : 30; args : (<wepy.runners.openmm.OpenMMWalker object at 0x2b17b53f80b8>, 10000) 
INFO:root:Time to generate the system: 0.9593031406402588
INFO:root:Worker: OpenMMGPUWorker-7; task_idx : 31; args : (<wepy.runners.openmm.OpenMMWalker object at 0x2b17b53f80b8>, 10000) 
INFO:root:Time to generate the system: 0.9719092845916748
INFO:root:Time to run 10000 sim steps: 65.17750334739685
INFO:root:Getting context state time: 2.384185791015625e-07
INFO:root:Total internal run_segment time: 66.11860466003418
INFO:root:Worker: OpenMMGPUWorker-0; task_idx : 26; COMPLETED in 66.25044345855713 s
INFO:root:Time to run 10000 sim steps: 50.17083811759949
INFO:root:Getting context state time: 2.384185791015625e-07
INFO:root:Total internal run_segment time: 51.22063231468201
INFO:root:Worker: OpenMMGPUWorker-4; task_idx : 27; COMPLETED in 51.38502907752991 s
INFO:root:Worker: OpenMMGPUWorker-1; task_idx : 32; args : (<wepy.runners.openmm.OpenMMWalker object at 0x2b17eeadc828>, 10000) 
INFO:root:Time to generate the system: 0.9265360832214355
INFO:root:Worker: OpenMMGPUWorker-2; task_idx : 33; args : (<wepy.runners.openmm.OpenMMWalker object at 0x2b17ecf528d0>, 10000) 
INFO:root:Time to generate the system: 1.4458081722259521
INFO:root:Worker: OpenMMGPUWorker-0; task_idx : 34; args : (<wepy.runners.openmm.OpenMMWalker object at 0x2b17ecf51780>, 10000) 
INFO:root:Time to generate the system: 1.3873958587646484
INFO:root:Time to run 10000 sim steps: 61.9285454750061
INFO:root:Getting context state time: 2.384185791015625e-07
INFO:root:Total internal run_segment time: 62.95264410972595
INFO:root:Worker: OpenMMGPUWorker-3; task_idx : 28; COMPLETED in 63.08525490760803 s
INFO:root:Worker: OpenMMGPUWorker-4; task_idx : 35; args : (<wepy.runners.openmm.OpenMMWalker object at 0x2b17ecf51a20>, 10000) 
INFO:root:Time to generate the system: 0.8516135215759277
INFO:root:Worker: OpenMMGPUWorker-3; task_idx : 36; args : (<wepy.runners.openmm.OpenMMWalker object at 0x2b17ecf51978>, 10000) 
INFO:root:Time to generate the system: 0.8966739177703857
INFO:root:Time to run 10000 sim steps: 69.36902165412903
INFO:root:Getting context state time: 2.384185791015625e-07
INFO:root:Total internal run_segment time: 70.79772925376892
INFO:root:Worker: OpenMMGPUWorker-5; task_idx : 29; COMPLETED in 70.93994188308716 s
INFO:root:Time to run 10000 sim steps: 67.61372923851013
INFO:root:Getting context state time: 2.384185791015625e-07
INFO:root:Total internal run_segment time: 68.58872747421265
INFO:root:Worker: OpenMMGPUWorker-6; task_idx : 30; COMPLETED in 68.72844767570496 s
INFO:root:Worker: OpenMMGPUWorker-5; task_idx : 37; args : (<wepy.runners.openmm.OpenMMWalker object at 0x2b17ecf51ac8>, 10000) 
INFO:root:Time to generate the system: 1.0164306163787842
INFO:root:Worker: OpenMMGPUWorker-6; task_idx : 38; args : (<wepy.runners.openmm.OpenMMWalker object at 0x2b17ecf50b70>, 10000) 
INFO:root:Time to generate the system: 1.3113420009613037
INFO:root:Time to run 10000 sim steps: 78.18893432617188
INFO:root:Getting context state time: 0.0
INFO:root:Total internal run_segment time: 79.19735789299011
INFO:root:Worker: OpenMMGPUWorker-7; task_idx : 31; COMPLETED in 79.40675091743469 s
INFO:root:Time to run 10000 sim steps: 68.36125802993774
INFO:root:Getting context state time: 2.384185791015625e-07
INFO:root:Total internal run_segment time: 69.83742094039917
INFO:root:Worker: OpenMMGPUWorker-2; task_idx : 33; COMPLETED in 69.97281217575073 s
INFO:root:Time to run 10000 sim steps: 75.97242331504822
INFO:root:Getting context state time: 0.0
INFO:root:Total internal run_segment time: 76.92643618583679
INFO:root:Worker: OpenMMGPUWorker-1; task_idx : 32; COMPLETED in 77.06439661979675 s
INFO:root:Worker: OpenMMGPUWorker-7; task_idx : 39; args : (<wepy.runners.openmm.OpenMMWalker object at 0x2b17ecf4fc18>, 10000) 
INFO:root:Time to generate the system: 0.9458189010620117
INFO:root:Time to run 10000 sim steps: 65.85124087333679
INFO:root:Getting context state time: 4.76837158203125e-07
INFO:root:Total internal run_segment time: 66.72693586349487
INFO:root:Worker: OpenMMGPUWorker-4; task_idx : 35; COMPLETED in 66.87291073799133 s
INFO:root:Time to run 10000 sim steps: 74.21508812904358
INFO:root:Getting context state time: 0.0
INFO:root:Total internal run_segment time: 75.65642309188843
INFO:root:Worker: OpenMMGPUWorker-0; task_idx : 34; COMPLETED in 75.79782581329346 s
INFO:root:Worker: OpenMMGPUWorker-2; task_idx : 40; args : (<wepy.runners.openmm.OpenMMWalker object at 0x2b17f4fe1780>, 10000) 
INFO:root:Time to generate the system: 0.9241886138916016
INFO:root:Time to run 10000 sim steps: 66.35789108276367
INFO:root:Getting context state time: 2.384185791015625e-07
INFO:root:Total internal run_segment time: 67.28131175041199
INFO:root:Worker: OpenMMGPUWorker-3; task_idx : 36; COMPLETED in 67.41798210144043 s
INFO:root:Worker: OpenMMGPUWorker-1; task_idx : 41; args : (<wepy.runners.openmm.OpenMMWalker object at 0x2b17ec7bf128>, 10000) 
INFO:root:Time to generate the system: 0.9315216541290283
INFO:root:Worker: OpenMMGPUWorker-4; task_idx : 42; args : (<wepy.runners.openmm.OpenMMWalker object at 0x2b17f4f97ac8>, 10000) 
INFO:root:Time to run 10000 sim steps: 60.46950626373291
INFO:root:Getting context state time: 0.0
INFO:root:Total internal run_segment time: 61.51196646690369
INFO:root:Worker: OpenMMGPUWorker-5; task_idx : 37; COMPLETED in 61.64864420890808 s
INFO:root:Time to generate the system: 1.4315259456634521
INFO:root:Worker: OpenMMGPUWorker-0; task_idx : 43; args : (<wepy.runners.openmm.OpenMMWalker object at 0x2b17f5521588>, 10000) 
INFO:root:Time to generate the system: 0.9154517650604248
INFO:root:Worker: OpenMMGPUWorker-3; task_idx : 44; args : (<wepy.runners.openmm.OpenMMWalker object at 0x2b17f4d5aa20>, 10000) 
INFO:root:Time to generate the system: 1.3747172355651855
INFO:root:Time to run 10000 sim steps: 70.35447931289673
INFO:root:Getting context state time: 2.384185791015625e-07
INFO:root:Total internal run_segment time: 71.67805814743042
INFO:root:Worker: OpenMMGPUWorker-6; task_idx : 38; COMPLETED in 71.83263444900513 s
INFO:root:Worker: OpenMMGPUWorker-5; task_idx : 45; args : (<wepy.runners.openmm.OpenMMWalker object at 0x2b17f4ec9b70>, 10000) 
INFO:root:Time to generate the system: 1.021216869354248
INFO:root:Time to run 10000 sim steps: 69.2122449874878
INFO:root:Getting context state time: 2.384185791015625e-07
INFO:root:Total internal run_segment time: 70.19041037559509
INFO:root:Worker: OpenMMGPUWorker-7; task_idx : 39; COMPLETED in 70.32645654678345 s
INFO:root:Worker: OpenMMGPUWorker-6; task_idx : 46; args : (<wepy.runners.openmm.OpenMMWalker object at 0x2b17f4e44c18>, 10000) 
INFO:root:Time to generate the system: 0.9282586574554443
INFO:root:Worker: OpenMMGPUWorker-7; task_idx : 47; args : (<wepy.runners.openmm.OpenMMWalker object at 0x2b17ef425cc0>, 10000) 
INFO:root:Time to run 10000 sim steps: 68.36944007873535
INFO:root:Getting context state time: 2.384185791015625e-07
INFO:root:Total internal run_segment time: 69.31895470619202
INFO:root:Worker: OpenMMGPUWorker-2; task_idx : 40; COMPLETED in 69.46025896072388 s
INFO:root:Time to generate the system: 1.3769915103912354
INFO:root:Time to run 10000 sim steps: 68.8707447052002
INFO:root:Getting context state time: 2.384185791015625e-07
INFO:root:Total internal run_segment time: 69.82859206199646
INFO:root:Worker: OpenMMGPUWorker-1; task_idx : 41; COMPLETED in 69.96604704856873 s
INFO:root:Time to run 10000 sim steps: 62.900057315826416
INFO:root:Getting context state time: 2.384185791015625e-07
INFO:root:Total internal run_segment time: 64.3447494506836
INFO:root:Worker: OpenMMGPUWorker-4; task_idx : 42; COMPLETED in 64.48062539100647 s
INFO:root:Time to run 10000 sim steps: 60.297019481658936
INFO:root:Getting context state time: 2.384185791015625e-07
INFO:root:Total internal run_segment time: 61.22650408744812
INFO:root:Worker: OpenMMGPUWorker-0; task_idx : 43; COMPLETED in 61.36050319671631 s
INFO:root:Time to run 10000 sim steps: 63.766361951828
INFO:root:Getting context state time: 2.384185791015625e-07
INFO:root:Total internal run_segment time: 65.17348599433899
INFO:root:Worker: OpenMMGPUWorker-3; task_idx : 44; COMPLETED in 65.24746012687683 s
INFO:root:Time to run 10000 sim steps: 60.88408613204956
INFO:root:Getting context state time: 0.0
INFO:root:Total internal run_segment time: 61.9199697971344
INFO:root:Worker: OpenMMGPUWorker-5; task_idx : 45; COMPLETED in 61.994980812072754 s
INFO:root:Time to run 10000 sim steps: 59.872408628463745
INFO:root:Getting context state time: 4.76837158203125e-07
INFO:root:Total internal run_segment time: 60.81646203994751
INFO:root:Worker: OpenMMGPUWorker-6; task_idx : 46; COMPLETED in 60.89499592781067 s
INFO:root:Time to run 10000 sim steps: 55.557966470718384
INFO:root:Getting context state time: 0.0
INFO:root:Total internal run_segment time: 56.94969201087952
INFO:root:Worker: OpenMMGPUWorker-7; task_idx : 47; COMPLETED in 57.022639989852905 s
INFO:root:Retrieving results
INFO:root:trying to retrieve result: 48
INFO:root:Retrieved result 48: (2, 2, 54.08226943016052, <wepy.runners.openmm.OpenMMWalker object at 0x2b17ec28f4e0>)
INFO:root:trying to retrieve result: 47
INFO:root:Retrieved result 47: (1, 1, 56.022316455841064, <wepy.runners.openmm.OpenMMWalker object at 0x2b17ec28f198>)
INFO:root:trying to retrieve result: 46
INFO:root:Retrieved result 46: (0, 0, 65.78284907341003, <wepy.runners.openmm.OpenMMWalker object at 0x2b17ec28f0b8>)
INFO:root:trying to retrieve result: 45
INFO:root:Retrieved result 45: (4, 4, 62.7539918422699, <wepy.runners.openmm.OpenMMWalker object at 0x2b17ec27bf28>)
INFO:root:trying to retrieve result: 44
INFO:root:Retrieved result 44: (3, 3, 77.07491517066956, <wepy.runners.openmm.OpenMMWalker object at 0x2b17ec27be80>)
INFO:root:trying to retrieve result: 43
INFO:root:Retrieved result 43: (5, 5, 69.3345878124237, <wepy.runners.openmm.OpenMMWalker object at 0x2b17ec27bdd8>)
INFO:root:trying to retrieve result: 42
INFO:root:Retrieved result 42: (6, 6, 61.16884708404541, <wepy.runners.openmm.OpenMMWalker object at 0x2b17ec27bd30>)
INFO:root:trying to retrieve result: 41
INFO:root:Retrieved result 41: (7, 7, 65.87396621704102, <wepy.runners.openmm.OpenMMWalker object at 0x2b17ec27bc88>)
INFO:root:trying to retrieve result: 40
INFO:root:Retrieved result 40: (9, 2, 74.12453246116638, <wepy.runners.openmm.OpenMMWalker object at 0x2b17ec27bbe0>)
INFO:root:trying to retrieve result: 39
INFO:root:Retrieved result 39: (8, 1, 62.75204586982727, <wepy.runners.openmm.OpenMMWalker object at 0x2b17ec27bb38>)
INFO:root:trying to retrieve result: 38
INFO:root:Retrieved result 38: (10, 0, 69.31791687011719, <wepy.runners.openmm.OpenMMWalker object at 0x2b17ec27ba90>)
INFO:root:trying to retrieve result: 37
INFO:root:Retrieved result 37: (11, 4, 72.18402528762817, <wepy.runners.openmm.OpenMMWalker object at 0x2b17ec27b9e8>)
INFO:root:trying to retrieve result: 36
INFO:root:Retrieved result 36: (12, 3, 70.05559206008911, <wepy.runners.openmm.OpenMMWalker object at 0x2b17ec27b940>)
INFO:root:trying to retrieve result: 35
INFO:root:Retrieved result 35: (13, 5, 65.76039505004883, <wepy.runners.openmm.OpenMMWalker object at 0x2b17ec27b898>)
INFO:root:trying to retrieve result: 34
INFO:root:Retrieved result 34: (14, 6, 71.73406457901001, <wepy.runners.openmm.OpenMMWalker object at 0x2b17ec27b7b8>)
INFO:root:trying to retrieve result: 33
INFO:root:Retrieved result 33: (15, 7, 71.24476075172424, <wepy.runners.openmm.OpenMMWalker object at 0x2b17ec27b710>)
INFO:root:trying to retrieve result: 32
INFO:root:Retrieved result 32: (17, 2, 66.14792323112488, <wepy.runners.openmm.OpenMMWalker object at 0x2b17ec27b668>)
INFO:root:trying to retrieve result: 31
INFO:root:Retrieved result 31: (16, 1, 70.29385209083557, <wepy.runners.openmm.OpenMMWalker object at 0x2b17ec27b5c0>)
INFO:root:trying to retrieve result: 30
INFO:root:Retrieved result 30: (18, 0, 69.28675675392151, <wepy.runners.openmm.OpenMMWalker object at 0x2b17ec27b518>)
INFO:root:trying to retrieve result: 29
INFO:root:Retrieved result 29: (19, 4, 78.68957328796387, <wepy.runners.openmm.OpenMMWalker object at 0x2b17ec27b470>)
INFO:root:trying to retrieve result: 28
INFO:root:Retrieved result 28: (20, 3, 71.25601077079773, <wepy.runners.openmm.OpenMMWalker object at 0x2b17ec27b3c8>)
INFO:root:trying to retrieve result: 27
INFO:root:Retrieved result 27: (21, 5, 75.28823924064636, <wepy.runners.openmm.OpenMMWalker object at 0x2b17ec27b320>)
INFO:root:trying to retrieve result: 26
INFO:root:Retrieved result 26: (22, 6, 73.19957566261292, <wepy.runners.openmm.OpenMMWalker object at 0x2b17ec27b278>)
INFO:root:trying to retrieve result: 25
INFO:root:Retrieved result 25: (23, 7, 63.73217797279358, <wepy.runners.openmm.OpenMMWalker object at 0x2b17ec27b1d0>)
INFO:root:trying to retrieve result: 24
INFO:root:Retrieved result 24: (25, 2, 70.39691519737244, <wepy.runners.openmm.OpenMMWalker object at 0x2b17ec27b128>)
INFO:root:trying to retrieve result: 23
INFO:root:Retrieved result 23: (24, 1, 68.02257061004639, <wepy.runners.openmm.OpenMMWalker object at 0x2b17ec27bfd0>)
INFO:root:trying to retrieve result: 22
INFO:root:Retrieved result 22: (26, 0, 66.25044345855713, <wepy.runners.openmm.OpenMMWalker object at 0x2b17ec27b080>)
INFO:root:trying to retrieve result: 21
INFO:root:Retrieved result 21: (27, 4, 51.38502907752991, <wepy.runners.openmm.OpenMMWalker object at 0x2b17ec1fceb8>)
INFO:root:trying to retrieve result: 20
INFO:root:Retrieved result 20: (28, 3, 63.08525490760803, <wepy.runners.openmm.OpenMMWalker object at 0x2b17ec1fce10>)
INFO:root:trying to retrieve result: 19
INFO:root:Retrieved result 19: (29, 5, 70.93994188308716, <wepy.runners.openmm.OpenMMWalker object at 0x2b17ec1fcd68>)
INFO:root:trying to retrieve result: 18
INFO:root:Retrieved result 18: (30, 6, 68.72844767570496, <wepy.runners.openmm.OpenMMWalker object at 0x2b17ec1fccc0>)
INFO:root:trying to retrieve result: 17
INFO:root:Retrieved result 17: (31, 7, 79.40675091743469, <wepy.runners.openmm.OpenMMWalker object at 0x2b17ec1fcc18>)
INFO:root:trying to retrieve result: 16
INFO:root:Retrieved result 16: (33, 2, 69.97281217575073, <wepy.runners.openmm.OpenMMWalker object at 0x2b17ec1fcb70>)
INFO:root:trying to retrieve result: 15
INFO:root:Retrieved result 15: (32, 1, 77.06439661979675, <wepy.runners.openmm.OpenMMWalker object at 0x2b17ec1fcac8>)
INFO:root:trying to retrieve result: 14
INFO:root:Retrieved result 14: (34, 0, 75.79782581329346, <wepy.runners.openmm.OpenMMWalker object at 0x2b17ec1fca20>)
INFO:root:trying to retrieve result: 13
INFO:root:Retrieved result 13: (35, 4, 66.87291073799133, <wepy.runners.openmm.OpenMMWalker object at 0x2b17ec1fc978>)
INFO:root:trying to retrieve result: 12
INFO:root:Retrieved result 12: (36, 3, 67.41798210144043, <wepy.runners.openmm.OpenMMWalker object at 0x2b17ec1fc8d0>)
INFO:root:trying to retrieve result: 11
INFO:root:Retrieved result 11: (37, 5, 61.64864420890808, <wepy.runners.openmm.OpenMMWalker object at 0x2b17ec1fc828>)
INFO:root:trying to retrieve result: 10
INFO:root:Retrieved result 10: (38, 6, 71.83263444900513, <wepy.runners.openmm.OpenMMWalker object at 0x2b17ec1fc780>)
INFO:root:trying to retrieve result: 9
INFO:root:Retrieved result 9: (39, 7, 70.32645654678345, <wepy.runners.openmm.OpenMMWalker object at 0x2b17ec1fc6d8>)
INFO:root:trying to retrieve result: 8
INFO:root:Retrieved result 8: (40, 2, 69.46025896072388, <wepy.runners.openmm.OpenMMWalker object at 0x2b17ec1fc630>)
INFO:root:trying to retrieve result: 7
INFO:root:Retrieved result 7: (41, 1, 69.96604704856873, <wepy.runners.openmm.OpenMMWalker object at 0x2b17ec1fc588>)
INFO:root:trying to retrieve result: 6
INFO:root:Retrieved result 6: (43, 0, 61.36050319671631, <wepy.runners.openmm.OpenMMWalker object at 0x2b17ec1fc4e0>)
INFO:root:trying to retrieve result: 5
INFO:root:Retrieved result 5: (42, 4, 64.48062539100647, <wepy.runners.openmm.OpenMMWalker object at 0x2b17ec1fc438>)
INFO:root:trying to retrieve result: 4
INFO:root:Retrieved result 4: (44, 3, 65.24746012687683, <wepy.runners.openmm.OpenMMWalker object at 0x2b17ec1fc390>)
INFO:root:trying to retrieve result: 3
INFO:root:Retrieved result 3: (45, 5, 61.994980812072754, <wepy.runners.openmm.OpenMMWalker object at 0x2b17ec1fc2e8>)
INFO:root:trying to retrieve result: 2
INFO:root:Retrieved result 2: (46, 6, 60.89499592781067, <wepy.runners.openmm.OpenMMWalker object at 0x2b17ec1fc240>)
INFO:root:trying to retrieve result: 1
INFO:root:Retrieved result 1: (47, 7, 57.022639989852905, <wepy.runners.openmm.OpenMMWalker object at 0x2b17ec1fc198>)
INFO:root:No more results
INFO:root:Retrieved results
INFO:root:Ending segment
INFO:root:End cycle 0
INFO:root:merge_groups
[[46], [], [], [], [], [], [], [], [], [], [], [], [], [], [], [], [], [], [], [], [], [], [], [], [], [], [], [], [], [], [], [], [], [], [], [], [], [], [], [], [], [], [], [], [], [], [], []]
INFO:root:Walker number of clones
[0, 0, 0, 0, 0, 0, 0, 0, 0, 0, 0, 0, 0, 0, 0, 0, 0, 0, 0, 0, 0, 0, 0, 0, 0, 0, 0, 0, 0, 0, 0, 0, 0, 0, 0, 0, 1, 0, 0, 0, 0, 0, 0, 0, 0, 0, 0, 0]
INFO:root:Walker assignments
[(5, 8, 0, 9), (0, 0, 5, 3), (0, 0, 0, 9), (6, 1, 9, 9), (5, 1, 7, 3), (8, 7, 6, 1), (6, 1, 7, 5), (7, 3, 0, 7), (2, 3, 9, 7), (2, 3, 9, 4), (0, 0, 3, 4), (1, 9, 9, 0), (0, 0, 8, 0), (1, 6, 1, 9), (0, 0, 6, 8), (0, 4, 0, 0), (0, 0, 0, 1), (3, 1, 9, 0), (6, 8, 6, 6), (7, 6, 0, 7), (1, 1, 1, 4), (3, 1, 9, 3), (1, 3, 3, 0), (6, 9, 6, 8), (2, 1, 7, 3), (0, 7, 0, 0), (5, 8, 8, 3), (7, 0, 8, 2), (1, 4, 0, 1), (0, 0, 2, 0), (1, 1, 5, 0), (0, 0, 0, 9), (6, 0, 5, 4), (9, 3, 7, 3), (0, 0, 8, 4), (7, 7, 9, 0), (5, 1, 5, 6), (9, 3, 6, 2), (7, 9, 0, 9), (7, 9, 6, 7), (1, 4, 3, 1), (6, 8, 9, 8), (5, 8, 0, 8), (0, 0, 0, 5), (2, 1, 6, 8), (2, 4, 8, 0), (5, 8, 0, 9), (1, 0, 3, 3)]
INFO:root:Walker weights
[6.460249314259574e-11, 0.049319493080582824, 0.08041691365081778, 1.3898071870355737e-12, 2.067087170003187e-08, 1.5490288799108896e-12, 1.3898071870355737e-12, 1.0487463710016556e-12, 4.943353931467852e-12, 4.943353931467852e-12, 0.08659818672839507, 1.0897540388575296e-12, 0.07504477237483771, 2.9765466724667443e-07, 0.09543437904854442, 0.08453043906133353, 0.08819444444607909, 1.2536733942895229e-12, 3.530967093905609e-12, 1.2879640555225958e-12, 2.615482136218731e-06, 1.1830011077186274e-12, 7.231881459294389e-06, 1.1627626115970299e-12, 1.1347246652954374e-12, 0.07777777777777778, 1.0724013861670892e-08, 1.0530048973399799e-12, 3.4925387325500803e-09, 0.09270833333333332, 1.0206038544275455e-07, 0.09876367845521766, 1.1508210326976207e-12, 1.967283811321575e-12, 0.07744756866724684, 1.4243837702273211e-12, 1.42353155748976e-09, 1.967283811321575e-12, 1.0487463710016556e-12, 1.7785350963112957e-12, 3.4925387325500803e-09, 1.6477846438226175e-12, 1.2920498628519148e-10, 0.09375000000571589, 1.284070399176936e-12, 1.2536733942895229e-12, 6.460249314259574e-11, 3.7261890827185287e-06]
INFO:root:images_assignments
[(0, 0, 0, 0), (0, 0, 0, 1), (0, 0, 0, 2), (0, 0, 0, 3), (0, 0, 0, 4), (0, 0, 1, 0), (0, 0, 2, 0), (0, 0, 0, 5), (0, 0, 1, 1), (0, 0, 3, 0), (0, 0, 3, 1), (0, 0, 0, 6), (0, 0, 0, 7), (0, 0, 3, 2), (0, 0, 0, 8), (0, 0, 1, 2), (0, 0, 3, 3), (0, 0, 4, 0), (0, 0, 0, 9), (0, 0, 3, 4), (0, 0, 3, 5), (0, 0, 4, 1), (0, 0, 4, 2), (0, 1, 0, 0), (0, 1, 0, 1), (0, 1, 0, 2), (0, 1, 1, 0), (0, 1, 1, 1), (0, 1, 1, 2), (0, 0, 4, 3), (0, 1, 1, 3), (0, 0, 1, 3), (0, 1, 2, 0), (0, 1, 0, 3), (0, 0, 1, 4), (0, 1, 2, 1), (0, 1, 0, 4), (0, 1, 3, 0), (0, 1, 3, 1), (0, 1, 3, 2), (0, 1, 4, 0), (0, 2, 0, 0), (0, 2, 0, 1), (0, 2, 0, 2), (0, 2, 0, 3), (0, 2, 0, 4), (0, 0, 4, 4), (0, 2, 0, 5), (0, 2, 0, 6), (0, 0, 4, 5), (0, 1, 0, 5), (0, 1, 1, 4), (0, 2, 1, 0), (0, 2, 1, 1), (0, 2, 1, 2), (0, 1, 5, 0), (0, 1, 0, 6), (0, 2, 0, 7), (0, 2, 1, 3), (0, 2, 2, 0), (0, 1, 5, 1), (0, 2, 2, 1), (0, 2, 2, 2), (0, 2, 0, 8), (0, 2, 2, 3), (0, 2, 0, 9), (0, 1, 3, 3), (0, 1, 2, 2), (0, 2, 2, 4), (0, 1, 0, 7), (0, 2, 2, 5), (0, 2, 2, 6), (0, 1, 0, 8), (0, 3, 0, 0), (1, 0, 0, 0), (1, 0, 1, 0), (1, 0, 1, 1), (1, 1, 0, 0), (1, 1, 1, 0), (1, 1, 2, 0), (1, 1, 0, 1), (1, 2, 0, 0), (1, 2, 0, 1), (1, 2, 0, 2), (1, 2, 1, 0), (1, 2, 2, 0), (1, 2, 2, 1), (1, 2, 1, 1), (1, 2, 2, 2), (1, 0, 1, 2), (1, 2, 1, 2), (1, 1, 1, 1), (0, 1, 3, 4), (1, 2, 0, 3), (1, 1, 2, 1), (1, 1, 2, 2), (1, 1, 3, 0), (0, 1, 0, 9), (1, 0, 2, 0), (0, 1, 1, 5), (1, 2, 1, 3), (0, 2, 3, 0), (0, 2, 4, 0), (1, 2, 2, 3), (1, 0, 0, 1), (1, 0, 2, 1), (1, 1, 3, 1), (1, 1, 1, 2), (0, 1, 2, 3), (1, 1, 0, 2), (1, 2, 1, 4), (1, 0, 2, 2), (1, 2, 2, 4), (1, 2, 0, 4), (1, 2, 1, 5), (1, 2, 1, 6), (1, 1, 3, 2), (1, 0, 1, 3), (0, 0, 4, 6), (1, 1, 3, 3), (0, 0, 2, 1), (1, 2, 2, 5), (1, 2, 0, 5), (0, 1, 5, 2), (1, 0, 3, 0), (0, 2, 2, 7), (1, 2, 0, 6), (1, 0, 2, 3), (1, 0, 1, 4), (1, 2, 1, 7), (1, 0, 0, 2), (0, 2, 3, 1), (1, 0, 4, 0), (1, 0, 3, 1), (1, 0, 4, 1), (1, 2, 1, 8), (1, 2, 3, 0), (1, 2, 3, 1), (0, 1, 2, 4), (1, 0, 0, 3), (0, 1, 1, 6), (1, 0, 3, 2), (1, 3, 0, 0), (1, 3, 0, 1), (1, 1, 3, 4), (0, 2, 4, 1), (1, 2, 4, 0), (1, 2, 3, 2), (1, 0, 5, 0), (1, 3, 0, 2), (1, 3, 1, 0), (1, 2, 4, 1), (1, 1, 3, 5), (0, 0, 4, 7), (1, 3, 0, 3), (1, 0, 0, 4), (1, 1, 2, 3), (1, 2, 0, 7), (1, 3, 0, 4), (1, 1, 0, 3), (1, 3, 1, 1), (1, 2, 4, 2), (1, 3, 2, 0), (1, 0, 5, 1), (1, 0, 6, 0), (1, 3, 0, 5), (1, 0, 1, 5), (1, 3, 2, 1), (0, 1, 6, 0), (0, 1, 4, 1), (1, 3, 3, 0), (1, 3, 1, 2), (1, 2, 4, 3), (0, 0, 2, 2), (1, 1, 1, 3), (1, 2, 2, 6), (0, 0, 1, 5), (0, 1, 5, 3), (1, 2, 0, 8), (0, 2, 4, 2), (1, 0, 7, 0), (0, 1, 2, 5), (1, 0, 4, 2), (1, 4, 0, 0), (1, 0, 0, 5), (0, 2, 3, 2), (1, 4, 0, 1), (1, 4, 0, 2), (1, 0, 6, 1), (1, 0, 2, 4), (1, 2, 4, 4), (1, 2, 5, 0), (1, 4, 1, 0), (0, 0, 3, 6), (1, 2, 2, 7), (1, 2, 3, 3), (1, 3, 1, 3), (1, 0, 0, 6), (1, 4, 2, 0), (0, 2, 4, 3), (0, 0, 5, 0), (1, 2, 4, 5), (1, 4, 1, 1), (1, 1, 2, 4), (1, 4, 2, 1), (1, 1, 4, 0), (0, 0, 6, 0), (1, 4, 3, 0), (1, 0, 4, 3), (1, 0, 0, 7), (0, 1, 6, 1), (1, 4, 1, 2), (0, 1, 2, 6), (0, 1, 3, 5), (1, 1, 4, 1), (1, 1, 0, 4), (1, 4, 3, 1), (1, 3, 0, 6), (1, 3, 2, 2), (1, 2, 5, 1), (1, 0, 6, 2), (1, 0, 0, 8), (1, 3, 2, 3), (0, 2, 3, 3), (0, 0, 4, 8), (1, 0, 8, 0), (1, 0, 2, 5), (0, 0, 5, 1), (1, 0, 6, 3), (1, 0, 0, 9), (1, 3, 0, 7), (1, 0, 3, 3), (1, 0, 2, 6), (0, 0, 6, 1), (1, 3, 0, 8), (1, 4, 0, 3), (0, 0, 7, 0), (0, 1, 1, 7), (1, 0, 5, 2), (1, 0, 3, 4), (0, 0, 7, 1), (1, 0, 8, 1), (1, 3, 1, 4), (0, 1, 3, 6), (1, 2, 5, 2), (1, 3, 0, 9), (1, 3, 4, 0), (1, 0, 9, 0), (1, 0, 9, 1), (1, 1, 0, 5), (0, 0, 3, 7), (1, 2, 2, 8), (1, 0, 8, 2), (1, 3, 1, 5), (1, 0, 2, 7), (1, 3, 4, 1), (1, 0, 8, 3), (1, 0, 4, 4), (0, 1, 3, 7), (1, 5, 0, 0), (1, 2, 3, 4), (1, 3, 2, 4), (0, 0, 7, 2), (1, 5, 0, 1), (1, 0, 9, 2), (1, 2, 1, 9), (1, 3, 4, 2), (1, 0, 4, 5), (0, 1, 3, 8), (0, 0, 6, 2), (0, 1, 3, 9), (1, 2, 6, 0), (0, 0, 1, 6), (1, 5, 0, 2), (1, 3, 5, 0), (0, 0, 6, 3), (1, 2, 6, 1), (0, 2, 4, 4), (0, 0, 6, 4), (0, 2, 3, 4), (1, 3, 2, 5), (1, 3, 5, 1), (1, 3, 6, 0), (0, 2, 4, 5), (1, 0, 2, 8), (1, 3, 6, 1), (1, 5, 1, 0), (1, 0, 9, 3), (1, 1, 5, 0), (1, 5, 1, 1), (1, 0, 1, 6), (1, 2, 7, 0), (0, 0, 6, 5), (1, 4, 4, 0), (1, 3, 1, 6), (0, 1, 1, 8), (1, 1, 4, 2), (1, 0, 6, 4), (1, 3, 7, 0), (1, 3, 7, 1), (0, 0, 8, 0), (1, 5, 0, 3), (1, 5, 1, 2), (0, 2, 4, 6), (1, 1, 5, 1), (1, 2, 3, 5), (1, 0, 9, 4), (1, 5, 1, 3), (1, 2, 3, 6), (1, 3, 2, 6), (1, 2, 8, 0), (1, 3, 8, 0), (1, 4, 2, 2), (1, 2, 8, 1), (1, 2, 3, 7), (1, 3, 8, 1), (1, 0, 1, 7), (1, 6, 0, 0), (1, 6, 0, 1), (1, 0, 2, 9), (1, 3, 2, 7), (1, 3, 6, 2), (0, 0, 1, 7), (1, 3, 4, 3), (0, 0, 6, 6), (0, 1, 4, 2), (1, 4, 1, 3), (1, 5, 2, 0), (1, 3, 1, 7), (1, 0, 4, 6), (1, 0, 8, 4), (0, 2, 4, 7), (1, 5, 2, 1), (1, 3, 8, 2), (1, 2, 8, 2), (1, 0, 5, 3), (1, 3, 8, 3), (1, 0, 7, 1), (1, 2, 5, 3), (0, 2, 5, 0), (0, 2, 5, 1), (1, 5, 2, 2), (1, 6, 1, 0), (1, 5, 0, 4), (0, 2, 5, 2), (1, 5, 3, 0), (1, 2, 7, 1), (0, 1, 7, 0), (1, 3, 6, 3), (1, 7, 0, 0), (1, 3, 8, 4), (1, 7, 0, 1), (1, 6, 1, 1), (0, 0, 8, 1), (0, 2, 5, 3), (1, 0, 5, 4), (1, 0, 9, 5), (1, 0, 6, 5), (0, 1, 2, 7), (1, 0, 4, 7), (1, 7, 0, 2), (1, 5, 2, 3), (1, 7, 0, 3), (1, 1, 3, 6), (1, 7, 1, 0), (1, 0, 6, 6), (2, 0, 0, 0), (2, 0, 0, 1), (2, 0, 0, 2), (0, 0, 4, 9), (1, 6, 1, 2), (2, 0, 1, 0), (2, 0, 1, 1), (2, 0, 0, 3), (1, 5, 4, 0), (2, 0, 0, 4), (2, 0, 0, 5), (2, 0, 1, 2), (2, 0, 2, 0), (2, 0, 0, 6), (2, 0, 0, 7), (2, 0, 3, 0), (2, 0, 0, 8), (2, 0, 0, 9), (2, 0, 3, 1), (2, 0, 1, 3), (2, 1, 0, 0), (2, 1, 0, 1), (2, 0, 2, 1), (2, 0, 2, 2), (2, 1, 0, 2), (1, 3, 3, 1), (2, 1, 0, 3), (1, 5, 0, 5), (1, 2, 5, 4), (2, 0, 4, 0), (2, 0, 4, 1), (2, 0, 5, 0), (2, 0, 5, 1), (2, 0, 5, 2), (1, 5, 4, 1), (2, 2, 0, 0), (2, 1, 1, 0), (2, 2, 0, 1), (2, 0, 3, 2), (2, 1, 0, 4), (2, 0, 5, 3), (2, 0, 6, 0), (2, 1, 1, 1), (2, 1, 2, 0), (0, 0, 8, 2), (2, 0, 1, 4), (2, 0, 2, 3), (1, 5, 0, 6), (2, 0, 7, 0), (2, 2, 1, 0), (2, 2, 0, 2), (2, 1, 1, 2), (2, 2, 2, 0), (1, 5, 4, 2), (2, 0, 6, 1), (2, 1, 3, 0), (2, 2, 1, 1), (2, 2, 3, 0), (2, 0, 8, 0), (2, 3, 0, 0), (2, 2, 4, 0), (1, 2, 7, 2), (2, 2, 2, 1), (2, 1, 3, 1), (2, 1, 2, 1), (2, 0, 6, 2), (2, 4, 0, 0), (2, 0, 7, 1), (2, 2, 4, 1), (2, 4, 1, 0), (2, 4, 0, 1), (2, 2, 5, 0), (2, 0, 9, 0), (1, 3, 8, 5), (2, 2, 3, 1), (2, 4, 0, 2), (2, 2, 6, 0), (2, 1, 2, 2), (2, 0, 9, 1), (1, 6, 2, 0), (2, 0, 1, 5), (2, 1, 3, 2), (2, 4, 1, 1), (3, 0, 0, 0), (3, 1, 0, 0), (2, 2, 4, 2), (2, 4, 2, 0), (3, 1, 1, 0), (1, 2, 7, 3), (1, 5, 5, 0), (3, 1, 0, 1), (2, 5, 0, 0), (1, 0, 8, 5), (2, 4, 0, 3), (2, 5, 0, 1), (2, 0, 5, 4), (2, 4, 0, 4), (3, 0, 0, 1), (2, 0, 1, 6), (2, 3, 0, 1), (3, 1, 1, 1), (2, 1, 2, 3), (2, 1, 1, 3), (2, 2, 7, 0), (2, 5, 1, 0), (2, 5, 2, 0), (2, 0, 3, 3), (1, 8, 0, 0), (2, 1, 4, 0), (2, 3, 0, 2), (3, 1, 2, 0), (3, 0, 1, 0), (2, 1, 4, 1), (2, 3, 1, 0), (2, 4, 0, 5), (3, 1, 2, 1), (2, 5, 1, 1), (1, 1, 3, 7), (2, 4, 0, 6), (1, 8, 1, 0), (3, 2, 0, 0), (3, 0, 2, 0), (2, 4, 3, 0), (2, 0, 3, 4), (2, 1, 0, 5), (3, 1, 3, 0), (1, 3, 3, 2), (2, 2, 7, 1), (1, 2, 4, 6), (3, 1, 0, 2), (1, 3, 4, 4), (3, 1, 0, 3), (1, 2, 4, 7), (1, 5, 0, 7), (2, 4, 3, 1), (3, 0, 2, 1), (2, 0, 1, 7), (0, 0, 8, 3), (1, 1, 0, 6), (3, 1, 4, 0), (2, 1, 5, 0), (3, 0, 3, 0), (1, 0, 1, 8), (2, 5, 1, 2), (2, 1, 2, 4), (3, 2, 1, 0), (1, 8, 0, 1), (2, 3, 1, 1), (2, 6, 0, 0), (2, 7, 0, 0), (2, 5, 0, 2), (1, 8, 1, 1), (2, 5, 1, 3), (2, 0, 6, 3), (2, 6, 0, 1), (3, 0, 1, 1), (3, 1, 4, 1), (1, 5, 0, 8), (1, 3, 4, 5), (3, 0, 1, 2), (3, 1, 0, 4), (2, 1, 1, 4), (2, 6, 1, 0), (3, 0, 4, 0), (2, 7, 0, 1), (3, 3, 0, 0), (1, 2, 2, 9), (2, 1, 6, 0), (2, 6, 2, 0), (2, 8, 0, 0), (3, 3, 0, 1), (2, 9, 0, 0), (2, 5, 3, 0), (2, 8, 0, 1), (3, 3, 0, 2), (2, 0, 6, 4), (2, 4, 4, 0), (2, 9, 0, 1), (2, 7, 1, 0), (2, 7, 1, 1), (2, 4, 3, 2), (0, 2, 3, 5), (1, 3, 9, 0), (2, 9, 0, 2), (1, 8, 0, 2), (2, 1, 5, 1), (2, 1, 3, 3), (2, 9, 1, 0), (2, 7, 0, 2), (3, 1, 4, 2), (3, 3, 0, 3), (2, 5, 4, 0), (2, 4, 0, 7), (1, 8, 0, 3), (1, 5, 2, 4), (4, 0, 0, 0), (2, 4, 2, 1), (1, 8, 1, 2), (2, 8, 1, 0), (4, 0, 1, 0), (1, 2, 6, 2), (4, 1, 0, 0), (2, 4, 5, 0), (2, 4, 0, 8), (0, 1, 1, 9), (2, 5, 3, 1), (2, 9, 1, 1), (2, 6, 1, 1), (1, 8, 1, 3), (3, 2, 2, 0), (2, 8, 1, 1), (4, 2, 0, 0), (2, 0, 8, 1), (2, 5, 1, 4), (3, 1, 4, 3), (4, 2, 0, 1), (1, 3, 1, 8), (2, 4, 3, 3), (4, 0, 0, 1), (3, 2, 2, 1), (1, 8, 0, 4), (1, 3, 9, 1), (2, 0, 8, 2), (2, 9, 2, 0), (2, 4, 5, 1), (3, 4, 0, 0), (2, 0, 6, 5), (4, 0, 2, 0), (1, 4, 1, 4), (2, 5, 5, 0), (3, 2, 2, 2), (1, 3, 3, 3), (4, 0, 2, 1), (2, 9, 1, 2), (3, 2, 3, 0), (2, 0, 6, 6), (4, 2, 1, 0), (2, 0, 5, 5), (2, 0, 3, 5), (3, 2, 3, 1), (2, 0, 4, 2), (3, 5, 0, 0), (0, 2, 5, 4), (2, 8, 1, 2), (4, 0, 2, 2), (1, 8, 2, 0), (2, 5, 4, 1), (2, 2, 8, 0), (4, 3, 0, 0), (0, 0, 9, 0), (2, 0, 6, 7), (2, 4, 1, 2), (0, 0, 7, 3), (2, 9, 1, 3), (2, 4, 6, 0), (1, 8, 1, 4), (1, 8, 2, 1), (4, 3, 0, 1), (1, 4, 4, 1), (1, 3, 9, 2), (2, 9, 2, 1), (4, 3, 1, 0), (1, 6, 3, 0), (2, 0, 8, 3), (4, 4, 0, 0), (0, 0, 3, 8), (1, 9, 0, 0), (2, 4, 7, 0), (2, 1, 5, 2), (3, 4, 1, 0), (2, 7, 1, 2), (2, 5, 6, 0), (2, 4, 8, 0), (5, 0, 0, 0), (3, 1, 5, 0), (1, 8, 3, 0), (1, 9, 1, 0), (2, 8, 1, 3), (1, 8, 2, 2), (2, 5, 1, 5), (3, 1, 5, 1), (1, 2, 6, 3), (2, 4, 9, 0), (5, 0, 1, 0), (2, 5, 4, 2), (2, 1, 1, 5), (2, 4, 0, 9), (5, 1, 0, 0), (1, 4, 3, 2), (2, 5, 0, 3), (3, 5, 1, 0), (2, 4, 3, 4), (2, 0, 6, 8), (5, 1, 0, 1), (3, 6, 0, 0), (2, 1, 5, 3), (2, 1, 1, 6), (2, 4, 9, 1), (2, 5, 3, 2), (2, 4, 8, 1), (3, 6, 0, 1), (1, 8, 0, 5), (2, 0, 2, 4), (0, 1, 7, 1), (2, 4, 6, 1), (2, 1, 7, 0), (2, 4, 9, 2), (2, 9, 1, 4), (3, 6, 1, 0), (1, 4, 0, 4), (2, 9, 3, 0), (2, 7, 0, 3), (1, 9, 0, 1), (2, 5, 1, 6), (2, 9, 3, 1), (2, 4, 1, 3), (1, 2, 0, 9), (1, 5, 2, 5), (2, 1, 7, 1), (2, 9, 3, 2), (2, 4, 6, 2), (2, 0, 6, 9), (2, 3, 2, 0), (1, 3, 3, 4), (1, 2, 7, 4), (2, 4, 6, 3), (2, 7, 2, 0), (2, 9, 4, 0), (2, 5, 5, 1), (2, 9, 3, 3), (2, 9, 4, 1), (2, 4, 8, 2), (2, 3, 2, 1), (2, 1, 7, 2), (2, 4, 9, 3), (2, 4, 9, 4), (1, 2, 6, 4), (2, 4, 8, 3), (1, 9, 0, 2), (2, 5, 2, 1), (2, 3, 3, 0), (2, 9, 0, 3), (2, 1, 6, 1), (3, 1, 0, 5), (5, 1, 1, 0), (1, 1, 3, 8), (2, 5, 0, 4), (2, 0, 1, 8), (2, 7, 1, 3), (2, 9, 4, 2), (1, 9, 0, 3), (2, 5, 4, 3), (2, 9, 5, 0), (2, 4, 6, 4), (5, 1, 1, 1), (2, 0, 5, 6), (0, 4, 0, 0), (2, 9, 5, 1), (1, 3, 8, 6), (3, 7, 0, 0), (0, 4, 1, 0), (1, 0, 3, 5), (3, 7, 0, 1), (2, 5, 0, 5), (1, 0, 5, 5), (5, 1, 1, 2), (2, 9, 5, 2), (2, 3, 4, 0), (5, 1, 2, 0), (6, 0, 0, 0), (5, 1, 2, 1), (1, 2, 5, 5), (2, 4, 1, 4), (5, 1, 1, 3), (2, 4, 6, 5), (1, 6, 3, 1), (5, 1, 1, 4), (2, 5, 4, 4), (2, 9, 6, 0), (6, 0, 0, 1), (2, 4, 6, 6), (6, 0, 1, 0), (2, 4, 6, 7), (6, 1, 0, 0), (2, 4, 1, 5), (3, 7, 1, 0), (2, 1, 6, 2), (2, 4, 8, 4), (3, 4, 2, 0), (5, 1, 1, 5), (1, 1, 5, 2), (2, 2, 9, 0), (3, 4, 1, 1), (6, 1, 1, 0), (2, 4, 3, 5), (2, 4, 9, 5), (2, 4, 1, 6), (6, 2, 0, 0), (2, 4, 6, 8), (3, 5, 2, 0), (1, 4, 0, 5), (3, 7, 1, 1), (2, 5, 1, 7), (6, 1, 0, 1), (3, 4, 1, 2), (2, 1, 8, 0), (1, 4, 5, 0), (5, 1, 1, 6), (6, 0, 1, 1), (3, 7, 2, 0), (0, 1, 8, 0), (2, 4, 6, 9), (2, 0, 7, 2), (6, 1, 0, 2), (1, 5, 0, 9), (2, 4, 1, 7), (2, 4, 8, 5), (2, 1, 8, 1), (2, 9, 6, 1), (2, 0, 8, 4), (3, 7, 2, 1), (6, 1, 0, 3), (2, 7, 1, 4), (2, 4, 8, 6), (3, 4, 2, 1), (2, 9, 5, 3), (1, 4, 5, 1), (2, 7, 1, 5), (2, 5, 7, 0), (2, 0, 3, 6), (1, 6, 0, 2), (2, 3, 5, 0), (2, 0, 7, 3), (6, 1, 2, 0), (2, 1, 9, 0), (2, 0, 1, 9), (2, 5, 8, 0), (3, 8, 0, 0), (1, 4, 5, 2), (2, 4, 1, 8), (3, 4, 0, 1), (2, 3, 6, 0), (1, 9, 0, 4), (2, 1, 6, 3), (2, 5, 7, 1), (3, 9, 0, 0), (2, 7, 3, 0), (2, 3, 6, 1), (6, 1, 2, 1), (3, 4, 2, 2), (2, 0, 7, 4), (1, 4, 4, 2), (2, 9, 6, 2), (2, 3, 6, 2), (2, 5, 3, 3), (1, 4, 0, 6), (0, 5, 0, 0), (2, 2, 3, 2), (2, 3, 7, 0), (6, 1, 2, 2), (2, 1, 1, 7), (1, 8, 4, 0), (6, 1, 3, 0), (2, 2, 8, 1), (1, 4, 1, 5), (6, 2, 0, 1), (2, 4, 8, 7), (2, 1, 1, 8), (3, 4, 0, 2), (1, 5, 6, 0), (6, 0, 2, 0), (1, 5, 2, 6), (1, 5, 2, 7), (2, 7, 3, 1), (3, 9, 0, 1), (2, 9, 6, 3), (2, 5, 9, 0), (2, 1, 1, 9), (2, 7, 2, 1), (1, 6, 4, 0), (2, 0, 3, 7), (3, 9, 1, 0), (2, 5, 7, 2), (2, 3, 3, 1), (1, 5, 4, 3), (1, 8, 4, 1), (0, 1, 8, 1), (2, 7, 1, 6), (6, 1, 4, 0), (2, 7, 2, 2), (1, 8, 4, 2), (2, 3, 7, 1), (1, 8, 0, 6), (2, 0, 2, 5), (2, 1, 4, 2), (6, 1, 4, 1), (1, 3, 1, 9), (2, 6, 0, 2), (1, 3, 9, 3), (2, 5, 1, 8), (2, 4, 3, 6), (1, 0, 9, 6), (2, 7, 0, 4), (2, 6, 2, 1), (2, 9, 3, 4), (3, 9, 1, 1), (2, 1, 6, 4), (1, 9, 2, 0), (3, 1, 5, 2), (2, 8, 2, 0), (1, 5, 7, 0), (2, 3, 2, 2), (1, 4, 6, 0), (3, 8, 0, 1), (3, 1, 5, 3), (1, 8, 0, 7), (1, 8, 5, 0), (0, 2, 5, 5), (2, 4, 3, 7), (1, 8, 5, 1), (1, 3, 9, 4), (2, 5, 1, 9), (1, 8, 6, 0), (1, 3, 9, 5), (2, 2, 2, 2), (3, 4, 3, 0), (2, 0, 5, 7), (2, 0, 2, 6), (2, 8, 3, 0), (3, 4, 3, 1), (1, 2, 6, 5), (2, 9, 7, 0), (2, 9, 8, 0), (6, 2, 0, 2), (3, 4, 3, 2), (3, 9, 2, 0), (2, 8, 3, 1), (3, 4, 3, 3), (2, 4, 3, 8), (2, 5, 2, 2), (3, 1, 6, 0), (3, 8, 1, 0), (2, 0, 2, 7), (3, 1, 7, 0), (3, 5, 2, 1), (6, 2, 1, 0), (2, 4, 7, 1), (3, 4, 4, 0), (6, 3, 0, 0), (3, 4, 2, 3), (3, 2, 4, 0), (6, 3, 0, 1), (0, 5, 0, 1), (2, 7, 0, 5), (1, 4, 6, 1), (2, 2, 1, 2), (2, 0, 9, 2), (3, 4, 0, 3), (3, 0, 5, 0), (6, 3, 0, 2), (2, 1, 9, 1), (3, 0, 6, 0), (2, 9, 7, 1), (3, 1, 2, 2), (6, 3, 1, 0), (2, 9, 9, 0), (1, 8, 0, 8), (3, 2, 0, 1), (3, 4, 4, 1), (1, 0, 6, 7), (2, 4, 8, 8), (1, 8, 5, 2), (7, 0, 0, 0), (7, 1, 0, 0), (7, 2, 0, 0), (3, 1, 8, 0), (6, 4, 0, 0), (6, 3, 2, 0), (7, 0, 0, 1), (2, 4, 4, 1), (1, 3, 9, 6), (6, 4, 0, 1), (6, 4, 0, 2), (6, 3, 2, 1), (2, 3, 8, 0), (1, 5, 8, 0), (6, 4, 1, 0), (7, 1, 1, 0), (6, 3, 3, 0), (3, 4, 4, 2), (6, 4, 2, 0), (3, 6, 2, 0), (6, 4, 0, 3), (7, 0, 0, 2), (1, 4, 6, 2), (3, 2, 0, 2), (2, 9, 4, 3), (2, 5, 7, 3), (3, 6, 3, 0), (3, 5, 2, 2), (6, 4, 2, 1), (2, 1, 5, 4), (2, 4, 8, 9), (6, 5, 0, 0), (3, 4, 0, 4), (3, 2, 3, 2), (7, 3, 0, 0), (2, 4, 7, 2), (6, 5, 0, 1), (6, 4, 2, 2), (3, 2, 5, 0), (2, 0, 5, 8), (2, 4, 4, 2), (6, 3, 3, 1), (3, 2, 6, 0), (6, 4, 0, 4), (2, 1, 4, 3), (2, 2, 7, 2), (6, 3, 2, 2), (3, 4, 0, 5), (8, 0, 0, 0), (6, 4, 1, 1), (6, 4, 0, 5), (3, 2, 4, 1), (6, 5, 1, 0), (6, 4, 0, 6), (8, 0, 0, 1), (0, 1, 2, 8), (2, 1, 9, 2), (2, 4, 3, 9), (8, 1, 0, 0), (6, 4, 1, 2), (6, 4, 2, 3), (3, 2, 4, 2), (2, 5, 7, 4), (6, 5, 1, 1), (6, 6, 0, 0), (1, 8, 6, 1), (2, 5, 3, 4), (3, 1, 9, 0), (5, 2, 0, 0), (9, 0, 0, 0), (6, 4, 2, 4), (0, 1, 8, 2), (1, 8, 7, 0), (2, 4, 4, 3), (1, 3, 9, 7), (5, 2, 0, 1), (9, 0, 0, 1), (2, 1, 6, 5), (1, 9, 2, 1), (3, 2, 7, 0), (6, 4, 2, 5), (7, 1, 0, 1), (5, 2, 1, 0), (9, 0, 1, 0), (9, 1, 0, 0), (1, 0, 6, 8), (3, 4, 0, 6), (2, 0, 3, 8), (6, 7, 0, 0), (5, 3, 0, 0), (9, 2, 0, 0), (1, 5, 8, 1), (3, 2, 7, 1), (2, 4, 7, 3), (1, 5, 9, 0), (7, 1, 2, 0), (7, 2, 0, 1), (5, 3, 0, 1), (2, 1, 9, 3), (6, 7, 0, 1), (6, 4, 3, 0), (5, 3, 1, 0), (9, 2, 0, 1), (9, 1, 1, 0), (3, 2, 7, 2), (6, 7, 1, 0), (5, 3, 1, 1), (9, 2, 1, 0), (2, 9, 8, 1), (3, 0, 7, 0), (5, 4, 0, 0), (7, 1, 0, 2), (9, 1, 1, 1), (3, 9, 3, 0), (1, 5, 8, 2), (5, 4, 0, 1), (7, 4, 0, 0), (1, 8, 2, 3), (6, 3, 4, 0), (8, 2, 0, 0), (9, 3, 0, 0), (6, 8, 0, 0), (1, 4, 1, 6), (2, 9, 6, 4), (6, 4, 3, 1), (8, 2, 0, 1), (2, 4, 2, 2), (3, 0, 7, 1), (3, 4, 3, 4), (3, 6, 3, 1), (3, 4, 5, 0), (8, 2, 0, 2), (3, 1, 7, 1), (3, 1, 9, 1), (2, 9, 6, 5), (6, 5, 0, 2), (7, 1, 2, 1), (8, 2, 1, 0), (9, 1, 2, 0), (1, 4, 5, 3), (6, 4, 3, 2), (7, 4, 1, 0), (9, 4, 0, 0), (3, 0, 8, 0), (3, 0, 9, 0), (9, 4, 0, 1), (3, 1, 1, 2), (2, 9, 6, 6), (6, 5, 2, 0), (3, 1, 6, 1), (6, 3, 5, 0), (8, 2, 0, 3), (2, 5, 8, 1), (9, 4, 1, 0), (7, 4, 1, 1), (9, 4, 2, 0), (2, 9, 0, 4), (3, 0, 9, 1), (7, 1, 0, 3), (8, 2, 0, 4), (7, 5, 0, 0), (6, 3, 6, 0), (2, 1, 8, 2), (9, 4, 0, 2), (8, 2, 2, 0), (2, 3, 9, 0), (7, 0, 1, 0), (3, 1, 1, 3), (2, 9, 0, 5), (9, 4, 3, 0), (8, 2, 3, 0), (2, 3, 9, 1), (2, 5, 0, 6), (9, 2, 2, 0), (7, 2, 0, 2), (8, 2, 3, 1), (1, 8, 0, 9), (3, 0, 9, 2), (7, 1, 1, 1), (8, 2, 3, 2), (2, 3, 9, 2), (7, 0, 1, 1), (7, 1, 3, 0), (9, 3, 0, 1), (5, 5, 0, 0), (2, 5, 4, 5), (9, 2, 0, 2), (5, 5, 1, 0), (7, 5, 0, 1), (1, 0, 8, 6), (3, 0, 9, 3), (9, 2, 3, 0), (7, 5, 1, 0), (2, 5, 5, 2), (3, 1, 9, 2), (9, 3, 1, 0), (5, 5, 1, 1), (2, 7, 4, 0), (7, 2, 1, 0), (5, 5, 1, 2), (7, 5, 1, 1), (7, 0, 2, 0), (5, 5, 0, 1), (2, 3, 9, 3), (7, 2, 1, 1), (6, 5, 2, 1), (9, 5, 0, 0), (5, 5, 1, 3), (1, 0, 8, 7), (6, 9, 0, 0), (5, 6, 0, 0), (2, 9, 8, 2), (3, 1, 9, 3), (7, 2, 1, 2), (2, 9, 1, 5), (6, 7, 0, 2), (1, 4, 5, 4), (9, 5, 1, 0), (7, 2, 0, 3), (5, 6, 0, 1), (7, 6, 0, 0), (1, 5, 1, 4), (5, 6, 0, 2), (3, 1, 9, 4), (7, 6, 1, 0), (2, 2, 2, 3), (6, 7, 2, 0), (3, 2, 8, 0), (6, 9, 1, 0), (3, 4, 3, 5), (5, 6, 1, 0), (2, 0, 5, 9), (1, 4, 1, 7), (9, 5, 2, 0), (5, 7, 0, 0), (1, 5, 7, 1), (2, 9, 1, 6), (6, 7, 2, 1), (7, 6, 2, 0), (9, 5, 2, 1), (5, 7, 0, 1), (2, 4, 7, 4), (6, 5, 3, 0), (1, 9, 2, 2), (9, 6, 0, 0), (2, 5, 7, 5), (2, 6, 3, 0), (6, 9, 2, 0), (9, 6, 0, 1), (7, 0, 1, 2), (3, 4, 0, 7), (7, 7, 0, 0), (9, 7, 0, 0), (5, 7, 0, 2), (2, 9, 1, 7), (6, 7, 2, 2), (8, 3, 0, 0), (9, 7, 0, 1), (3, 4, 0, 8), (6, 5, 1, 2), (7, 7, 0, 1), (6, 9, 3, 0), (1, 0, 6, 9), (0, 5, 1, 0), (2, 5, 4, 6), (6, 7, 3, 0), (6, 9, 3, 1), (2, 3, 9, 4), (6, 2, 2, 0), (6, 5, 4, 0), (2, 6, 3, 1), (6, 9, 4, 0), (9, 6, 0, 2), (3, 4, 5, 1), (7, 7, 1, 0), (6, 9, 4, 1), (7, 6, 3, 0), (2, 4, 7, 5), (1, 9, 2, 3), (6, 9, 5, 0), (1, 8, 6, 2), (8, 3, 0, 1), (6, 0, 3, 0), (9, 6, 0, 3), (2, 5, 2, 3), (6, 2, 3, 0), (9, 6, 0, 4), (2, 4, 2, 3), (2, 4, 4, 4), (8, 3, 0, 2), (6, 1, 5, 0), (3, 1, 3, 1), (2, 2, 2, 4), (8, 3, 1, 0), (2, 3, 8, 1), (6, 7, 1, 1), (3, 1, 6, 2), (1, 8, 6, 3), (2, 2, 4, 3), (1, 9, 0, 5), (2, 3, 0, 3), (6, 5, 4, 1), (1, 3, 6, 4), (3, 1, 3, 2), (2, 3, 9, 5), (2, 9, 2, 2), (2, 4, 9, 6), (2, 3, 1, 2), (2, 4, 9, 7), (6, 5, 5, 0), (1, 8, 5, 3), (3, 1, 7, 2), (1, 0, 8, 8), (1, 6, 5, 0), (2, 9, 2, 3), (2, 3, 7, 2), (6, 9, 5, 1), (3, 1, 3, 3), (2, 4, 4, 5), (7, 7, 1, 1), (9, 3, 2, 0), (2, 5, 8, 2), (2, 3, 0, 4), (7, 3, 1, 0), (6, 9, 5, 2), (2, 3, 9, 6), (2, 5, 2, 4), (8, 4, 0, 0), (9, 3, 2, 1), (3, 1, 1, 4), (2, 9, 8, 3), (6, 5, 1, 3), (6, 2, 3, 1), (2, 3, 9, 7), (2, 3, 8, 2), (6, 2, 4, 0), (9, 2, 0, 3), (1, 3, 8, 7), (7, 0, 0, 3), (2, 4, 9, 8), (6, 1, 5, 1), (9, 2, 3, 1), (2, 0, 8, 5), (2, 9, 2, 4), (6, 9, 6, 0), (9, 7, 1, 0), (1, 6, 5, 1), (3, 2, 8, 1), (6, 9, 6, 1), (9, 7, 1, 1), (2, 0, 9, 3), (2, 2, 4, 4), (1, 8, 2, 4), (7, 2, 0, 4), (9, 7, 1, 2), (7, 3, 1, 1), (7, 0, 3, 0), (6, 5, 5, 1), (6, 9, 7, 0), (9, 8, 0, 0), (3, 1, 9, 5), (8, 4, 0, 1), (1, 8, 5, 4), (2, 4, 9, 9), (3, 1, 9, 6), (6, 9, 5, 3), (1, 1, 3, 9), (7, 3, 1, 2), (1, 3, 6, 5), (9, 8, 0, 1), (2, 2, 0, 3), (1, 9, 0, 6), (2, 7, 2, 3), (2, 3, 0, 5), (9, 8, 0, 2), (2, 0, 3, 9), (2, 3, 9, 8), (3, 1, 0, 6), (3, 0, 8, 1), (3, 2, 9, 0), (2, 3, 8, 3), (3, 2, 8, 2), (9, 8, 1, 0), (7, 8, 0, 0), (3, 0, 8, 2), (0, 1, 6, 2), (7, 9, 0, 0), (2, 3, 8, 4), (1, 6, 3, 2), (2, 5, 5, 3), (2, 2, 0, 4), (3, 2, 9, 1), (1, 8, 3, 1), (6, 9, 8, 0), (7, 9, 0, 1), (9, 8, 2, 0), (7, 9, 0, 2), (3, 1, 1, 5), (1, 8, 8, 0), (2, 9, 4, 4), (7, 9, 0, 3), (3, 2, 8, 3), (6, 9, 8, 1), (7, 8, 1, 0), (2, 2, 4, 5), (8, 3, 0, 3), (7, 0, 3, 1), (9, 9, 0, 0), (9, 8, 3, 0), (3, 0, 7, 2), (7, 8, 2, 0), (7, 6, 4, 0), (6, 9, 9, 0), (7, 2, 2, 0), (9, 2, 4, 0), (3, 0, 8, 3), (3, 2, 9, 2), (2, 5, 2, 5), (9, 4, 4, 0), (3, 0, 8, 4), (3, 0, 7, 3), (0, 0, 1, 8), (7, 6, 2, 1), (6, 9, 4, 2), (1, 8, 1, 5), (9, 6, 1, 0), (3, 2, 2, 3), (7, 8, 2, 1), (7, 7, 1, 2), (3, 8, 2, 0), (1, 6, 1, 3), (6, 5, 2, 2), (7, 6, 0, 1), (6, 9, 3, 2), (9, 6, 2, 0), (3, 0, 8, 5), (2, 9, 0, 6), (7, 6, 3, 1), (7, 2, 3, 0), (7, 9, 0, 4), (6, 9, 3, 3), (9, 3, 3, 0), (7, 3, 0, 1), (2, 3, 9, 9), (7, 0, 4, 0), (7, 6, 5, 0), (6, 7, 3, 1), (9, 9, 1, 0), (3, 0, 8, 6), (2, 6, 4, 0), (2, 7, 1, 7), (6, 9, 8, 2), (9, 3, 2, 2), (2, 9, 8, 4), (7, 1, 0, 4), (2, 7, 4, 1), (6, 7, 4, 0), (9, 3, 0, 2), (3, 0, 8, 7), (2, 9, 8, 5), (2, 4, 2, 4), (6, 9, 8, 3), (3, 0, 8, 8), (3, 0, 0, 2), (1, 3, 8, 8), (9, 7, 2, 0), (7, 2, 2, 1), (9, 2, 5, 0), (2, 7, 5, 0), (9, 8, 4, 0), (9, 3, 3, 1), (6, 8, 1, 0), (2, 9, 8, 6), (3, 0, 8, 9), (1, 5, 4, 4), (6, 7, 0, 3), (9, 5, 3, 0), (6, 8, 1, 1), (7, 9, 1, 0), (3, 1, 0, 7), (9, 3, 4, 0), (2, 9, 2, 5), (3, 1, 9, 7), (6, 7, 4, 1), (7, 6, 2, 2), (9, 8, 4, 1), (6, 3, 7, 0), (1, 6, 1, 4), (1, 6, 3, 3), (6, 7, 5, 0), (7, 1, 1, 2), (7, 3, 1, 3), (9, 2, 6, 0), (9, 3, 4, 1), (7, 9, 0, 5), (1, 9, 3, 0), (6, 2, 5, 0), (2, 9, 8, 7), (1, 8, 3, 2), (9, 0, 2, 0), (7, 2, 0, 5), (9, 3, 3, 2), (7, 3, 1, 4), (6, 3, 7, 1), (2, 9, 8, 8), (3, 0, 0, 3), (1, 0, 8, 9), (6, 7, 1, 2), (9, 2, 7, 0), (9, 2, 5, 1), (6, 3, 7, 2), (3, 0, 1, 3), (6, 7, 6, 0), (9, 5, 1, 1), (9, 3, 5, 0), (6, 4, 4, 0), (2, 9, 8, 9), (7, 6, 6, 0), (9, 5, 1, 2), (7, 2, 4, 0), (6, 7, 7, 0), (7, 9, 1, 1), (2, 3, 0, 6), (6, 7, 2, 3), (9, 5, 4, 0), (3, 7, 1, 2), (9, 2, 6, 1), (6, 7, 7, 1), (3, 9, 4, 0), (9, 5, 4, 1), (9, 8, 5, 0), (7, 9, 2, 0), (3, 1, 9, 8), (2, 3, 0, 7), (3, 1, 4, 4), (9, 2, 8, 0), (5, 1, 2, 2), (9, 8, 2, 1), (6, 4, 3, 3), (7, 9, 1, 2), (6, 5, 1, 4), (9, 5, 5, 0), (9, 8, 6, 0), (6, 4, 5, 0), (6, 3, 8, 0), (7, 9, 3, 0), (9, 4, 2, 1), (3, 5, 3, 0), (2, 1, 6, 6), (6, 5, 6, 0), (1, 8, 5, 5), (9, 4, 2, 2), (3, 5, 4, 0), (7, 4, 2, 0), (6, 4, 5, 1), (6, 8, 2, 0), (3, 2, 8, 4), (1, 6, 6, 0), (4, 3, 2, 0), (6, 7, 8, 0), (2, 9, 1, 8), (3, 2, 2, 4), (2, 4, 1, 9), (2, 9, 2, 6), (3, 5, 5, 0), (2, 2, 0, 5), (6, 7, 9, 0), (9, 8, 7, 0), (6, 7, 8, 1), (3, 9, 5, 0), (6, 7, 9, 1), (7, 9, 0, 6), (2, 9, 2, 7), (3, 5, 5, 1), (6, 4, 5, 2), (2, 3, 0, 8), (7, 9, 2, 1), (3, 5, 6, 0), (6, 0, 4, 0), (2, 2, 4, 6), (6, 1, 0, 4), (3, 4, 6, 0), (5, 1, 2, 3), (3, 6, 4, 0), (7, 4, 2, 1), (6, 7, 0, 4), (2, 9, 2, 8), (6, 5, 3, 1), (2, 9, 2, 9), (1, 8, 8, 1), (3, 5, 7, 0), (3, 1, 0, 8), (1, 5, 6, 1), (6, 5, 6, 1), (6, 3, 9, 0), (6, 7, 0, 5), (2, 2, 0, 6), (1, 5, 4, 5), (3, 0, 9, 4), (4, 3, 3, 0), (6, 4, 6, 0), (3, 0, 9, 5), (9, 4, 2, 3), (4, 3, 3, 1), (7, 1, 0, 5), (1, 3, 6, 6), (9, 8, 8, 0), (7, 9, 2, 2), (2, 3, 6, 3), (6, 8, 3, 0), (4, 3, 3, 2), (9, 7, 3, 0), (1, 8, 6, 4), (3, 2, 4, 3), (3, 1, 7, 3), (3, 0, 9, 6), (7, 9, 1, 3), (9, 4, 2, 4), (4, 3, 2, 1), (3, 4, 2, 4), (9, 3, 2, 3), (6, 7, 0, 6), (2, 6, 5, 0), (3, 4, 6, 1), (6, 8, 4, 0), (4, 3, 4, 0), (2, 2, 4, 7), (3, 4, 0, 9), (7, 9, 4, 0), (1, 3, 6, 7), (9, 4, 5, 0), (6, 7, 0, 7), (7, 8, 3, 0), (6, 7, 9, 2), (9, 4, 2, 5), (4, 3, 4, 1), (9, 1, 3, 0), (1, 8, 3, 3), (9, 4, 6, 0), (4, 3, 5, 0), (9, 2, 1, 1), (6, 7, 5, 1), (2, 9, 4, 5), (6, 7, 9, 3), (7, 9, 4, 1), (6, 8, 5, 0), (4, 5, 0, 0), (9, 3, 2, 4), (3, 1, 0, 9), (3, 6, 5, 0), (7, 9, 3, 1), (6, 7, 2, 4), (6, 8, 5, 1), (4, 5, 0, 1), (3, 1, 7, 4), (2, 3, 0, 9), (7, 9, 1, 4), (6, 2, 3, 2), (7, 6, 6, 1), (6, 8, 4, 1), (6, 7, 5, 2), (3, 2, 8, 5), (7, 9, 1, 5), (6, 2, 6, 0), (4, 5, 0, 2), (1, 3, 6, 8), (6, 9, 6, 2), (3, 2, 9, 3), (3, 6, 5, 1), (6, 2, 6, 1), (9, 4, 7, 0), (7, 1, 4, 0), (2, 4, 4, 6), (3, 6, 6, 0), (6, 2, 7, 0), (7, 6, 0, 2), (6, 8, 6, 0), (6, 2, 8, 0), (6, 7, 5, 3), (6, 5, 7, 0), (9, 4, 7, 1), (6, 2, 0, 3), (6, 7, 5, 4), (2, 3, 8, 5), (7, 9, 5, 0), (6, 2, 7, 1), (4, 6, 0, 0), (3, 4, 2, 5), (7, 3, 1, 5), (6, 7, 5, 5), (3, 6, 6, 1), (6, 2, 7, 2), (1, 6, 7, 0), (2, 9, 7, 2), (0, 4, 0, 1), (3, 6, 7, 0), (3, 0, 7, 4), (1, 5, 4, 6), (1, 3, 4, 6), (6, 8, 6, 1), (2, 9, 7, 3), (6, 7, 5, 6), (2, 4, 5, 2), (3, 6, 7, 1), (2, 5, 8, 3), (7, 9, 5, 1), (6, 2, 7, 3), (7, 1, 4, 1), (2, 9, 9, 1), (7, 3, 2, 0), (6, 7, 5, 7), (2, 6, 3, 2), (3, 6, 8, 0), (1, 8, 9, 0), (6, 8, 6, 2), (6, 5, 0, 3), (3, 2, 2, 5), (6, 7, 2, 5), (6, 8, 4, 2), (6, 1, 6, 0), (6, 7, 5, 8), (6, 3, 9, 1), (2, 1, 9, 4), (1, 5, 4, 7), (6, 8, 7, 0), (4, 6, 0, 1), (2, 9, 4, 6), (6, 1, 6, 1), (6, 7, 5, 9), (2, 9, 1, 9), (6, 3, 9, 2), (6, 7, 6, 1), (4, 6, 0, 2), (3, 1, 4, 5), (7, 9, 1, 6), (2, 9, 6, 7), (6, 5, 7, 1), (2, 4, 7, 6), (2, 3, 8, 6), (6, 7, 2, 6), (7, 1, 5, 0), (7, 6, 6, 2), (7, 9, 4, 2), (2, 9, 0, 7), (6, 3, 9, 3), (2, 5, 8, 4), (3, 4, 6, 2), (7, 9, 0, 7), (6, 8, 7, 1), (1, 6, 6, 1), (2, 9, 4, 7), (7, 9, 4, 3), (1, 6, 2, 1), (2, 6, 1, 2), (6, 3, 2, 3), (4, 6, 1, 0), (3, 6, 9, 0), (6, 8, 8, 0), (4, 7, 0, 0), (2, 9, 4, 8), (2, 6, 6, 0), (6, 8, 9, 0), (2, 9, 0, 8), (1, 8, 9, 1), (6, 3, 9, 4), (6, 7, 6, 2), (4, 7, 1, 0), (2, 9, 6, 8), (1, 6, 5, 2), (6, 1, 7, 0), (9, 8, 9, 0), (2, 1, 4, 4), (2, 6, 6, 1), (1, 6, 6, 2), (6, 7, 1, 3), (6, 8, 8, 1), (2, 9, 7, 4), (9, 8, 9, 1), (6, 8, 8, 2), (3, 1, 1, 6), (9, 8, 7, 1), (1, 8, 3, 4), (6, 7, 6, 3), (3, 1, 1, 7), (2, 6, 3, 3), (9, 8, 7, 2), (1, 8, 5, 6), (3, 0, 9, 7), (7, 7, 2, 0), (6, 8, 8, 3), (4, 7, 1, 1), (1, 4, 1, 8), (7, 6, 6, 3), (6, 8, 8, 4), (7, 9, 4, 4), (3, 3, 1, 0), (3, 0, 9, 8), (9, 4, 8, 0), (2, 9, 7, 5), (7, 2, 3, 1), (3, 3, 1, 1), (2, 6, 6, 2), (9, 9, 2, 0), (3, 0, 9, 9), (3, 9, 5, 1), (2, 5, 2, 6), (3, 0, 1, 4), (2, 1, 7, 3), (7, 7, 0, 2), (6, 3, 9, 5), (4, 7, 1, 2), (7, 9, 5, 2), (1, 1, 5, 3), (3, 3, 2, 0), (9, 8, 9, 2), (6, 7, 6, 4), (4, 7, 2, 0), (1, 5, 4, 8), (8, 3, 0, 4), (6, 3, 9, 6), (4, 8, 0, 0), (2, 4, 4, 7), (7, 9, 1, 7), (2, 6, 0, 3), (6, 3, 0, 3), (1, 8, 9, 2), (7, 9, 3, 2), (6, 8, 4, 3), (4, 8, 0, 1), (2, 9, 7, 6), (2, 8, 4, 0), (6, 3, 0, 4), (4, 8, 1, 0), (2, 8, 4, 1), (9, 0, 3, 0), (6, 8, 4, 4), (6, 2, 9, 0), (2, 5, 7, 6), (2, 4, 4, 8), (6, 5, 8, 0), (7, 7, 2, 1), (6, 9, 0, 1), (4, 9, 0, 0), (2, 8, 0, 2), (9, 0, 3, 1), (2, 5, 7, 7), (2, 9, 4, 9), (3, 6, 6, 2), (6, 9, 1, 1), (6, 2, 9, 1), (2, 8, 5, 0), (6, 5, 9, 0), (9, 4, 9, 0), (4, 9, 1, 0), (1, 8, 5, 7), (6, 1, 6, 2), (2, 8, 5, 1), (4, 9, 2, 0), (2, 9, 7, 7), (1, 6, 8, 0), (2, 9, 0, 9), (3, 6, 4, 1), (7, 7, 1, 3), (9, 4, 9, 1), (4, 9, 2, 1), (6, 2, 8, 1), (3, 2, 4, 4), (3, 6, 3, 2), (9, 1, 4, 0), (4, 9, 3, 0), (6, 3, 4, 1), (2, 4, 2, 5), (2, 2, 9, 1), (1, 5, 1, 5), (6, 5, 9, 1), (2, 5, 2, 7), (8, 4, 0, 2), (6, 8, 5, 2), (4, 9, 4, 0), (6, 4, 7, 0), (3, 5, 8, 0), (9, 4, 9, 2), (4, 9, 3, 1), (2, 5, 7, 8), (1, 8, 9, 3), (6, 3, 9, 7), (2, 5, 2, 8), (9, 1, 4, 1), (6, 3, 4, 2), (3, 6, 8, 1), (3, 4, 7, 0), (1, 3, 8, 9), (6, 7, 2, 7), (4, 9, 5, 0), (1, 6, 8, 1), (3, 5, 9, 0), (6, 7, 0, 8), (9, 1, 4, 2), (4, 9, 5, 1), (2, 5, 0, 7), (3, 1, 9, 9), (1, 6, 6, 3), (3, 6, 8, 2), (6, 7, 2, 8), (3, 1, 6, 3), (1, 6, 1, 5), (3, 5, 9, 1), (1, 6, 3, 4), (6, 7, 4, 2), (9, 1, 5, 0), (4, 9, 6, 0), (3, 1, 5, 4), (2, 6, 7, 0), (7, 3, 1, 6), (6, 7, 0, 9), (2, 5, 0, 8), (4, 9, 6, 1), (2, 5, 2, 9), (3, 2, 4, 5), (2, 8, 6, 0), (7, 1, 1, 3), (3, 5, 2, 3), (6, 7, 3, 2), (3, 1, 1, 8), (9, 1, 5, 1), (4, 9, 6, 2), (2, 8, 1, 4), (3, 2, 7, 3), (6, 7, 2, 9), (3, 1, 7, 5), (9, 1, 6, 0), (4, 9, 7, 0), (3, 4, 5, 2), (1, 6, 7, 1), (1, 8, 3, 5), (6, 7, 4, 3), (3, 1, 4, 6), (4, 9, 7, 1), (1, 2, 6, 6), (7, 9, 4, 5), (2, 2, 9, 2), (3, 0, 5, 1), (7, 7, 0, 3), (4, 9, 8, 0), (6, 3, 4, 3), (3, 0, 5, 2), (1, 5, 4, 9), (1, 8, 3, 6), (3, 2, 7, 4), (1, 5, 2, 8), (6, 5, 1, 5), (4, 8, 2, 0), (2, 3, 3, 2), (1, 0, 7, 2), (2, 8, 7, 0), (7, 1, 4, 2), (1, 8, 4, 3), (3, 2, 7, 5), (2, 5, 0, 9), (4, 9, 8, 1), (6, 3, 6, 1), (3, 4, 5, 3), (8, 5, 0, 0), (1, 4, 1, 9), (6, 5, 1, 6), (9, 1, 4, 3), (4, 9, 9, 0), (1, 3, 2, 8), (2, 3, 3, 3), (3, 5, 8, 1), (3, 2, 4, 6), (1, 4, 7, 0), (9, 4, 6, 1), (4, 9, 9, 1), (2, 3, 1, 3), (2, 8, 1, 5), (3, 2, 7, 6), (6, 5, 0, 4), (9, 1, 4, 4), (3, 5, 5, 2), (2, 1, 0, 6), (3, 2, 8, 6), (3, 6, 3, 3), (2, 5, 5, 4), (9, 4, 6, 2), (4, 9, 9, 2), (2, 8, 5, 2), (3, 5, 5, 3), (9, 4, 7, 2), (7, 9, 3, 3), (3, 9, 5, 2), (3, 5, 5, 4), (7, 8, 0, 1), (4, 9, 1, 1), (3, 0, 7, 5), (2, 8, 5, 3), (3, 5, 8, 2), (3, 6, 3, 4), (4, 9, 7, 2), (1, 5, 6, 2), (3, 3, 3, 0), (6, 5, 3, 2), (7, 8, 4, 0), (4, 9, 2, 2), (2, 8, 0, 3), (4, 1, 1, 0), (3, 4, 8, 0), (6, 7, 1, 4), (4, 9, 9, 3), (7, 9, 3, 4), (4, 1, 2, 0), (6, 7, 9, 4), (9, 1, 7, 0), (4, 9, 5, 2), (6, 1, 8, 0), (2, 8, 0, 4), (4, 9, 5, 3), (6, 3, 6, 2), (4, 1, 2, 1), (9, 4, 6, 3), (6, 3, 5, 1), (2, 8, 1, 6), (2, 4, 4, 9), (6, 8, 5, 3), (4, 9, 2, 3), (6, 3, 1, 1), (4, 1, 3, 0), (6, 7, 9, 5), (6, 8, 7, 2), (6, 3, 0, 5), (1, 0, 9, 7), (7, 9, 3, 5), (2, 1, 6, 7), (4, 2, 2, 0), (3, 4, 8, 1), (2, 9, 6, 9), (6, 0, 5, 0), (2, 5, 7, 9), (6, 8, 7, 3), (4, 9, 9, 4), (3, 9, 5, 3), (3, 0, 7, 6), (6, 8, 4, 5), (4, 9, 2, 4), (6, 3, 1, 2), (7, 9, 3, 6), (6, 8, 5, 4), (7, 6, 3, 2), (4, 9, 2, 5), (2, 1, 4, 5), (2, 6, 2, 2), (6, 0, 5, 1), (7, 1, 4, 3), (4, 9, 1, 2), (6, 6, 1, 0), (4, 9, 4, 1), (6, 4, 8, 0), (6, 9, 0, 2), (2, 6, 8, 0), (6, 4, 8, 1), (6, 5, 1, 7), (4, 9, 4, 2), (1, 5, 6, 3), (2, 1, 0, 7), (2, 6, 6, 3), (6, 5, 3, 3), (4, 9, 4, 3), (6, 4, 0, 7), (6, 1, 9, 0), (6, 5, 1, 8), (4, 9, 3, 2), (6, 8, 6, 3), (2, 6, 3, 4), (2, 3, 8, 7), (7, 6, 6, 4), (1, 6, 7, 2), (6, 8, 5, 5), (4, 9, 4, 4), (8, 3, 0, 5), (4, 9, 1, 3), (6, 8, 4, 6), (4, 9, 2, 6), (1, 2, 4, 8), (8, 3, 2, 0), (1, 3, 3, 5), (9, 4, 6, 4), (4, 9, 1, 4), (6, 3, 3, 2), (2, 6, 6, 4), (6, 1, 0, 5), (9, 1, 8, 0), (4, 9, 2, 7), (2, 1, 6, 8), (6, 1, 4, 2), (7, 8, 3, 1), (6, 5, 1, 9), (6, 6, 1, 1), (4, 9, 2, 8), (6, 3, 3, 3), (2, 2, 1, 3), (6, 5, 0, 5), (4, 9, 2, 9), (6, 4, 3, 4), (2, 6, 9, 0), (6, 5, 4, 2), (6, 8, 7, 4), (6, 4, 9, 0), (2, 4, 5, 3), (7, 2, 5, 0), (6, 8, 4, 7), (6, 4, 9, 1), (6, 8, 6, 4), (6, 5, 4, 3), (6, 0, 6, 0), (6, 4, 9, 2), (2, 6, 6, 5), (1, 3, 7, 2), (6, 1, 0, 6), (6, 5, 0, 6), (3, 4, 8, 2), (6, 8, 7, 5), (9, 1, 9, 0), (7, 9, 4, 6), (6, 5, 4, 4), (6, 0, 7, 0), (6, 4, 9, 3), (2, 5, 4, 7), (2, 1, 9, 5), (6, 7, 3, 3), (6, 9, 1, 2), (2, 1, 7, 4), (1, 8, 4, 4), (6, 7, 3, 4), (6, 8, 4, 8), (9, 1, 9, 1), (8, 3, 0, 6), (1, 3, 4, 7), (7, 9, 0, 8), (2, 4, 2, 6), (3, 2, 9, 4), (3, 4, 5, 4), (7, 1, 3, 1), (7, 9, 1, 8), (6, 5, 4, 5), (9, 1, 9, 2), (1, 6, 1, 6), (9, 1, 1, 2), (1, 3, 3, 6), (7, 1, 6, 0), (6, 8, 4, 9), (8, 6, 0, 0), (6, 7, 3, 5), (6, 4, 9, 4), (2, 6, 6, 6), (1, 6, 7, 3), (6, 8, 6, 5), (6, 8, 6, 6), (6, 9, 2, 1), (3, 4, 7, 1), (2, 4, 5, 4), (9, 7, 4, 0), (1, 3, 9, 8), (7, 6, 6, 5), (1, 6, 7, 4), (6, 8, 6, 7), (2, 6, 6, 7), (6, 9, 0, 3), (9, 7, 4, 1), (6, 5, 4, 6), (7, 9, 4, 7), (3, 4, 8, 3), (7, 1, 3, 2), (9, 1, 1, 3), (9, 5, 2, 2), (6, 8, 6, 8), (3, 4, 8, 4), (6, 5, 4, 7), (6, 8, 6, 9), (6, 7, 4, 4), (2, 4, 5, 5), (6, 9, 0, 4), (6, 9, 0, 5), (7, 1, 0, 6), (7, 6, 7, 0), (7, 1, 3, 3), (6, 7, 4, 5), (1, 6, 1, 7), (9, 5, 1, 3), (7, 1, 7, 0), (6, 7, 4, 6), (9, 5, 6, 0), (3, 4, 7, 2), (7, 6, 7, 1), (9, 2, 9, 0), (3, 1, 5, 5), (7, 1, 6, 1), (9, 1, 2, 1), (3, 2, 8, 7), (7, 6, 0, 3), (9, 3, 1, 1), (6, 9, 0, 6), (1, 5, 8, 3), (7, 6, 8, 0), (9, 5, 6, 1), (6, 1, 6, 3), (3, 2, 8, 8), (1, 9, 3, 1), (6, 5, 5, 2), (9, 5, 7, 0), (6, 1, 8, 1), (9, 2, 9, 1), (7, 9, 1, 9), (9, 2, 0, 4), (7, 6, 8, 1), (6, 1, 0, 7), (7, 9, 6, 0), (0, 0, 8, 4), (9, 2, 9, 2), (6, 0, 8, 0), (7, 9, 0, 9), (1, 6, 2, 2), (9, 5, 8, 0), (6, 1, 8, 2), (3, 1, 6, 4), (7, 6, 7, 2), (2, 3, 8, 8), (9, 5, 9, 0), (7, 9, 6, 1), (6, 2, 0, 4), (8, 6, 1, 0), (7, 6, 8, 2), (6, 2, 6, 2), (9, 5, 9, 1), (6, 1, 8, 3), (6, 2, 2, 1), (2, 4, 5, 6), (1, 6, 5, 3), (6, 1, 8, 4), (2, 9, 9, 2), (2, 2, 1, 4), (6, 1, 6, 4), (1, 6, 6, 4), (9, 5, 9, 2), (7, 9, 4, 8), (7, 9, 2, 3), (7, 9, 3, 7), (2, 1, 9, 6), (2, 0, 2, 8), (9, 5, 8, 1), (7, 1, 4, 4), (6, 9, 0, 7), (7, 9, 6, 2), (7, 6, 9, 0), (1, 6, 1, 8), (2, 0, 7, 5), (2, 3, 7, 3), (7, 5, 2, 0), (2, 1, 9, 7), (2, 5, 5, 5), (6, 9, 0, 8), (7, 1, 2, 2), (7, 1, 7, 1), (7, 3, 3, 0), (6, 9, 0, 9), (1, 6, 8, 2), (9, 5, 9, 3), (7, 9, 7, 0), (3, 1, 4, 7), (1, 6, 9, 0), (2, 9, 7, 8), (3, 1, 7, 6), (9, 5, 9, 4), (3, 0, 2, 2), (3, 1, 7, 7), (1, 6, 3, 5), (9, 2, 0, 5), (7, 9, 8, 0), (3, 1, 6, 5), (9, 6, 3, 0), (3, 1, 4, 8), (2, 3, 7, 4), (3, 5, 0, 1), (6, 1, 0, 8), (3, 1, 7, 8), (3, 5, 0, 2), (1, 8, 3, 7), (9, 2, 6, 2), (3, 4, 8, 5), (3, 1, 3, 4), (6, 2, 5, 1), (6, 1, 4, 3), (1, 6, 6, 5), (6, 7, 7, 2), (3, 1, 4, 9), (3, 1, 1, 9), (3, 0, 7, 7), (3, 1, 3, 5), (6, 0, 9, 0), (0, 0, 2, 3), (1, 6, 1, 9), (3, 1, 7, 9), (6, 3, 7, 3), (3, 0, 2, 3), (1, 8, 1, 6), (6, 3, 4, 4), (7, 6, 9, 1), (3, 0, 2, 4), (2, 2, 3, 3), (2, 9, 9, 3), (6, 7, 7, 3), (3, 3, 4, 0), (6, 1, 4, 4), (1, 6, 7, 5), (6, 2, 9, 2), (3, 3, 4, 1), (6, 1, 4, 5), (6, 7, 8, 2), (6, 7, 7, 4), (3, 3, 4, 2), (2, 1, 7, 5), (3, 4, 2, 6), (6, 3, 2, 4), (3, 3, 5, 0), (7, 3, 0, 2), (1, 6, 7, 6), (7, 1, 5, 1), (6, 3, 0, 6), (6, 7, 7, 5), (2, 5, 8, 5), (7, 9, 7, 1), (7, 3, 3, 1), (7, 3, 4, 0), (1, 6, 6, 6), (3, 4, 3, 6), (6, 1, 4, 6), (3, 3, 5, 1), (6, 1, 4, 7), (6, 1, 4, 8), (6, 4, 4, 1), (7, 9, 9, 0), (8, 7, 0, 0), (1, 3, 9, 9), (6, 8, 1, 2), (2, 3, 3, 4), (6, 0, 0, 2), (1, 3, 3, 7), (3, 1, 3, 6), (2, 3, 6, 4), (6, 0, 0, 3), (6, 3, 9, 8), (9, 5, 9, 5), (2, 3, 8, 9), (6, 0, 3, 1), (9, 4, 1, 1), (3, 3, 6, 0), (9, 5, 0, 1), (2, 3, 3, 5), (6, 8, 5, 6), (9, 2, 4, 1), (9, 3, 6, 0), (6, 2, 9, 3), (9, 2, 5, 2), (1, 0, 7, 3), (9, 5, 6, 2), (9, 4, 7, 3), (7, 1, 4, 5), (9, 2, 5, 3), (3, 0, 3, 1), (6, 1, 0, 9), (2, 4, 7, 7), (9, 2, 5, 4), (1, 9, 2, 4), (9, 5, 0, 2), (7, 3, 4, 1), (6, 2, 9, 4), (9, 2, 5, 5), (7, 9, 7, 2), (3, 0, 0, 4), (1, 9, 0, 7), (9, 8, 2, 2), (6, 2, 9, 5), (9, 0, 4, 0), (7, 2, 5, 1), (3, 4, 2, 7), (9, 8, 9, 3), (7, 9, 8, 1), (6, 0, 0, 4), (9, 8, 9, 4), (6, 1, 4, 9), (6, 0, 1, 2), (9, 8, 2, 3), (3, 4, 9, 0), (1, 9, 4, 0), (3, 0, 0, 5), (6, 3, 6, 3), (9, 8, 2, 4), (7, 3, 1, 7), (9, 5, 2, 3), (3, 0, 0, 6), (9, 8, 2, 5), (1, 3, 6, 9), (7, 9, 9, 1), (6, 0, 1, 3), (9, 8, 2, 6), (3, 0, 3, 2), (8, 7, 0, 1), (7, 3, 3, 2), (6, 9, 1, 3), (6, 3, 6, 4), (1, 4, 0, 7), (3, 3, 6, 1), (6, 9, 1, 4), (6, 3, 5, 2), (1, 5, 1, 6), (6, 9, 2, 2), (6, 3, 5, 3), (9, 7, 4, 2), (0, 0, 9, 1), (3, 6, 1, 1), (6, 1, 8, 5), (9, 7, 5, 0), (0, 4, 1, 1), (7, 9, 7, 3), (3, 6, 2, 1), (2, 3, 1, 4), (1, 3, 3, 8), (9, 3, 4, 2), (6, 1, 9, 1), (6, 3, 1, 3), (3, 5, 0, 3), (1, 9, 4, 1), (9, 1, 9, 3), (1, 6, 9, 1), (1, 9, 5, 0), (9, 1, 1, 4), (3, 0, 6, 1), (6, 0, 0, 5), (3, 5, 0, 4), (2, 1, 6, 9), (2, 7, 6, 0), (1, 6, 9, 2), (9, 5, 2, 4), (1, 0, 3, 6), (6, 0, 0, 6), (9, 1, 9, 4), (6, 8, 2, 1), (6, 3, 4, 5), (3, 5, 0, 5), (9, 5, 2, 5), (6, 0, 9, 1), (3, 5, 2, 4), (6, 4, 7, 1), (1, 8, 9, 4), (6, 8, 7, 6), (8, 6, 2, 0), (1, 8, 1, 7), (6, 3, 6, 5), (1, 6, 8, 3), (6, 3, 8, 1), (6, 8, 9, 1), (9, 5, 4, 2), (6, 3, 8, 2), (9, 7, 4, 3), (6, 4, 0, 8), (7, 9, 4, 9), (3, 5, 1, 1), (9, 5, 2, 6), (6, 4, 5, 3), (9, 4, 7, 4), (9, 5, 2, 7), (3, 0, 7, 8), (7, 9, 7, 4), (6, 8, 9, 2), (8, 6, 2, 1), (9, 4, 8, 1), (9, 1, 0, 1), (3, 0, 2, 5), (2, 4, 7, 8), (7, 9, 6, 3), (6, 8, 7, 7), (3, 1, 3, 7), (2, 3, 3, 6), (7, 0, 5, 0), (3, 1, 5, 6), (9, 1, 0, 2), (6, 3, 2, 5), (1, 0, 7, 4), (9, 1, 1, 5), (6, 3, 6, 6), (3, 4, 2, 8), (9, 1, 7, 1), (6, 8, 7, 8), (3, 4, 5, 5), (6, 8, 5, 7), (9, 1, 0, 3), (3, 1, 3, 8), (1, 8, 3, 8), (9, 1, 1, 6), (9, 1, 1, 7), (6, 3, 8, 3), (3, 2, 5, 1), (3, 4, 7, 3), (6, 4, 9, 5), (2, 1, 7, 6), (6, 8, 2, 2), (3, 4, 8, 6), (9, 4, 1, 2), (1, 8, 1, 8), (1, 0, 7, 5), (9, 4, 0, 3), (1, 8, 4, 5), (6, 8, 0, 1), (9, 4, 0, 4), (9, 4, 0, 5), (6, 8, 7, 9), (8, 7, 1, 0), (3, 1, 3, 9), (9, 4, 0, 6), (6, 8, 3, 1), (1, 8, 4, 6), (7, 3, 5, 0), (9, 1, 0, 4), (9, 4, 1, 3), (1, 8, 3, 9), (3, 0, 3, 3), (7, 1, 6, 2), (3, 4, 9, 1), (2, 0, 7, 6), (9, 1, 1, 8), (9, 4, 1, 4), (1, 5, 6, 4), (9, 1, 1, 9), (9, 4, 1, 5), (7, 6, 0, 4), (7, 9, 6, 4), (3, 5, 1, 2), (7, 9, 3, 8), (1, 3, 7, 3), (3, 1, 8, 1), (1, 3, 2, 9), (9, 4, 0, 7), (2, 1, 7, 7), (7, 6, 5, 1), (6, 8, 9, 3), (2, 2, 9, 3), (6, 4, 9, 6), (9, 4, 7, 5), (9, 4, 0, 8), (3, 5, 1, 3), (6, 1, 5, 2), (9, 4, 6, 5), (7, 9, 2, 4), (8, 6, 0, 1), (7, 6, 3, 3), (9, 0, 5, 0), (7, 1, 7, 2), (3, 1, 5, 7), (7, 6, 0, 5), (3, 6, 1, 2), (7, 6, 0, 6), (7, 6, 3, 4), (8, 6, 3, 0), (7, 1, 4, 6), (9, 2, 9, 3), (7, 6, 5, 2), (3, 2, 5, 2), (6, 4, 9, 7), (6, 1, 5, 3), (9, 4, 1, 6), (1, 6, 3, 6), (9, 4, 0, 9), (7, 6, 0, 7), (6, 1, 5, 4), (2, 5, 8, 6), (6, 8, 5, 8), (7, 6, 0, 8), (7, 1, 7, 3), (7, 9, 2, 5), (9, 4, 6, 6), (7, 3, 6, 0), (8, 7, 1, 1), (7, 6, 6, 6), (6, 4, 9, 8), (6, 1, 5, 5), (1, 5, 8, 4), (6, 8, 3, 2), (1, 8, 1, 9), (7, 3, 2, 1), (9, 4, 3, 1), (6, 8, 0, 2), (7, 3, 0, 3), (6, 4, 5, 4), (1, 0, 7, 6), (6, 8, 5, 9), (7, 6, 0, 9), (9, 1, 9, 5), (1, 6, 6, 7), (9, 1, 0, 5), (1, 5, 8, 5), (9, 6, 4, 0), (2, 2, 9, 4), (3, 0, 3, 4), (9, 4, 3, 2), (9, 4, 6, 7), (9, 4, 6, 8), (7, 6, 6, 7), (6, 4, 0, 9), (9, 4, 6, 9), (7, 6, 8, 3), (3, 0, 2, 6), (1, 8, 6, 5), (3, 0, 0, 7), (1, 9, 5, 1), (9, 4, 2, 6), (3, 0, 7, 9), (9, 4, 2, 7), (1, 5, 8, 6), (8, 7, 0, 2), (9, 6, 5, 0), (9, 4, 3, 3), (1, 5, 7, 2), (9, 6, 5, 1), (9, 4, 2, 8), (2, 1, 7, 8), (9, 6, 4, 1), (7, 9, 3, 9), (7, 4, 3, 0), (6, 2, 2, 2), (1, 8, 5, 8), (7, 3, 1, 8), (7, 9, 9, 2), (2, 8, 5, 4), (9, 1, 0, 6), (2, 8, 5, 5), (9, 1, 9, 6), (3, 0, 0, 8), (9, 4, 7, 6), (2, 8, 0, 5), (2, 3, 1, 5), (3, 0, 3, 5), (1, 3, 4, 8), (9, 4, 2, 9), (2, 3, 1, 6), (9, 8, 0, 3), (1, 0, 3, 7), (2, 8, 1, 7), (2, 6, 6, 8), (9, 0, 6, 0), (2, 6, 0, 4), (9, 1, 9, 7), (9, 4, 7, 7), (9, 1, 3, 1), (2, 2, 0, 7), (7, 4, 4, 0), (2, 8, 0, 6), (2, 6, 9, 1), (7, 4, 4, 1), (1, 0, 3, 8), (2, 8, 8, 0), (6, 3, 2, 6), (2, 2, 9, 5), (2, 2, 0, 8), (1, 4, 7, 1), (1, 3, 5, 2), (1, 6, 0, 3), (2, 6, 9, 2), (1, 4, 6, 3), (8, 7, 2, 0), (9, 1, 3, 2), (1, 8, 7, 1), (8, 8, 0, 0), (8, 8, 0, 1), (6, 3, 3, 4), (2, 1, 7, 9), (7, 6, 6, 8), (8, 8, 0, 2), (6, 4, 6, 1), (2, 9, 7, 9), (6, 3, 3, 5), (8, 7, 3, 0), (6, 3, 2, 7), (8, 8, 1, 0), (6, 4, 6, 2), (1, 8, 5, 9), (0, 5, 0, 2), (9, 8, 0, 4), (8, 8, 0, 3), (9, 8, 0, 5), (8, 0, 1, 0), (9, 8, 8, 1), (1, 8, 2, 5), (7, 1, 4, 7), (9, 8, 8, 2), (3, 9, 3, 1), (8, 8, 1, 1), (7, 1, 6, 3), (7, 0, 6, 0), (2, 6, 9, 3), (9, 1, 0, 7), (3, 4, 5, 6), (1, 4, 4, 3), (8, 0, 1, 1), (7, 9, 5, 3), (2, 0, 2, 9), (8, 0, 1, 2), (9, 1, 0, 8), (0, 0, 8, 5), (7, 1, 8, 0), (2, 8, 8, 1), (1, 6, 0, 4), (2, 1, 9, 8), (7, 6, 7, 3), (2, 2, 9, 6), (8, 0, 0, 2), (7, 3, 0, 4), (7, 3, 4, 2), (3, 4, 9, 2), (1, 8, 9, 5), (8, 0, 2, 0), (2, 3, 1, 7), (9, 1, 9, 8), (8, 8, 0, 4), (9, 1, 0, 9), (9, 4, 7, 8), (1, 5, 1, 7), (8, 8, 2, 0), (8, 8, 2, 1), (6, 9, 1, 5), (7, 6, 9, 2), (7, 6, 8, 4), (1, 3, 7, 4), (8, 9, 0, 0), (7, 1, 0, 7), (0, 0, 5, 2), (2, 2, 3, 4), (2, 7, 0, 6), (2, 3, 1, 8), (2, 8, 8, 2), (6, 4, 5, 5), (8, 9, 0, 1), (2, 0, 8, 6), (7, 3, 4, 3), (8, 9, 1, 0), (3, 4, 8, 7), (8, 2, 4, 0), (2, 1, 0, 8), (1, 1, 0, 7), (1, 8, 8, 2), (9, 4, 7, 9), (2, 3, 1, 9), (6, 8, 8, 5), (1, 8, 4, 7), (2, 0, 9, 4), (8, 9, 2, 0), (6, 4, 9, 9), (2, 8, 9, 0), (6, 8, 8, 6), (6, 0, 7, 1), (6, 0, 6, 1), (7, 9, 6, 5), (8, 9, 2, 1), (1, 0, 9, 8), (8, 9, 2, 2), (6, 0, 9, 2), (7, 3, 6, 1), (8, 9, 2, 3), (6, 9, 1, 6), (9, 4, 1, 7), (8, 9, 2, 4), (6, 3, 5, 4), (8, 9, 3, 0), (0, 4, 0, 2), (7, 0, 7, 0), (8, 7, 4, 0), (9, 4, 1, 8), (1, 8, 2, 6), (7, 3, 6, 2), (3, 4, 1, 3), (9, 4, 1, 9), (1, 0, 9, 9), (7, 9, 9, 3), (3, 1, 5, 8), (8, 7, 4, 1), (1, 5, 5, 1), (2, 7, 2, 4), (8, 9, 2, 5), (2, 3, 3, 7), (7, 9, 8, 2), (1, 3, 4, 9), (8, 9, 2, 6), (7, 0, 7, 1), (7, 0, 8, 0), (6, 3, 4, 6), (2, 7, 2, 5), (6, 2, 2, 3), (2, 6, 9, 4), (6, 3, 9, 9), (2, 1, 9, 9), (1, 8, 8, 3), (8, 8, 3, 0), (9, 0, 7, 0), (2, 0, 9, 5), (7, 3, 5, 1), (9, 0, 7, 1), (2, 3, 7, 5), (2, 4, 7, 9), (8, 8, 3, 1), (7, 3, 7, 0), (2, 8, 9, 1), (8, 8, 0, 5), (1, 8, 9, 6), (8, 7, 0, 3), (6, 2, 2, 4), (6, 7, 8, 3), (7, 3, 6, 3), (8, 8, 4, 0), (9, 8, 9, 5), (7, 9, 8, 3), (8, 8, 4, 1), (9, 1, 7, 2), (7, 3, 6, 4), (3, 9, 5, 4), (2, 8, 9, 2), (9, 0, 8, 0), (0, 0, 9, 2), (8, 0, 1, 3), (2, 3, 7, 6), (1, 5, 9, 1), (9, 8, 9, 6), (1, 6, 6, 8), (7, 6, 7, 4), (8, 8, 5, 0), (2, 8, 8, 3), (6, 4, 1, 3), (2, 8, 9, 3), (2, 8, 9, 4), (2, 5, 3, 5), (2, 8, 1, 8), (2, 0, 9, 6), (1, 4, 3, 3), (1, 6, 9, 3), (1, 9, 0, 8), (1, 5, 5, 2), (2, 1, 5, 5), (2, 3, 7, 7), (2, 1, 0, 9), (2, 3, 7, 8), (2, 1, 3, 4), (2, 5, 9, 1), (6, 0, 0, 7), (2, 7, 2, 6), (6, 1, 3, 1), (8, 7, 3, 1), (1, 8, 8, 4), (6, 0, 1, 4), (6, 0, 1, 5), (1, 8, 2, 7), (8, 8, 1, 2), (6, 2, 9, 6), (2, 0, 7, 7), (7, 3, 0, 5), (3, 4, 8, 8), (6, 2, 9, 7), (6, 2, 0, 5), (2, 7, 7, 0), (6, 2, 2, 5), (2, 7, 7, 1), (7, 0, 7, 2), (7, 0, 1, 3), (6, 5, 3, 4), (7, 9, 7, 5), (2, 8, 9, 5), (7, 9, 9, 4), (7, 3, 4, 4), (2, 8, 9, 6), (2, 2, 9, 7), (1, 9, 6, 0), (1, 9, 6, 1), (2, 0, 9, 7), (2, 8, 1, 9), (2, 8, 3, 2), (2, 3, 7, 9), (6, 4, 5, 6), (9, 1, 9, 9), (6, 4, 5, 7), (0, 1, 8, 3), (2, 3, 6, 5), (9, 8, 0, 6), (0, 0, 2, 4), (9, 8, 0, 7), (9, 8, 0, 8), (6, 2, 0, 6), (2, 0, 9, 8), (2, 6, 2, 3), (2, 8, 0, 7), (2, 0, 9, 9), (1, 9, 1, 1), (7, 1, 0, 8), (6, 4, 5, 8), (3, 4, 5, 7), (6, 4, 6, 3), (6, 2, 9, 8), (2, 8, 3, 3), (7, 1, 0, 9), (6, 2, 9, 9), (3, 4, 5, 8), (7, 9, 9, 5), (6, 7, 3, 6), (6, 2, 7, 4), (2, 0, 7, 8), (6, 5, 4, 8), (6, 2, 7, 5), (1, 3, 3, 9), (6, 1, 8, 6), (7, 9, 2, 6), (9, 4, 8, 2), (6, 5, 4, 9), (6, 1, 6, 5), (6, 1, 8, 7), (9, 4, 8, 3), (6, 1, 6, 6), (6, 2, 5, 2), (7, 6, 8, 5), (3, 9, 6, 0), (2, 8, 0, 8), (6, 2, 8, 2), (6, 1, 8, 8), (3, 6, 3, 5), (6, 1, 6, 7), (6, 5, 0, 7), (6, 1, 6, 8), (1, 9, 6, 2), (2, 2, 7, 3), (7, 2, 5, 2), (3, 2, 0, 3), (6, 1, 6, 9), (3, 1, 6, 6), (2, 2, 1, 5), (6, 1, 7, 1), (3, 4, 2, 9), (8, 3, 0, 7), (7, 7, 0, 4), (2, 4, 2, 7), (7, 3, 6, 5), (2, 8, 0, 9), (0, 0, 1, 9), (8, 3, 0, 8), (7, 6, 7, 5), (6, 1, 7, 2), (7, 6, 6, 9), (7, 6, 4, 1), (7, 6, 2, 3), (0, 0, 6, 7), (6, 5, 0, 8), (6, 1, 7, 3), (7, 7, 1, 4), (6, 1, 7, 4), (3, 4, 5, 9), (6, 1, 7, 5), (2, 2, 8, 2), (6, 1, 8, 9), (6, 8, 9, 4), (7, 6, 4, 2), (3, 2, 0, 4), (3, 2, 5, 3), (7, 6, 4, 3), (2, 2, 7, 4), (6, 1, 7, 6), (6, 5, 0, 9), (2, 6, 0, 5), (6, 1, 7, 7), (6, 0, 8, 1), (6, 8, 9, 5), (3, 6, 3, 6), (8, 9, 4, 0), (8, 9, 4, 1), (8, 4, 1, 0), (1, 5, 6, 5), (6, 1, 7, 8), (3, 6, 3, 7), (7, 6, 4, 4), (3, 2, 7, 7), (1, 2, 6, 7), (3, 0, 5, 3), (6, 1, 7, 9), (6, 8, 9, 6), (8, 4, 2, 0), (7, 8, 4, 1), (3, 9, 7, 0), (6, 8, 9, 7), (6, 2, 7, 6), (3, 1, 8, 2), (6, 1, 9, 2), (3, 6, 3, 8), (0, 2, 2, 8), (3, 2, 3, 3), (6, 0, 8, 2), (3, 5, 1, 4), (0, 6, 0, 0), (3, 6, 3, 9), (3, 6, 2, 2), (6, 0, 8, 3), (8, 6, 4, 0), (6, 1, 9, 3), (7, 9, 2, 7), (3, 6, 0, 2), (8, 6, 4, 1), (6, 0, 8, 4), (7, 6, 9, 3), (6, 1, 9, 4), (3, 6, 2, 3), (7, 1, 5, 2), (6, 7, 6, 5), (6, 0, 8, 5), (6, 2, 8, 3), (6, 0, 8, 6), (6, 7, 1, 5), (0, 7, 0, 0), (3, 9, 5, 5), (0, 7, 0, 1), (0, 2, 5, 6), (0, 7, 1, 0), (1, 5, 9, 2), (6, 2, 8, 4), (6, 7, 7, 6), (7, 4, 5, 0), (6, 0, 8, 7), (3, 2, 5, 4), (7, 3, 8, 0), (8, 6, 4, 2), (7, 6, 8, 6), (8, 9, 5, 0), (6, 0, 8, 8), (6, 5, 3, 5), (3, 2, 5, 5), (7, 1, 8, 1), (6, 5, 3, 6), (8, 9, 5, 1), (3, 7, 3, 0), (8, 4, 1, 1), (6, 0, 8, 9), (7, 6, 8, 7), (7, 9, 8, 4), (8, 9, 1, 1), (7, 8, 3, 2), (5, 8, 0, 0), (6, 5, 6, 2), (8, 0, 3, 0), (8, 9, 6, 0), (6, 2, 7, 7), (8, 0, 3, 1), (1, 0, 7, 7), (7, 8, 4, 2), (6, 2, 7, 8), (8, 0, 4, 0), (3, 0, 4, 1), (6, 2, 3, 3), (3, 0, 5, 4), (8, 4, 2, 1), (2, 3, 3, 8), (2, 3, 6, 6), (3, 7, 4, 0), (2, 8, 3, 4), (8, 4, 3, 0), (5, 9, 0, 0), (8, 2, 2, 1), (3, 6, 5, 2), (6, 2, 7, 9), (8, 4, 4, 0), (7, 1, 5, 3), (3, 0, 5, 5), (8, 0, 3, 2), (7, 8, 5, 0), (2, 3, 6, 7), (8, 6, 5, 0), (6, 6, 2, 0), (3, 2, 5, 6), (2, 3, 6, 8), (6, 7, 6, 6), (2, 4, 2, 8), (6, 6, 2, 1), (7, 9, 8, 5), (5, 8, 0, 1), (3, 0, 5, 6), (7, 6, 8, 8), (6, 7, 6, 7), (3, 0, 5, 7), (7, 6, 8, 9), (0, 1, 2, 9), (2, 8, 3, 5), (7, 8, 5, 1), (3, 6, 2, 4), (6, 7, 6, 8), (2, 6, 2, 4), (7, 6, 7, 6), (2, 8, 3, 6), (6, 7, 6, 9), (1, 6, 6, 9), (8, 6, 4, 3), (2, 8, 3, 7), (8, 8, 6, 0), (7, 6, 1, 1), (6, 1, 9, 5), (7, 6, 3, 5), (8, 8, 4, 2), (2, 3, 6, 9), (6, 1, 9, 6), (6, 7, 9, 6), (7, 1, 9, 0), (2, 8, 3, 8), (6, 7, 9, 7), (4, 1, 4, 0), (1, 0, 7, 8), (5, 8, 0, 2), (7, 7, 0, 5), (2, 8, 3, 9), (6, 0, 5, 2), (3, 6, 6, 3), (6, 7, 9, 8), (7, 6, 1, 2), (6, 1, 9, 7), (3, 2, 8, 9), (3, 2, 7, 8), (6, 7, 9, 9), (6, 8, 9, 8), (3, 3, 7, 0), (7, 6, 1, 3), (4, 1, 5, 0), (3, 6, 7, 2), (3, 3, 7, 1), (4, 1, 5, 1), (3, 6, 6, 4), (8, 8, 4, 3), (3, 3, 7, 2), (8, 8, 6, 1), (1, 3, 5, 3), (3, 3, 7, 3), (0, 6, 0, 1), (3, 3, 8, 0), (3, 6, 4, 2), (2, 8, 2, 1), (7, 6, 1, 4), (7, 8, 4, 3), (6, 7, 3, 7), (8, 9, 6, 1), (3, 3, 9, 0), (2, 1, 5, 6), (6, 5, 9, 2), (2, 8, 8, 4), (3, 6, 4, 3), (7, 5, 3, 0), (8, 9, 6, 2), (7, 5, 4, 0), (3, 6, 4, 4), (8, 9, 6, 3), (0, 7, 0, 2), (5, 8, 1, 0), (3, 9, 5, 6), (3, 4, 6, 3), (7, 5, 4, 1), (0, 0, 6, 8), (3, 6, 4, 5), (8, 9, 7, 0), (6, 1, 9, 8), (8, 4, 5, 0), (7, 1, 9, 1), (7, 5, 5, 0), (9, 8, 8, 3), (8, 4, 1, 2), (7, 9, 5, 4), (6, 4, 5, 9), (9, 7, 6, 0), (7, 1, 6, 4), (3, 9, 5, 7), (9, 7, 6, 1), (8, 4, 2, 2), (0, 0, 7, 4), (6, 4, 3, 5), (9, 7, 7, 0), (1, 2, 9, 0), (9, 7, 8, 0), (8, 9, 5, 2), (1, 5, 1, 8), (9, 8, 2, 7), (3, 2, 7, 9), (9, 8, 2, 8), (7, 0, 6, 1), (3, 9, 7, 1), (1, 2, 4, 9), (3, 9, 8, 0), (8, 9, 8, 0), (1, 8, 2, 8), (8, 4, 6, 0), (7, 0, 6, 2), (3, 7, 5, 0), (8, 9, 9, 0), (7, 9, 8, 6), (1, 6, 7, 7), (7, 0, 1, 4), (7, 1, 9, 2), (3, 9, 5, 8), (6, 3, 6, 7), (8, 9, 9, 1), (6, 2, 8, 5), (3, 3, 1, 2), (3, 3, 1, 3), (7, 1, 4, 8), (4, 2, 3, 0), (5, 9, 1, 0), (7, 1, 9, 3), (3, 9, 9, 0), (8, 2, 5, 0), (8, 2, 5, 1), (7, 0, 9, 0), (3, 9, 9, 1), (3, 3, 0, 4), (3, 3, 0, 5), (3, 3, 0, 6), (7, 9, 8, 7), (2, 4, 5, 7), (3, 3, 1, 4), (2, 1, 5, 7), (8, 2, 6, 0), (7, 1, 4, 9), (1, 2, 9, 1), (7, 8, 5, 2), (6, 2, 0, 7), (8, 2, 7, 0), (8, 2, 8, 0), (1, 4, 3, 4), (5, 9, 2, 0), (7, 2, 6, 0), (8, 2, 9, 0), (3, 9, 5, 9), (2, 0, 8, 7), (8, 2, 7, 1), (8, 2, 8, 1), (7, 0, 3, 2), (8, 2, 8, 2), (7, 1, 5, 4), (3, 9, 9, 2), (7, 1, 5, 5), (7, 6, 4, 5), (6, 7, 7, 7), (2, 8, 4, 2), (6, 7, 1, 6), (2, 8, 4, 3), (6, 7, 3, 8), (6, 7, 3, 9), (2, 5, 3, 6), (7, 6, 4, 6), (2, 8, 4, 4), (1, 5, 2, 9), (7, 9, 8, 8), (1, 5, 6, 6), (2, 8, 8, 5), (0, 6, 1, 0), (2, 8, 5, 6), (7, 6, 7, 7), (3, 4, 6, 4), (6, 7, 8, 4), (0, 7, 1, 1), (8, 8, 7, 0), (1, 8, 2, 9), (6, 7, 8, 5), (7, 5, 6, 0), (6, 7, 8, 6), (2, 8, 8, 6), (2, 5, 3, 7), (7, 1, 5, 6), (6, 7, 8, 7), (7, 0, 9, 1), (2, 8, 4, 5), (7, 1, 6, 5), (1, 4, 5, 5), (1, 5, 6, 7), (1, 1, 1, 4), (7, 0, 9, 2), (7, 0, 3, 3), (7, 7, 3, 0), (7, 1, 5, 7), (7, 0, 2, 1), (6, 1, 9, 9), (7, 5, 6, 1), (1, 3, 7, 5), (7, 2, 2, 2), (2, 8, 5, 7), (7, 0, 9, 3), (7, 8, 5, 3), (7, 0, 6, 3), (2, 5, 9, 2), (7, 0, 3, 4), (7, 0, 2, 2), (3, 2, 9, 5), (8, 8, 7, 1), (7, 0, 3, 5), (8, 8, 8, 0), (1, 6, 7, 8), (2, 1, 4, 6), (8, 8, 8, 1), (7, 6, 7, 8), (3, 2, 0, 5), (2, 5, 4, 8), (8, 3, 3, 0), (7, 8, 5, 4), (0, 0, 3, 9), (8, 3, 3, 1), (5, 8, 1, 1), (7, 8, 6, 0), (5, 8, 0, 3), (7, 8, 6, 1), (7, 1, 5, 8), (5, 8, 2, 0), (8, 3, 3, 2), (7, 0, 3, 6), (2, 5, 5, 6), (1, 0, 4, 8), (8, 4, 3, 1), (7, 8, 5, 5), (7, 1, 3, 4), (8, 3, 0, 9), (5, 8, 2, 1), (7, 0, 3, 7), (5, 8, 2, 2), (2, 8, 5, 8), (7, 2, 6, 1), (2, 1, 5, 8), (7, 8, 6, 2), (8, 3, 4, 0), (7, 6, 9, 4), (7, 6, 7, 9), (5, 0, 2, 0), (8, 3, 5, 0), (7, 9, 8, 9), (5, 8, 2, 3), (8, 8, 2, 2), (2, 7, 8, 0), (8, 8, 9, 0), (7, 8, 7, 0), (5, 8, 1, 2), (8, 8, 9, 1), (7, 1, 9, 4), (5, 1, 3, 0), (8, 8, 0, 6), (7, 6, 1, 5), (5, 8, 3, 0), (8, 8, 7, 2), (2, 8, 5, 9), (8, 8, 9, 2), (5, 0, 3, 0), (7, 6, 3, 6), (8, 8, 8, 2), (5, 0, 4, 0), (8, 3, 6, 0), (2, 6, 8, 1), (7, 7, 1, 5), (8, 8, 0, 7), (7, 0, 1, 5), (8, 8, 0, 8), (5, 6, 2, 0), (7, 7, 0, 6), (8, 8, 9, 3), (7, 2, 6, 2), (5, 2, 2, 0), (7, 7, 4, 0), (2, 3, 3, 9), (8, 8, 0, 9), (6, 3, 0, 7), (5, 0, 3, 1), (7, 6, 3, 7), (8, 8, 3, 2), (6, 3, 0, 8), (8, 9, 2, 7), (7, 1, 3, 5), (6, 3, 5, 5), (2, 6, 4, 1), (7, 7, 4, 1), (6, 1, 2, 3), (7, 2, 6, 3), (5, 1, 4, 0), (5, 0, 3, 2), (7, 7, 1, 6), (7, 2, 7, 0), (2, 6, 4, 2), (7, 0, 0, 4), (5, 0, 5, 0), (7, 7, 4, 2), (8, 9, 3, 1), (5, 1, 3, 1), (7, 8, 8, 0), (2, 9, 5, 4), (5, 8, 0, 4), (7, 6, 3, 8), (8, 3, 7, 0), (8, 8, 8, 3), (5, 8, 4, 0), (7, 6, 3, 9), (5, 0, 2, 1), (5, 8, 4, 1), (8, 3, 7, 1), (7, 0, 1, 6), (5, 8, 0, 5), (6, 3, 0, 9), (7, 0, 2, 3), (5, 1, 3, 2), (8, 3, 7, 2), (6, 3, 6, 8), (0, 5, 2, 0), (7, 7, 5, 0), (7, 4, 2, 2), (7, 8, 9, 0), (7, 7, 5, 1), (7, 9, 5, 5), (6, 0, 0, 8), (7, 4, 6, 0), (6, 0, 0, 9), (8, 4, 7, 0), (8, 9, 0, 2), (5, 0, 2, 2), (7, 0, 1, 7), (5, 1, 4, 1), (5, 0, 6, 0), (8, 9, 4, 2), (7, 4, 6, 1), (7, 8, 8, 1), (7, 0, 0, 5), (8, 4, 1, 3), (8, 3, 8, 0), (7, 8, 2, 2), (7, 2, 2, 3), (8, 4, 0, 3), (7, 6, 5, 3), (5, 0, 6, 1), (5, 1, 3, 3), (8, 3, 8, 1), (5, 1, 4, 2), (8, 3, 9, 0), (5, 8, 3, 1), (7, 6, 1, 6), (8, 3, 9, 1), (8, 9, 0, 3), (5, 0, 6, 2), (7, 8, 8, 2), (8, 3, 8, 2), (7, 4, 7, 0), (5, 0, 7, 0), (5, 8, 5, 0), (2, 6, 5, 1), (9, 6, 6, 0), (5, 1, 5, 0), (5, 0, 7, 1), (8, 8, 7, 3), (7, 7, 6, 0), (7, 9, 7, 6), (7, 1, 9, 5), (8, 8, 3, 3), (3, 2, 1, 1), (9, 6, 7, 0), (0, 0, 5, 3), (7, 1, 9, 6), (2, 5, 9, 3), (7, 2, 5, 3), (5, 8, 5, 1), (5, 0, 7, 2), (5, 1, 5, 1), (8, 8, 3, 4), (3, 2, 2, 6), (0, 4, 1, 2), (7, 9, 2, 8), (2, 6, 5, 2), (5, 0, 7, 3), (5, 1, 6, 0), (2, 2, 0, 9), (7, 2, 6, 4), (5, 0, 8, 0), (3, 8, 2, 1), (5, 0, 9, 0), (3, 9, 9, 3), (7, 7, 7, 0), (3, 5, 9, 2), (1, 0, 4, 9), (3, 6, 8, 3), (7, 9, 9, 6), (2, 2, 9, 8), (7, 3, 2, 2), (9, 6, 8, 0), (5, 0, 7, 4), (3, 6, 8, 4), (7, 1, 3, 6), (1, 1, 6, 0), (2, 2, 9, 9), (7, 6, 4, 7), (5, 0, 9, 1), (8, 4, 8, 0), (2, 6, 7, 1), (5, 0, 6, 3), (7, 2, 6, 5), (8, 3, 7, 3), (2, 8, 6, 1), (8, 5, 1, 0), (2, 5, 8, 7), (2, 6, 7, 2), (5, 8, 6, 0), (8, 5, 1, 1), (8, 5, 1, 2), (5, 0, 6, 4), (5, 1, 6, 1), (8, 5, 2, 0), (8, 9, 2, 8), (5, 0, 6, 5), (8, 9, 3, 2), (6, 7, 8, 8), (8, 5, 3, 0), (7, 2, 6, 6), (5, 0, 6, 6), (8, 5, 3, 1), (8, 9, 2, 9), (8, 9, 7, 1), (2, 8, 7, 1), (8, 5, 4, 0), (8, 9, 3, 3), (8, 8, 9, 4), (1, 6, 7, 9), (8, 0, 5, 0), (8, 2, 1, 1), (8, 0, 6, 0), (9, 6, 9, 0), (8, 2, 1, 2), (8, 1, 1, 0), (5, 9, 3, 0), (3, 8, 3, 0), (8, 2, 3, 3), (2, 8, 7, 2), (8, 9, 3, 4), (8, 0, 7, 0), (2, 8, 7, 3), (5, 8, 6, 1), (7, 1, 9, 7), (8, 2, 0, 5), (8, 0, 7, 1), (2, 8, 7, 4), (3, 7, 6, 0), (8, 0, 7, 2), (9, 4, 4, 1), (5, 8, 7, 0), (8, 0, 8, 0), (9, 9, 3, 0), (7, 1, 9, 8), (8, 9, 3, 5), (9, 9, 3, 1), (5, 9, 3, 1), (7, 1, 6, 6), (8, 9, 0, 4), (9, 0, 9, 0), (5, 4, 0, 2), (8, 9, 0, 5), (9, 0, 9, 1), (8, 1, 2, 0), (8, 0, 9, 0), (8, 0, 9, 1), (5, 9, 4, 0), (8, 9, 0, 6), (5, 3, 1, 2), (8, 0, 9, 2), (8, 2, 3, 4), (7, 6, 9, 5), (8, 1, 3, 0), (8, 2, 0, 6), (8, 2, 2, 2), (8, 9, 0, 7), (8, 1, 3, 1), (8, 2, 0, 7), (8, 0, 9, 3), (8, 1, 2, 1), (8, 9, 7, 2), (8, 1, 4, 0), (8, 1, 5, 0), (8, 8, 8, 4), (8, 1, 4, 1), (8, 1, 6, 0), (5, 4, 1, 0), (5, 1, 6, 2), (8, 0, 2, 1), (8, 1, 6, 1), (5, 4, 1, 1), (7, 6, 1, 7), (8, 2, 2, 3), (5, 8, 0, 6), (8, 0, 0, 3), (8, 1, 7, 0), (8, 0, 4, 1), (8, 1, 8, 0), (5, 4, 1, 2), (5, 8, 4, 2), (8, 1, 8, 1), (7, 2, 6, 7), (8, 1, 9, 0), (5, 4, 2, 0), (8, 1, 9, 1), (7, 2, 8, 0), (5, 9, 5, 0), (8, 0, 0, 4), (8, 1, 7, 1), (5, 9, 6, 0), (1, 1, 5, 4), (8, 1, 6, 2), (7, 6, 9, 6), (5, 1, 5, 2), (7, 0, 6, 4), (8, 1, 6, 3), (7, 2, 8, 1), (8, 2, 2, 4), (7, 9, 7, 7), (8, 0, 0, 5), (5, 9, 0, 1), (7, 2, 3, 2), (7, 6, 9, 7), (8, 0, 1, 4), (3, 0, 5, 8), (7, 2, 6, 8), (8, 1, 0, 1), (8, 1, 6, 4), (3, 7, 7, 0), (8, 1, 9, 2), (8, 1, 1, 1), (8, 1, 3, 2), (1, 6, 0, 5), (8, 1, 0, 2), (8, 1, 9, 3), (7, 2, 8, 2), (8, 1, 7, 2), (8, 1, 6, 5), (8, 1, 1, 2), (7, 9, 2, 9), (8, 1, 0, 3), (8, 1, 3, 3), (1, 6, 8, 4), (8, 1, 9, 4), (8, 0, 1, 5), (8, 1, 9, 5), (1, 6, 8, 5), (7, 0, 1, 8), (8, 0, 0, 6), (8, 1, 6, 6), (8, 1, 6, 7), (7, 4, 3, 1), (2, 4, 5, 8), (8, 1, 9, 6), (7, 6, 1, 8), (5, 3, 2, 0), (2, 0, 8, 8), (8, 1, 0, 4), (5, 3, 2, 1), (7, 1, 9, 9), (7, 0, 2, 4), (8, 0, 0, 7), (8, 1, 1, 3), (6, 7, 8, 9), (8, 1, 7, 3), (7, 0, 1, 9), (8, 1, 0, 5), (8, 1, 7, 4), (8, 1, 0, 6), (8, 1, 7, 5), (7, 2, 7, 1), (8, 1, 0, 7), (7, 4, 2, 3), (8, 0, 0, 8), (5, 3, 3, 0), (7, 2, 1, 3), (5, 1, 6, 3), (5, 3, 3, 1), (5, 4, 3, 0), (7, 2, 9, 0), (7, 2, 6, 9), (8, 0, 1, 6), (5, 3, 3, 2), (5, 3, 4, 0), (7, 6, 1, 9), (8, 0, 1, 7), (5, 3, 4, 1), (1, 5, 5, 3), (1, 1, 7, 0), (5, 3, 4, 2), (8, 6, 6, 0), (5, 6, 3, 0), (8, 0, 1, 8), (5, 6, 3, 1), (7, 6, 5, 4), (5, 6, 4, 0), (5, 1, 6, 4), (8, 0, 1, 9), (5, 6, 4, 1), (5, 6, 5, 0), (1, 5, 5, 4), (8, 0, 0, 9), (1, 6, 2, 3), (8, 1, 0, 8), (5, 6, 5, 1), (5, 8, 5, 2), (5, 6, 6, 0), (7, 6, 9, 8), (5, 6, 6, 1), (7, 2, 9, 1), (7, 2, 8, 3), (7, 9, 7, 8), (5, 6, 6, 2), (2, 2, 2, 5), (5, 1, 5, 3), (5, 3, 5, 0), (5, 4, 4, 0), (7, 1, 1, 4), (5, 4, 5, 0), (7, 0, 2, 5), (5, 3, 6, 0), (5, 3, 7, 0), (5, 6, 7, 0), (5, 6, 7, 1), (2, 1, 4, 7), (5, 6, 8, 0), (5, 6, 8, 1), (5, 6, 9, 0), (7, 0, 0, 6), (5, 6, 9, 1), (7, 6, 9, 9), (8, 8, 1, 3), (7, 3, 0, 6), (7, 0, 0, 7), (2, 1, 5, 9), (7, 3, 9, 0), (2, 2, 3, 5), (5, 6, 9, 2), (2, 2, 7, 5), (5, 6, 9, 3), (7, 0, 7, 3), (2, 2, 3, 6), (5, 7, 1, 0), (7, 0, 0, 8), (1, 5, 8, 7), (2, 6, 1, 3), (5, 6, 9, 4), (7, 0, 8, 1), (0, 0, 9, 3), (2, 8, 8, 7), (5, 6, 9, 5), (2, 2, 2, 6), (2, 6, 8, 2), (5, 6, 9, 6), (3, 4, 3, 7), (5, 2, 3, 0), (2, 6, 1, 4), (0, 8, 0, 0), (5, 6, 0, 3), (3, 4, 3, 8), (2, 6, 0, 6), (7, 3, 9, 1), (5, 6, 9, 7), (8, 3, 8, 3), (7, 3, 9, 2), (3, 1, 6, 7), (2, 2, 3, 7), (5, 2, 3, 1), (7, 0, 8, 2), (5, 2, 4, 0), (2, 2, 8, 3), (7, 0, 8, 3), (7, 3, 6, 6), (5, 2, 4, 1), (7, 5, 7, 0), (7, 7, 4, 3), (2, 0, 8, 9), (7, 7, 6, 1), (2, 2, 8, 4), (5, 2, 5, 0), (2, 0, 4, 3), (5, 3, 8, 0), (7, 4, 1, 2), (5, 3, 8, 1), (5, 6, 0, 4), (5, 6, 3, 2), (7, 7, 6, 2), (5, 6, 3, 3), (1, 3, 7, 6), (5, 6, 3, 4), (5, 6, 3, 5), (5, 3, 9, 0), (5, 1, 4, 3), (5, 3, 9, 1), (5, 1, 5, 4), (8, 1, 0, 9), (1, 8, 4, 8), (5, 3, 9, 2), (7, 0, 8, 4), (5, 3, 4, 3), (5, 3, 3, 3), (2, 0, 7, 9), (7, 0, 7, 4), (5, 1, 6, 5), (5, 4, 6, 0), (1, 1, 7, 1), (5, 4, 6, 1), (6, 7, 4, 7), (5, 4, 7, 0), (8, 3, 7, 4), (3, 4, 1, 4), (5, 4, 7, 1), (5, 4, 8, 0), (7, 0, 2, 6), (5, 1, 5, 5), (8, 4, 7, 1), (5, 4, 9, 0), (5, 8, 5, 3), (8, 6, 0, 2), (7, 2, 8, 4), (5, 4, 9, 1), (7, 2, 7, 2), (6, 7, 4, 8), (5, 4, 8, 1), (8, 6, 3, 1), (8, 1, 5, 1), (7, 5, 7, 1), (7, 7, 4, 4), (1, 9, 4, 2), (5, 4, 1, 3), (2, 5, 8, 8), (7, 5, 7, 2), (3, 4, 1, 5), (1, 9, 1, 2), (5, 4, 1, 4), (7, 5, 0, 2), (7, 7, 8, 0), (0, 5, 3, 0), (5, 4, 8, 2), (7, 4, 8, 0), (8, 2, 1, 3), (7, 0, 8, 5), (7, 0, 0, 9), (8, 2, 3, 5), (5, 1, 7, 0), (1, 1, 4, 3), (5, 4, 0, 3), (2, 5, 8, 9), (7, 5, 8, 0), (7, 0, 7, 5), (1, 6, 3, 7), (5, 4, 0, 4), (7, 0, 8, 6), (0, 1, 8, 4), (6, 7, 4, 9), (5, 4, 2, 1), (7, 0, 8, 7), (7, 2, 7, 3), (7, 0, 8, 8), (5, 1, 7, 1), (5, 4, 0, 5), (5, 3, 1, 3), (5, 0, 7, 5), (1, 5, 5, 5), (0, 2, 2, 9), (5, 6, 2, 1), (3, 0, 2, 7), (1, 9, 7, 0), (5, 0, 4, 1), (7, 0, 4, 1), (7, 5, 9, 0), (1, 9, 8, 0), (5, 6, 2, 2), (7, 0, 4, 2), (7, 4, 8, 1), (3, 0, 2, 8), (5, 6, 2, 3), (7, 0, 8, 9), (5, 1, 8, 0), (1, 9, 8, 1), (3, 4, 4, 3), (3, 0, 6, 2), (1, 9, 9, 0), (5, 6, 0, 5), (5, 6, 0, 6), (5, 6, 0, 7), (5, 6, 0, 8), (7, 4, 8, 2), (5, 1, 8, 1), (1, 9, 7, 1), (5, 6, 0, 9), (7, 4, 9, 0), (1, 9, 9, 1), (6, 8, 0, 3), (5, 7, 2, 0), (7, 4, 9, 1), (0, 7, 1, 2), (5, 6, 1, 1), (8, 7, 5, 0), (5, 7, 3, 0), (7, 0, 2, 7), (7, 8, 0, 2), (5, 7, 2, 1), (7, 0, 9, 4), (1, 9, 9, 2), (5, 7, 4, 0), (8, 7, 5, 1), (1, 9, 9, 3), (1, 9, 9, 4), (5, 7, 5, 0), (7, 5, 8, 1), (1, 9, 9, 5), (7, 2, 7, 4), (7, 4, 8, 3), (7, 0, 9, 5), (1, 0, 7, 9), (7, 8, 0, 3), (1, 9, 9, 6), (5, 7, 4, 1), (7, 8, 4, 4), (7, 4, 9, 2), (8, 7, 5, 2), (5, 7, 6, 0), (5, 1, 6, 6), (5, 0, 2, 3), (1, 9, 9, 7), (5, 7, 7, 0), (7, 4, 8, 4), (5, 0, 3, 3), (7, 8, 4, 5), (5, 7, 8, 0), (5, 1, 6, 7), (5, 0, 5, 1), (7, 2, 2, 4), (1, 9, 9, 8), (9, 3, 6, 1), (8, 7, 5, 3), (7, 4, 9, 3), (7, 0, 9, 6), (1, 0, 3, 9), (6, 4, 2, 6), (5, 1, 5, 6), (1, 9, 8, 2), (7, 0, 2, 8), (1, 9, 9, 9), (1, 9, 8, 3), (1, 5, 5, 6), (7, 2, 1, 4), (3, 0, 2, 9), (7, 1, 3, 7), (9, 6, 8, 1), (8, 7, 5, 4), (5, 0, 3, 4), (7, 8, 4, 6), (7, 8, 4, 7), (7, 0, 6, 5), (7, 8, 0, 4), (8, 7, 6, 0), (7, 9, 6, 6), (7, 8, 0, 5), (1, 2, 8, 3), (7, 0, 5, 1), (5, 1, 7, 2), (7, 8, 0, 6), (7, 2, 9, 2), (7, 8, 4, 8), (7, 0, 9, 7), (8, 7, 6, 1), (1, 9, 8, 4), (7, 4, 8, 5), (7, 8, 7, 1), (1, 9, 8, 5), (7, 4, 8, 6), (7, 4, 1, 3), (7, 3, 5, 2), (5, 8, 8, 0), (1, 9, 8, 6), (7, 4, 4, 2), (7, 2, 8, 5), (1, 9, 7, 2), (2, 1, 4, 8), (5, 0, 9, 2), (7, 8, 0, 7), (1, 9, 8, 7), (7, 8, 7, 2), (7, 2, 9, 3), (7, 4, 8, 7), (1, 9, 8, 8), (7, 5, 7, 3), (1, 9, 1, 3), (5, 1, 5, 7), (7, 8, 4, 9), (8, 7, 5, 5), (7, 3, 9, 3), (1, 9, 8, 9), (7, 4, 8, 8), (5, 1, 5, 8), (7, 3, 4, 5), (5, 1, 4, 4), (7, 8, 0, 8), (8, 7, 6, 2), (7, 0, 9, 8), (7, 4, 4, 3), (7, 8, 7, 3), (5, 8, 8, 1), (7, 4, 1, 4), (2, 5, 4, 9), (2, 7, 4, 2), (7, 8, 7, 4), (5, 8, 5, 4), (7, 3, 0, 7), (2, 5, 9, 4), (1, 2, 8, 4), (0, 9, 0, 0), (0, 9, 0, 1), (0, 9, 0, 2), (7, 8, 0, 9), (7, 8, 7, 5), (7, 0, 2, 9), (0, 9, 1, 0), (5, 1, 9, 0), (7, 2, 9, 4), (1, 5, 1, 9), (7, 8, 7, 6), (7, 5, 7, 4), (1, 8, 9, 7), (0, 9, 1, 1), (1, 5, 8, 8), (0, 9, 2, 0), (7, 8, 7, 7), (8, 8, 1, 4), (7, 2, 1, 5), (0, 9, 1, 2), (7, 1, 8, 2), (0, 9, 2, 1), (0, 9, 3, 0), (0, 9, 3, 1), (7, 2, 9, 5), (5, 1, 0, 2), (9, 6, 4, 2), (9, 6, 8, 2), (5, 8, 0, 7), (0, 9, 4, 0), (0, 1, 8, 5), (1, 2, 8, 5), (9, 6, 8, 3), (7, 0, 9, 9), (7, 6, 5, 5), (6, 8, 0, 4), (3, 7, 3, 1), (9, 6, 8, 4), (0, 9, 4, 1), (8, 4, 9, 0), (9, 6, 5, 2), (7, 9, 6, 7), (9, 6, 5, 3), (1, 2, 8, 6), (1, 9, 5, 2), (9, 6, 6, 1), (5, 1, 5, 9), (0, 9, 2, 2), (0, 9, 5, 0), (9, 6, 8, 5), (9, 6, 6, 2), (9, 6, 6, 3), (6, 8, 9, 9), (9, 5, 8, 2), (5, 1, 4, 5), (5, 1, 4, 6), (9, 5, 9, 6), (7, 2, 9, 6), (7, 2, 1, 6), (7, 6, 5, 6), (6, 9, 6, 3), (0, 9, 5, 1), (0, 9, 4, 2), (5, 1, 8, 2), (5, 8, 5, 5), (7, 2, 1, 7), (0, 9, 4, 3), (6, 9, 6, 4), (7, 2, 9, 7), (7, 3, 0, 8), (6, 9, 6, 5), (0, 9, 6, 0), (7, 7, 6, 3), (5, 1, 8, 3), (7, 7, 8, 1), (5, 8, 8, 2), (6, 9, 6, 6), (1, 8, 7, 2), (1, 6, 2, 4), (5, 1, 8, 4), (5, 0, 3, 5), (5, 0, 5, 2), (5, 1, 4, 7), (7, 2, 9, 8), (7, 6, 2, 4), (5, 1, 4, 8), (6, 9, 6, 7), (5, 0, 3, 6), (5, 0, 9, 3), (5, 1, 6, 8), (5, 0, 2, 4), (5, 0, 3, 7), (5, 1, 7, 3), (2, 7, 0, 7), (7, 7, 4, 5), (0, 9, 4, 4), (1, 4, 0, 8), (9, 0, 3, 2), (5, 8, 5, 6), (9, 0, 5, 1), (9, 6, 5, 4), (5, 8, 9, 0), (9, 5, 8, 3), (2, 7, 9, 0), (5, 8, 9, 1), (5, 9, 7, 0), (5, 1, 7, 4), (5, 1, 8, 5), (0, 9, 4, 5), (9, 5, 8, 4), (8, 4, 6, 1), (9, 5, 8, 5), (5, 8, 3, 2), (1, 2, 8, 7), (6, 9, 6, 8), (5, 1, 8, 6), (5, 8, 2, 4), (2, 7, 9, 1), (5, 8, 8, 3), (6, 9, 6, 9), (5, 8, 9, 2), (5, 8, 5, 7), (5, 8, 3, 3), (5, 8, 9, 3), (5, 8, 1, 3), (5, 8, 0, 8), (5, 1, 4, 9), (5, 8, 3, 4), (9, 6, 6, 4), (5, 1, 8, 7), (7, 7, 4, 6), (5, 8, 2, 5), (5, 8, 2, 6), (7, 7, 9, 0), (5, 0, 6, 7), (7, 4, 8, 9), (7, 3, 0, 9), (9, 5, 8, 6), (7, 7, 9, 1), (9, 3, 3, 3), (9, 3, 0, 3), (5, 8, 2, 7), (6, 0, 3, 2), (5, 8, 2, 8), (6, 0, 3, 3), (7, 4, 0, 1), (1, 6, 5, 4), (7, 4, 1, 5), (5, 8, 2, 9), (6, 1, 5, 6), (5, 0, 5, 3), (7, 4, 0, 2), (9, 3, 0, 4), (6, 0, 3, 4), (7, 7, 4, 7), (9, 3, 3, 4), (1, 2, 8, 8), (5, 8, 8, 4), (7, 4, 9, 4), (5, 8, 1, 4), (9, 3, 2, 5), (5, 8, 0, 9), (6, 9, 8, 4), (9, 3, 7, 0), (9, 3, 8, 0), (9, 3, 8, 1), (0, 9, 0, 3), (5, 0, 2, 5), (6, 0, 3, 5), (0, 9, 7, 0), (9, 3, 9, 0), (0, 0, 8, 6), (0, 9, 7, 1), (1, 9, 4, 3), (2, 1, 4, 9), (5, 1, 3, 4), (6, 0, 5, 3), (9, 8, 0, 9), (7, 7, 7, 1), (9, 3, 9, 1), (5, 8, 3, 5), (9, 3, 7, 1), (5, 0, 3, 8), (0, 9, 7, 2), (9, 3, 2, 6), (9, 3, 7, 2), (9, 3, 7, 3), (9, 3, 6, 2), (6, 0, 5, 4)]
INFO:root:weight| 0.0 |0.049|0.08 | 0.0 | 0.0 | 0.0 | 0.0 | 0.0 | 0.0 | 0.0 |0.087| 0.0 |0.075| 0.0 |0.095|0.085|0.088| 0.0 | 0.0 | 0.0 | 0.0 | 0.0 | 0.0 | 0.0 | 0.0 |0.078| 0.0 | 0.0 | 0.0 |0.093| 0.0 |0.099| 0.0 | 0.0 |0.077| 0.0 | 0.0 | 0.0 | 0.0 | 0.0 | 0.0 | 0.0 | 0.0 |0.094| 0.0 | 0.0 | 0.0 | 0.0 
/mnt/home/lotzsamu/devel/wepy/src/wepy/reporter/wexplore/dashboard.py:326: RuntimeWarning: divide by zero encountered in double_scalars
  self.reactive_traj_rate = 1 / self.expected_unbinding_time
DEBUG:root:Checkpoint is required for this cycle
DEBUG:root:Generating the simulation snapshot
DEBUG:root:saving the checkpoint to the database
DEBUG:root:Opening the checkpoint orch database
DEBUG:root:Starting transaction for updating run table in checkpoint
DEBUG:root:setting the new checkpoint snapshot into the KV
DEBUG:root:finished
DEBUG:root:Inserting the new run record
DEBUG:root:finished
DEBUG:root:Finishing transaction
DEBUG:root:Transaction committed
DEBUG:root:Deleting the old snapshot
srun: Job step aborted: Waiting up to 32 seconds for job step to finish.
slurmstepd: error: *** JOB 22029895 ON lac-027 CANCELLED AT 2019-05-21T12:48:33 ***
slurmstepd: error: *** STEP 22029895.0 ON lac-027 CANCELLED AT 2019-05-21T12:48:33 ***
