
Inactive Modules:
  1) CMake/3.11.1        6) Python/3.6.4                       11) libffi/3.2.1
  2) FFTW/3.3.7          7) SQLite/3.21.0                      12) libreadline/7.0
  3) GMP/6.1.2           8) ScaLAPACK/2.0.2-OpenBLAS-0.2.20    13) tbb/2018_U3
  4) OpenBLAS/0.2.20     9) Tcl/8.6.8
  5) OpenMPI/2.1.2      10) imkl/2018.1.163

Due to MODULEPATH changes, the following have been reloaded:
  1) bzip2/1.0.6     2) zlib/1.2.11

The following have been reloaded with a version change:
  1) GNU/6.4.0-2.28 => GNU/4.8.3

INFO:root:Orchestrator loaded
INFO:root:Starting simulation
INFO:root:Worker process started as name: OpenMMGPUWorker-0; PID: 19941
INFO:root:Worker process started as name: OpenMMGPUWorker-0; PID: 19941
INFO:root:Worker process started as name: OpenMMGPUWorker-1; PID: 19942
INFO:root:Worker process started as name: OpenMMGPUWorker-1; PID: 19942
INFO:root:Worker process started as name: OpenMMGPUWorker-2; PID: 19943
INFO:root:Worker process started as name: OpenMMGPUWorker-2; PID: 19943
INFO:root:Worker process started as name: OpenMMGPUWorker-3; PID: 19944
INFO:root:Worker process started as name: OpenMMGPUWorker-3; PID: 19944
INFO:root:Worker process started as name: OpenMMGPUWorker-4; PID: 19945
INFO:root:Worker process started as name: OpenMMGPUWorker-4; PID: 19945
INFO:root:Worker process started as name: OpenMMGPUWorker-5; PID: 19946
INFO:root:Worker process started as name: OpenMMGPUWorker-5; PID: 19946
INFO:root:Worker process started as name: OpenMMGPUWorker-6; PID: 19947
INFO:root:Worker process started as name: OpenMMGPUWorker-6; PID: 19947
INFO:root:Worker process started as name: OpenMMGPUWorker-7; PID: 19948
INFO:root:Initializing HDF5 file at /mnt/gs18/scratch/users/lotzsamu/seh.pathway_hopping/jobs/21499142_lig_3_sims/lig-3_contig-2-2_production/lig-3_contig-2-2_production.wepy.h5
INFO:root:Worker process started as name: OpenMMGPUWorker-7; PID: 19948
/mnt/home/lotzsamu/devel/wepy/src/wepy/runners/openmm.py:710: UserWarning: Unknown exception handled from `self.sim_state.getEnergyParameterDerivatives()`, this is probably because this attribute is not in the State.
  warn("Unknown exception handled from `self.sim_state.getEnergyParameterDerivatives()`, "
INFO:root:Writing initial state to /mnt/gs18/scratch/users/lotzsamu/seh.pathway_hopping/jobs/21499142_lig_3_sims/lig-3_contig-2-2_production/lig-3_contig-2-2_production.init_top.pdb
INFO:root:Writing initial image to /mnt/gs18/scratch/users/lotzsamu/seh.pathway_hopping/jobs/21499142_lig_3_sims/lig-3_contig-2-2_production/lig-3_contig-2-2_production.image_top.pdb
INFO:root:Begin cycle 0
INFO:root:Starting segment
INFO:root:Mapping from process MainProcess; PID 19457
INFO:root:Waiting for tasks to be run
INFO:root:Worker: OpenMMGPUWorker-0; task_idx : 0; args : (<wepy.runners.openmm.OpenMMWalker object at 0x2b36634147b8>, 10000) 
INFO:root:Time to generate the system: 0.6120498180389404
INFO:root:Worker: OpenMMGPUWorker-1; task_idx : 1; args : (<wepy.runners.openmm.OpenMMWalker object at 0x2b3663414828>, 10000) 
INFO:root:Time to generate the system: 0.5423548221588135
INFO:root:Worker: OpenMMGPUWorker-2; task_idx : 2; args : (<wepy.runners.openmm.OpenMMWalker object at 0x2b3663414898>, 10000) 
Process OpenMMGPUWorker-2:
Traceback (most recent call last):
  File "/mnt/home/lotzsamu/anaconda3/envs/seh_pathway_hopping/lib/python3.7/multiprocessing/process.py", line 297, in _bootstrap
    self.run()
  File "/mnt/home/lotzsamu/devel/wepy/src/wepy/work_mapper/worker.py", line 101, in run
    answer = self.run_task(next_task)
  File "/mnt/home/lotzsamu/devel/wepy/src/wepy/runners/openmm.py", line 973, in run_task
    return task(DeviceIndex=str(self.worker_idx))
  File "/mnt/home/lotzsamu/devel/wepy/src/wepy/work_mapper/worker.py", line 140, in __call__
    return self.func(*self.args, **kwargs)
  File "/mnt/home/lotzsamu/devel/wepy/src/wepy/runners/openmm.py", line 209, in run_segment
    new_integrator, platform)
  File "/mnt/home/lotzsamu/anaconda3/envs/seh_pathway_hopping/lib/python3.7/site-packages/simtk/openmm/app/simulation.py", line 103, in __init__
    self.context = mm.Context(self.system, self.integrator, platform)
  File "/mnt/home/lotzsamu/anaconda3/envs/seh_pathway_hopping/lib/python3.7/site-packages/simtk/openmm/openmm.py", line 12231, in __init__
    this = _openmm.new_Context(*args)
Exception: Illegal value for DeviceIndex: 2
INFO:root:Worker: OpenMMGPUWorker-3; task_idx : 3; args : (<wepy.runners.openmm.OpenMMWalker object at 0x2b365b9f0e48>, 10000) 
Process OpenMMGPUWorker-3:
Traceback (most recent call last):
  File "/mnt/home/lotzsamu/anaconda3/envs/seh_pathway_hopping/lib/python3.7/multiprocessing/process.py", line 297, in _bootstrap
    self.run()
  File "/mnt/home/lotzsamu/devel/wepy/src/wepy/work_mapper/worker.py", line 101, in run
    answer = self.run_task(next_task)
  File "/mnt/home/lotzsamu/devel/wepy/src/wepy/runners/openmm.py", line 973, in run_task
    return task(DeviceIndex=str(self.worker_idx))
  File "/mnt/home/lotzsamu/devel/wepy/src/wepy/work_mapper/worker.py", line 140, in __call__
    return self.func(*self.args, **kwargs)
  File "/mnt/home/lotzsamu/devel/wepy/src/wepy/runners/openmm.py", line 209, in run_segment
    new_integrator, platform)
  File "/mnt/home/lotzsamu/anaconda3/envs/seh_pathway_hopping/lib/python3.7/site-packages/simtk/openmm/app/simulation.py", line 103, in __init__
    self.context = mm.Context(self.system, self.integrator, platform)
  File "/mnt/home/lotzsamu/anaconda3/envs/seh_pathway_hopping/lib/python3.7/site-packages/simtk/openmm/openmm.py", line 12231, in __init__
    this = _openmm.new_Context(*args)
Exception: Illegal value for DeviceIndex: 3
INFO:root:Worker: OpenMMGPUWorker-4; task_idx : 4; args : (<wepy.runners.openmm.OpenMMWalker object at 0x2b36634d8630>, 10000) 
Process OpenMMGPUWorker-4:
Traceback (most recent call last):
  File "/mnt/home/lotzsamu/anaconda3/envs/seh_pathway_hopping/lib/python3.7/multiprocessing/process.py", line 297, in _bootstrap
    self.run()
  File "/mnt/home/lotzsamu/devel/wepy/src/wepy/work_mapper/worker.py", line 101, in run
    answer = self.run_task(next_task)
  File "/mnt/home/lotzsamu/devel/wepy/src/wepy/runners/openmm.py", line 973, in run_task
    return task(DeviceIndex=str(self.worker_idx))
  File "/mnt/home/lotzsamu/devel/wepy/src/wepy/work_mapper/worker.py", line 140, in __call__
    return self.func(*self.args, **kwargs)
  File "/mnt/home/lotzsamu/devel/wepy/src/wepy/runners/openmm.py", line 209, in run_segment
    new_integrator, platform)
  File "/mnt/home/lotzsamu/anaconda3/envs/seh_pathway_hopping/lib/python3.7/site-packages/simtk/openmm/app/simulation.py", line 103, in __init__
    self.context = mm.Context(self.system, self.integrator, platform)
  File "/mnt/home/lotzsamu/anaconda3/envs/seh_pathway_hopping/lib/python3.7/site-packages/simtk/openmm/openmm.py", line 12231, in __init__
    this = _openmm.new_Context(*args)
Exception: Illegal value for DeviceIndex: 4
INFO:root:Worker: OpenMMGPUWorker-5; task_idx : 5; args : (<wepy.runners.openmm.OpenMMWalker object at 0x2b36634d8588>, 10000) 
Process OpenMMGPUWorker-5:
Traceback (most recent call last):
  File "/mnt/home/lotzsamu/anaconda3/envs/seh_pathway_hopping/lib/python3.7/multiprocessing/process.py", line 297, in _bootstrap
    self.run()
  File "/mnt/home/lotzsamu/devel/wepy/src/wepy/work_mapper/worker.py", line 101, in run
    answer = self.run_task(next_task)
  File "/mnt/home/lotzsamu/devel/wepy/src/wepy/runners/openmm.py", line 973, in run_task
    return task(DeviceIndex=str(self.worker_idx))
  File "/mnt/home/lotzsamu/devel/wepy/src/wepy/work_mapper/worker.py", line 140, in __call__
    return self.func(*self.args, **kwargs)
  File "/mnt/home/lotzsamu/devel/wepy/src/wepy/runners/openmm.py", line 209, in run_segment
    new_integrator, platform)
  File "/mnt/home/lotzsamu/anaconda3/envs/seh_pathway_hopping/lib/python3.7/site-packages/simtk/openmm/app/simulation.py", line 103, in __init__
    self.context = mm.Context(self.system, self.integrator, platform)
  File "/mnt/home/lotzsamu/anaconda3/envs/seh_pathway_hopping/lib/python3.7/site-packages/simtk/openmm/openmm.py", line 12231, in __init__
    this = _openmm.new_Context(*args)
Exception: Illegal value for DeviceIndex: 5
INFO:root:Worker: OpenMMGPUWorker-6; task_idx : 6; args : (<wepy.runners.openmm.OpenMMWalker object at 0x2b36634d86a0>, 10000) 
Process OpenMMGPUWorker-6:
Traceback (most recent call last):
  File "/mnt/home/lotzsamu/anaconda3/envs/seh_pathway_hopping/lib/python3.7/multiprocessing/process.py", line 297, in _bootstrap
    self.run()
  File "/mnt/home/lotzsamu/devel/wepy/src/wepy/work_mapper/worker.py", line 101, in run
    answer = self.run_task(next_task)
  File "/mnt/home/lotzsamu/devel/wepy/src/wepy/runners/openmm.py", line 973, in run_task
    return task(DeviceIndex=str(self.worker_idx))
  File "/mnt/home/lotzsamu/devel/wepy/src/wepy/work_mapper/worker.py", line 140, in __call__
    return self.func(*self.args, **kwargs)
  File "/mnt/home/lotzsamu/devel/wepy/src/wepy/runners/openmm.py", line 209, in run_segment
    new_integrator, platform)
  File "/mnt/home/lotzsamu/anaconda3/envs/seh_pathway_hopping/lib/python3.7/site-packages/simtk/openmm/app/simulation.py", line 103, in __init__
    self.context = mm.Context(self.system, self.integrator, platform)
  File "/mnt/home/lotzsamu/anaconda3/envs/seh_pathway_hopping/lib/python3.7/site-packages/simtk/openmm/openmm.py", line 12231, in __init__
    this = _openmm.new_Context(*args)
Exception: Illegal value for DeviceIndex: 6
INFO:root:Worker: OpenMMGPUWorker-7; task_idx : 7; args : (<wepy.runners.openmm.OpenMMWalker object at 0x2b36634d8710>, 10000) 
Process OpenMMGPUWorker-7:
Traceback (most recent call last):
  File "/mnt/home/lotzsamu/anaconda3/envs/seh_pathway_hopping/lib/python3.7/multiprocessing/process.py", line 297, in _bootstrap
    self.run()
  File "/mnt/home/lotzsamu/devel/wepy/src/wepy/work_mapper/worker.py", line 101, in run
    answer = self.run_task(next_task)
  File "/mnt/home/lotzsamu/devel/wepy/src/wepy/runners/openmm.py", line 973, in run_task
    return task(DeviceIndex=str(self.worker_idx))
  File "/mnt/home/lotzsamu/devel/wepy/src/wepy/work_mapper/worker.py", line 140, in __call__
    return self.func(*self.args, **kwargs)
  File "/mnt/home/lotzsamu/devel/wepy/src/wepy/runners/openmm.py", line 209, in run_segment
    new_integrator, platform)
  File "/mnt/home/lotzsamu/anaconda3/envs/seh_pathway_hopping/lib/python3.7/site-packages/simtk/openmm/app/simulation.py", line 103, in __init__
    self.context = mm.Context(self.system, self.integrator, platform)
  File "/mnt/home/lotzsamu/anaconda3/envs/seh_pathway_hopping/lib/python3.7/site-packages/simtk/openmm/openmm.py", line 12231, in __init__
    this = _openmm.new_Context(*args)
Exception: Illegal value for DeviceIndex: 7
INFO:root:Time to run 10000 sim steps: 46.40636706352234
INFO:root:Getting context state time: 2.384185791015625e-07
INFO:root:Total internal run_segment time: 47.03220295906067
INFO:root:Worker: OpenMMGPUWorker-0; task_idx : 0; COMPLETED in 47.105472564697266 s
INFO:root:Worker: OpenMMGPUWorker-0; task_idx : 8; args : (<wepy.runners.openmm.OpenMMWalker object at 0x2b366142d438>, 10000) 
INFO:root:Time to run 10000 sim steps: 48.85214138031006
INFO:root:Getting context state time: 0.0
INFO:root:Total internal run_segment time: 49.4086697101593
INFO:root:Worker: OpenMMGPUWorker-1; task_idx : 1; COMPLETED in 49.523059368133545 s
INFO:root:Time to generate the system: 0.5247740745544434
INFO:root:Worker: OpenMMGPUWorker-1; task_idx : 9; args : (<wepy.runners.openmm.OpenMMWalker object at 0x2b365a9a7128>, 10000) 
INFO:root:Time to generate the system: 0.5147175788879395
INFO:root:Time to run 10000 sim steps: 47.14155888557434
INFO:root:Getting context state time: 2.384185791015625e-07
INFO:root:Total internal run_segment time: 47.67907643318176
INFO:root:Worker: OpenMMGPUWorker-0; task_idx : 8; COMPLETED in 47.74723553657532 s
INFO:root:Worker: OpenMMGPUWorker-0; task_idx : 10; args : (<wepy.runners.openmm.OpenMMWalker object at 0x2b3663414748>, 10000) 
INFO:root:Time to generate the system: 0.501622200012207
INFO:root:Time to run 10000 sim steps: 49.254451751708984
INFO:root:Getting context state time: 2.384185791015625e-07
INFO:root:Total internal run_segment time: 49.78384304046631
INFO:root:Worker: OpenMMGPUWorker-1; task_idx : 9; COMPLETED in 49.85811376571655 s
INFO:root:Worker: OpenMMGPUWorker-1; task_idx : 11; args : (<wepy.runners.openmm.OpenMMWalker object at 0x2b3663414828>, 10000) 
INFO:root:Time to generate the system: 0.44661569595336914
INFO:root:Time to run 10000 sim steps: 48.086984157562256
INFO:root:Getting context state time: 2.384185791015625e-07
INFO:root:Total internal run_segment time: 48.60241174697876
INFO:root:Worker: OpenMMGPUWorker-0; task_idx : 10; COMPLETED in 48.67469358444214 s
INFO:root:Worker: OpenMMGPUWorker-0; task_idx : 12; args : (<wepy.runners.openmm.OpenMMWalker object at 0x2b366142d438>, 10000) 
INFO:root:Time to generate the system: 0.47162508964538574
INFO:root:Time to run 10000 sim steps: 49.7436101436615
INFO:root:Getting context state time: 2.384185791015625e-07
INFO:root:Total internal run_segment time: 50.20482611656189
INFO:root:Worker: OpenMMGPUWorker-1; task_idx : 11; COMPLETED in 50.28081750869751 s
INFO:root:Worker: OpenMMGPUWorker-1; task_idx : 13; args : (<wepy.runners.openmm.OpenMMWalker object at 0x2b365a9a7128>, 10000) 
INFO:root:Time to generate the system: 0.4479949474334717
INFO:root:Time to run 10000 sim steps: 48.378655672073364
INFO:root:Getting context state time: 2.384185791015625e-07
INFO:root:Total internal run_segment time: 48.865145444869995
INFO:root:Worker: OpenMMGPUWorker-0; task_idx : 12; COMPLETED in 48.9475257396698 s
INFO:root:Worker: OpenMMGPUWorker-0; task_idx : 14; args : (<wepy.runners.openmm.OpenMMWalker object at 0x2b36634148d0>, 10000) 
INFO:root:Time to generate the system: 0.47153306007385254
INFO:root:Time to run 10000 sim steps: 50.104530334472656
INFO:root:Getting context state time: 2.384185791015625e-07
INFO:root:Total internal run_segment time: 50.568047761917114
INFO:root:Worker: OpenMMGPUWorker-1; task_idx : 13; COMPLETED in 50.64626431465149 s
INFO:root:Worker: OpenMMGPUWorker-1; task_idx : 15; args : (<wepy.runners.openmm.OpenMMWalker object at 0x2b3663414828>, 10000) 
INFO:root:Time to generate the system: 0.4497063159942627
INFO:root:Time to run 10000 sim steps: 48.43220329284668
INFO:root:Getting context state time: 2.384185791015625e-07
INFO:root:Total internal run_segment time: 48.91830325126648
INFO:root:Worker: OpenMMGPUWorker-0; task_idx : 14; COMPLETED in 48.99076557159424 s
INFO:root:Worker: OpenMMGPUWorker-0; task_idx : 16; args : (<wepy.runners.openmm.OpenMMWalker object at 0x2b3663fd52b0>, 10000) 
INFO:root:Time to generate the system: 0.4611191749572754
INFO:root:Time to run 10000 sim steps: 49.985421895980835
INFO:root:Getting context state time: 2.384185791015625e-07
INFO:root:Total internal run_segment time: 50.45030450820923
INFO:root:Worker: OpenMMGPUWorker-1; task_idx : 15; COMPLETED in 50.52735257148743 s
INFO:root:Worker: OpenMMGPUWorker-1; task_idx : 17; args : (<wepy.runners.openmm.OpenMMWalker object at 0x2b366426b7f0>, 10000) 
INFO:root:Time to generate the system: 0.4608173370361328
INFO:root:Time to run 10000 sim steps: 48.35355257987976
INFO:root:Getting context state time: 2.384185791015625e-07
INFO:root:Total internal run_segment time: 48.82928705215454
INFO:root:Worker: OpenMMGPUWorker-0; task_idx : 16; COMPLETED in 48.900453090667725 s
INFO:root:Worker: OpenMMGPUWorker-0; task_idx : 18; args : (<wepy.runners.openmm.OpenMMWalker object at 0x2b365ba57e10>, 10000) 
INFO:root:Time to generate the system: 0.4594907760620117
INFO:root:Time to run 10000 sim steps: 50.08441710472107
INFO:root:Getting context state time: 0.0
INFO:root:Total internal run_segment time: 50.561843395233154
INFO:root:Worker: OpenMMGPUWorker-1; task_idx : 17; COMPLETED in 50.6359281539917 s
INFO:root:Worker: OpenMMGPUWorker-1; task_idx : 19; args : (<wepy.runners.openmm.OpenMMWalker object at 0x2b36633ed4e0>, 10000) 
INFO:root:Time to generate the system: 0.4517025947570801
INFO:root:Time to run 10000 sim steps: 48.41867637634277
INFO:root:Getting context state time: 0.0
INFO:root:Total internal run_segment time: 48.894614696502686
INFO:root:Worker: OpenMMGPUWorker-0; task_idx : 18; COMPLETED in 48.968668937683105 s
INFO:root:Worker: OpenMMGPUWorker-0; task_idx : 20; args : (<wepy.runners.openmm.OpenMMWalker object at 0x2b36852b57b8>, 10000) 
INFO:root:Time to generate the system: 0.4576447010040283
INFO:root:Time to run 10000 sim steps: 49.88737344741821
INFO:root:Getting context state time: 0.0
INFO:root:Total internal run_segment time: 50.35418128967285
INFO:root:Worker: OpenMMGPUWorker-1; task_idx : 19; COMPLETED in 50.429152488708496 s
INFO:root:Worker: OpenMMGPUWorker-1; task_idx : 21; args : (<wepy.runners.openmm.OpenMMWalker object at 0x2b365b9f0e48>, 10000) 
INFO:root:Time to generate the system: 0.4487769603729248
INFO:root:Time to run 10000 sim steps: 48.34522581100464
INFO:root:Getting context state time: 0.0
INFO:root:Total internal run_segment time: 48.81804084777832
INFO:root:Worker: OpenMMGPUWorker-0; task_idx : 20; COMPLETED in 48.89241623878479 s
INFO:root:Worker: OpenMMGPUWorker-0; task_idx : 22; args : (<wepy.runners.openmm.OpenMMWalker object at 0x2b3684143518>, 10000) 
INFO:root:Time to generate the system: 0.45069146156311035
INFO:root:Time to run 10000 sim steps: 49.83639931678772
INFO:root:Getting context state time: 2.384185791015625e-07
INFO:root:Total internal run_segment time: 50.30029487609863
INFO:root:Worker: OpenMMGPUWorker-1; task_idx : 21; COMPLETED in 50.37315487861633 s
INFO:root:Worker: OpenMMGPUWorker-1; task_idx : 23; args : (<wepy.runners.openmm.OpenMMWalker object at 0x2b36850bd3c8>, 10000) 
INFO:root:Time to generate the system: 0.4448425769805908
INFO:root:Time to run 10000 sim steps: 48.42855501174927
INFO:root:Getting context state time: 2.384185791015625e-07
INFO:root:Total internal run_segment time: 48.89386510848999
INFO:root:Worker: OpenMMGPUWorker-0; task_idx : 22; COMPLETED in 48.96839213371277 s
INFO:root:Worker: OpenMMGPUWorker-0; task_idx : 24; args : (<wepy.runners.openmm.OpenMMWalker object at 0x2b366c535588>, 10000) 
INFO:root:Time to generate the system: 0.4511079788208008
INFO:root:Time to run 10000 sim steps: 49.787158250808716
INFO:root:Getting context state time: 2.384185791015625e-07
INFO:root:Total internal run_segment time: 50.24694204330444
INFO:root:Worker: OpenMMGPUWorker-1; task_idx : 23; COMPLETED in 50.31875991821289 s
INFO:root:Worker: OpenMMGPUWorker-1; task_idx : 25; args : (<wepy.runners.openmm.OpenMMWalker object at 0x2b3666109a20>, 10000) 
INFO:root:Time to generate the system: 0.44997239112854004
INFO:root:Time to run 10000 sim steps: 48.35390853881836
INFO:root:Getting context state time: 2.384185791015625e-07
INFO:root:Total internal run_segment time: 48.819682598114014
INFO:root:Worker: OpenMMGPUWorker-0; task_idx : 24; COMPLETED in 48.89354991912842 s
INFO:root:Worker: OpenMMGPUWorker-0; task_idx : 26; args : (<wepy.runners.openmm.OpenMMWalker object at 0x2b3685502b00>, 10000) 
INFO:root:Time to generate the system: 0.44681501388549805
INFO:root:Time to run 10000 sim steps: 49.771979331970215
INFO:root:Getting context state time: 0.0
INFO:root:Total internal run_segment time: 50.23674702644348
INFO:root:Worker: OpenMMGPUWorker-1; task_idx : 25; COMPLETED in 50.30912232398987 s
INFO:root:Worker: OpenMMGPUWorker-1; task_idx : 27; args : (<wepy.runners.openmm.OpenMMWalker object at 0x2b366063da90>, 10000) 
INFO:root:Time to generate the system: 0.4495053291320801
INFO:root:Time to run 10000 sim steps: 48.391284704208374
INFO:root:Getting context state time: 2.384185791015625e-07
INFO:root:Total internal run_segment time: 48.85274076461792
INFO:root:Worker: OpenMMGPUWorker-0; task_idx : 26; COMPLETED in 48.925604820251465 s
INFO:root:Worker: OpenMMGPUWorker-0; task_idx : 28; args : (<wepy.runners.openmm.OpenMMWalker object at 0x2b3661b5f438>, 10000) 
INFO:root:Time to generate the system: 0.45143914222717285
INFO:root:Time to run 10000 sim steps: 49.95800542831421
INFO:root:Getting context state time: 0.0
INFO:root:Total internal run_segment time: 50.422136545181274
INFO:root:Worker: OpenMMGPUWorker-1; task_idx : 27; COMPLETED in 50.49753928184509 s
INFO:root:Worker: OpenMMGPUWorker-1; task_idx : 29; args : (<wepy.runners.openmm.OpenMMWalker object at 0x2b3684520550>, 10000) 
INFO:root:Time to generate the system: 0.4483001232147217
INFO:root:Time to run 10000 sim steps: 48.49628734588623
INFO:root:Getting context state time: 0.0
INFO:root:Total internal run_segment time: 48.962249517440796
INFO:root:Worker: OpenMMGPUWorker-0; task_idx : 28; COMPLETED in 49.0342071056366 s
INFO:root:Worker: OpenMMGPUWorker-0; task_idx : 30; args : (<wepy.runners.openmm.OpenMMWalker object at 0x2b36855e7c50>, 10000) 
INFO:root:Time to generate the system: 0.44922780990600586
INFO:root:Time to run 10000 sim steps: 49.90978240966797
INFO:root:Getting context state time: 2.384185791015625e-07
INFO:root:Total internal run_segment time: 50.373042583465576
INFO:root:Worker: OpenMMGPUWorker-1; task_idx : 29; COMPLETED in 50.4462571144104 s
INFO:root:Worker: OpenMMGPUWorker-1; task_idx : 31; args : (<wepy.runners.openmm.OpenMMWalker object at 0x2b3665d38c18>, 10000) 
INFO:root:Time to generate the system: 0.47837328910827637
INFO:root:Time to run 10000 sim steps: 48.5271692276001
INFO:root:Getting context state time: 2.384185791015625e-07
INFO:root:Total internal run_segment time: 48.990357637405396
INFO:root:Worker: OpenMMGPUWorker-0; task_idx : 30; COMPLETED in 49.0618200302124 s
INFO:root:Worker: OpenMMGPUWorker-0; task_idx : 32; args : (<wepy.runners.openmm.OpenMMWalker object at 0x2b366c4f4ef0>, 10000) 
INFO:root:Time to generate the system: 0.45584988594055176
INFO:root:Time to run 10000 sim steps: 49.903555393218994
INFO:root:Getting context state time: 0.0
INFO:root:Total internal run_segment time: 50.396291732788086
INFO:root:Worker: OpenMMGPUWorker-1; task_idx : 31; COMPLETED in 50.470693588256836 s
INFO:root:Worker: OpenMMGPUWorker-1; task_idx : 33; args : (<wepy.runners.openmm.OpenMMWalker object at 0x2b3663570f98>, 10000) 
INFO:root:Time to generate the system: 0.5216934680938721
INFO:root:Time to run 10000 sim steps: 48.35154986381531
INFO:root:Getting context state time: 2.384185791015625e-07
INFO:root:Total internal run_segment time: 48.82152795791626
INFO:root:Worker: OpenMMGPUWorker-0; task_idx : 32; COMPLETED in 48.892038106918335 s
INFO:root:Worker: OpenMMGPUWorker-0; task_idx : 34; args : (<wepy.runners.openmm.OpenMMWalker object at 0x2b366ffbd470>, 10000) 
INFO:root:Time to generate the system: 0.45287060737609863
INFO:root:Time to run 10000 sim steps: 49.906927824020386
INFO:root:Getting context state time: 2.384185791015625e-07
INFO:root:Total internal run_segment time: 50.443617820739746
INFO:root:Worker: OpenMMGPUWorker-1; task_idx : 33; COMPLETED in 50.517945528030396 s
INFO:root:Worker: OpenMMGPUWorker-1; task_idx : 35; args : (<wepy.runners.openmm.OpenMMWalker object at 0x2b3684fea748>, 10000) 
INFO:root:Time to generate the system: 0.45143818855285645
INFO:root:Time to run 10000 sim steps: 48.44486927986145
INFO:root:Getting context state time: 2.384185791015625e-07
INFO:root:Total internal run_segment time: 48.911357164382935
INFO:root:Worker: OpenMMGPUWorker-0; task_idx : 34; COMPLETED in 48.98123049736023 s
INFO:root:Worker: OpenMMGPUWorker-0; task_idx : 36; args : (<wepy.runners.openmm.OpenMMWalker object at 0x2b36855015c0>, 10000) 
INFO:root:Time to generate the system: 0.45404720306396484
INFO:root:Time to run 10000 sim steps: 49.77393412590027
INFO:root:Getting context state time: 2.384185791015625e-07
INFO:root:Total internal run_segment time: 50.23961424827576
INFO:root:Worker: OpenMMGPUWorker-1; task_idx : 35; COMPLETED in 50.31340217590332 s
INFO:root:Worker: OpenMMGPUWorker-1; task_idx : 37; args : (<wepy.runners.openmm.OpenMMWalker object at 0x2b36652a76a0>, 10000) 
INFO:root:Time to generate the system: 0.45435166358947754
INFO:root:Time to run 10000 sim steps: 48.368982791900635
INFO:root:Getting context state time: 2.384185791015625e-07
INFO:root:Total internal run_segment time: 48.836276054382324
INFO:root:Worker: OpenMMGPUWorker-0; task_idx : 36; COMPLETED in 48.90616846084595 s
INFO:root:Worker: OpenMMGPUWorker-0; task_idx : 38; args : (<wepy.runners.openmm.OpenMMWalker object at 0x2b3664e9a710>, 10000) 
INFO:root:Time to generate the system: 0.448901891708374
INFO:root:Time to run 10000 sim steps: 49.782103300094604
INFO:root:Getting context state time: 0.0
INFO:root:Total internal run_segment time: 50.25184917449951
INFO:root:Worker: OpenMMGPUWorker-1; task_idx : 37; COMPLETED in 50.323535680770874 s
INFO:root:Worker: OpenMMGPUWorker-1; task_idx : 39; args : (<wepy.runners.openmm.OpenMMWalker object at 0x2b365e0d62e8>, 10000) 
INFO:root:Time to generate the system: 0.44181108474731445
INFO:root:Time to run 10000 sim steps: 48.34040284156799
INFO:root:Getting context state time: 2.384185791015625e-07
INFO:root:Total internal run_segment time: 48.80359864234924
INFO:root:Worker: OpenMMGPUWorker-0; task_idx : 38; COMPLETED in 48.87247109413147 s
INFO:root:Worker: OpenMMGPUWorker-0; task_idx : 40; args : (<wepy.runners.openmm.OpenMMWalker object at 0x2b3661f98320>, 10000) 
INFO:root:Time to generate the system: 0.445667028427124
INFO:root:Time to run 10000 sim steps: 49.88936805725098
INFO:root:Getting context state time: 4.76837158203125e-07
INFO:root:Total internal run_segment time: 50.34601545333862
INFO:root:Worker: OpenMMGPUWorker-1; task_idx : 39; COMPLETED in 50.41834759712219 s
INFO:root:Worker: OpenMMGPUWorker-1; task_idx : 41; args : (<wepy.runners.openmm.OpenMMWalker object at 0x2b368620f080>, 10000) 
INFO:root:Time to generate the system: 0.4523780345916748
INFO:root:Time to run 10000 sim steps: 48.46030259132385
INFO:root:Getting context state time: 2.384185791015625e-07
INFO:root:Total internal run_segment time: 48.91998624801636
INFO:root:Worker: OpenMMGPUWorker-0; task_idx : 40; COMPLETED in 48.98975491523743 s
INFO:root:Worker: OpenMMGPUWorker-0; task_idx : 42; args : (<wepy.runners.openmm.OpenMMWalker object at 0x2b365b5cf3c8>, 10000) 
INFO:root:Time to generate the system: 0.4470481872558594
INFO:root:Time to run 10000 sim steps: 49.92749857902527
INFO:root:Getting context state time: 5.9604644775390625e-06
INFO:root:Total internal run_segment time: 50.394930839538574
INFO:root:Worker: OpenMMGPUWorker-1; task_idx : 41; COMPLETED in 50.46640133857727 s
INFO:root:Worker: OpenMMGPUWorker-1; task_idx : 43; args : (<wepy.runners.openmm.OpenMMWalker object at 0x2b365bdc5470>, 10000) 
INFO:root:Time to generate the system: 0.4552192687988281
INFO:root:Time to run 10000 sim steps: 48.35905408859253
INFO:root:Getting context state time: 2.384185791015625e-07
INFO:root:Total internal run_segment time: 48.82097887992859
INFO:root:Worker: OpenMMGPUWorker-0; task_idx : 42; COMPLETED in 48.892335414886475 s
INFO:root:Worker: OpenMMGPUWorker-0; task_idx : 44; args : (<wepy.runners.openmm.OpenMMWalker object at 0x2b365ab5a470>, 10000) 
INFO:root:Time to generate the system: 0.4472334384918213
INFO:root:Time to run 10000 sim steps: 49.926830530166626
INFO:root:Getting context state time: 0.0
INFO:root:Total internal run_segment time: 50.39764451980591
INFO:root:Worker: OpenMMGPUWorker-1; task_idx : 43; COMPLETED in 50.469608306884766 s
INFO:root:Worker: OpenMMGPUWorker-1; task_idx : 45; args : (<wepy.runners.openmm.OpenMMWalker object at 0x2b365e350518>, 10000) 
INFO:root:Time to generate the system: 0.44906115531921387
INFO:root:Time to run 10000 sim steps: 48.46629357337952
INFO:root:Getting context state time: 2.384185791015625e-07
INFO:root:Total internal run_segment time: 48.927940368652344
INFO:root:Worker: OpenMMGPUWorker-0; task_idx : 44; COMPLETED in 48.999337911605835 s
INFO:root:Worker: OpenMMGPUWorker-0; task_idx : 46; args : (<wepy.runners.openmm.OpenMMWalker object at 0x2b365d3c11d0>, 10000) 
INFO:root:Time to generate the system: 0.45500850677490234
INFO:root:Time to run 10000 sim steps: 50.07059454917908
INFO:root:Getting context state time: 2.384185791015625e-07
INFO:root:Total internal run_segment time: 50.535332441329956
INFO:root:Worker: OpenMMGPUWorker-1; task_idx : 45; COMPLETED in 50.609525203704834 s
INFO:root:Worker: OpenMMGPUWorker-1; task_idx : 47; args : (<wepy.runners.openmm.OpenMMWalker object at 0x2b3665d21b38>, 10000) 
INFO:root:Time to generate the system: 0.44644737243652344
INFO:root:Time to run 10000 sim steps: 48.55137372016907
INFO:root:Getting context state time: 2.384185791015625e-07
INFO:root:Total internal run_segment time: 49.02145838737488
INFO:root:Worker: OpenMMGPUWorker-0; task_idx : 46; COMPLETED in 49.096248626708984 s
srun: Job step aborted: Waiting up to 32 seconds for job step to finish.
slurmstepd: error: *** JOB 21499142 ON lac-025 CANCELLED AT 2019-05-15T18:40:10 ***
slurmstepd: error: *** STEP 21499142.0 ON lac-025 CANCELLED AT 2019-05-15T18:40:10 ***
