executing bashrc
executing BASH_INTERACTIVE
executing SH_FUNCS
executing SH_ALIASES
stty: standard input: Inappropriate ioctl for device
executing BASH_PROMPT
executing .profile
executing SH_LOGIN
executing SH_FUNCS
executing SH_LOGIN_ENV
executing: icer.sh env
Lmod Warning: Input module (python) not found, unloading module: Python . . .
(ICER) 


Lmod Warning: Input module (openmpi) not found, unloading module: OpenMPI . .
. (ICER) 



Inactive Modules:
  1) FFTW/3.3.7          3) ScaLAPACK/2.0.2-OpenBLAS-0.2.20     5) zlib/1.2.11
  2) OpenBLAS/0.2.20     4) imkl/2018.1.163

Due to MODULEPATH changes, the following have been reloaded:
  1) Boost/1.67.0

Lmod Warning: Input module (cmake) not found, unloading module: CMake . . .
(ICER) 


Lmod Warning: Input module (matlab) not found, unloading module: MATLAB . . .
(ICER) 


Lmod Warning: Input module (gnu) not found, unloading module: GNU . . . (ICER) 



Inactive Modules:
  1) Tcl/8.6.8     2) tbb/2018_U3

Due to MODULEPATH changes, the following have been reloaded:
  1) bzip2/1.0.6


Due to MODULEPATH changes, the following have been reloaded:
  1) git/2.21.0


Inactive Modules:
  1) CMake/3.11.1        5) Python/3.6.4                        9) imkl/2018.1.163
  2) FFTW/3.3.7          6) SQLite/3.21.0                      10) libreadline/7.0
  3) OpenBLAS/0.2.20     7) ScaLAPACK/2.0.2-OpenBLAS-0.2.20    11) tbb/2018_U3
  4) OpenMPI/2.1.2       8) Tcl/8.6.8

Due to MODULEPATH changes, the following have been reloaded:
  1) Boost/1.67.0     3) bzip2/1.0.6      5) zlib/1.2.11
  2) GMP/6.1.2        4) libffi/3.2.1

The following have been reloaded with a version change:
  1) GNU/6.4.0-2.28 => GNU/4.8.3

executing bashrc
executing BASH_INTERACTIVE
executing SH_FUNCS
executing SH_ALIASES
stty: standard input: Inappropriate ioctl for device
executing BASH_PROMPT
executing .bash_profile
executing BASH_LOGIN
executing SH_LOGIN
executing SH_FUNCS
executing SH_LOGIN_ENV
executing: icer.sh env
Lmod Warning: Input module (python) not found, unloading module: Python . . .
(ICER) 


Lmod Warning: Input module (openmpi) not found, unloading module: OpenMPI . .
. (ICER) 



Inactive Modules:
  1) FFTW/3.3.7          3) ScaLAPACK/2.0.2-OpenBLAS-0.2.20     5) zlib/1.2.11
  2) OpenBLAS/0.2.20     4) imkl/2018.1.163

Due to MODULEPATH changes, the following have been reloaded:
  1) Boost/1.67.0

Lmod Warning: Input module (cmake) not found, unloading module: CMake . . .
(ICER) 


Lmod Warning: Input module (matlab) not found, unloading module: MATLAB . . .
(ICER) 


Lmod Warning: Input module (gnu) not found, unloading module: GNU . . . (ICER) 



Inactive Modules:
  1) Tcl/8.6.8     2) tbb/2018_U3

Due to MODULEPATH changes, the following have been reloaded:
  1) bzip2/1.0.6


Due to MODULEPATH changes, the following have been reloaded:
  1) git/2.21.0

executing BASH_INTERACTIVE
executing SH_FUNCS
executing SH_ALIASES
stty: standard input: Inappropriate ioctl for device
executing BASH_PROMPT
Traceback (most recent call last):
  File "/mnt/gs18/scratch/users/lotzsamu/tree/lab/projects/seh.pathway_hopping/hpcc/scripts/patch_snapshot.py", line 83, in <module>
    patch_funcs.append(PATCHES[patch_spec])
KeyError: 'UnbindingBC._mdj_top,'
/mnt/gs18/scratch/users/lotzsamu/tree/lab/projects/seh.pathway_hopping/hpcc/simulations/10_simulations/tasks/lig-10_contig-3-2_production.sh: cannot /mnt/home/lotzsamu/anaconda3/envs/seh.pathway_hopping.sims/bin/python /mnt/gs18/scratch/users/lotzsamu/tree/lab/projects/seh.pathway_hopping/hpcc/scripts/patch_snapshot.py 64c6723e262b80a4a99b4f69a2ebabb9.snap.dill.pkl 64c6723e262b80a4a99b4f69a2ebabb9.snap.dill.pkl WepySimApparatus OpenMMRunner.getState_kwargs UnbindingBC._mdj_top, UnbindingBC._periodic_
srun: error: lac-028: task 0: Exited with exit code 1
