stty: standard input: Inappropriate ioctl for device
executing: icer.sh env
Lmod Warning: Input module (python) not found, unloading module: Python . . .
(ICER v.) 


Lmod Warning: Input module (openmpi) not found, unloading module: OpenMPI . .
. (ICER v.) 



Inactive Modules:
  1) FFTW/3.3.7          3) ScaLAPACK/2.0.2-OpenBLAS-0.2.20     5) zlib/1.2.11
  2) OpenBLAS/0.2.20     4) imkl/2018.1.163

Due to MODULEPATH changes, the following have been reloaded:
  1) Boost/1.67.0

Lmod Warning: Input module (cmake) not found, unloading module: CMake . . .
(ICER v.) 


Lmod Warning: Input module (matlab) not found, unloading module: MATLAB . . .
(ICER v.) 


Lmod Warning: Input module (gnu) not found, unloading module: GNU . . . (ICER
v.) 



Inactive Modules:
  1) Tcl/8.6.8     2) tbb/2018_U3

Due to MODULEPATH changes, the following have been reloaded:
  1) bzip2/1.0.6


Due to MODULEPATH changes, the following have been reloaded:
  1) git/2.27.0


Lmod is automatically replacing "GNU/6.4.0-2.28" with "GCC/8.3.0".


Lmod is automatically replacing "GNU/6.4.0-2.28" with "GCC/8.3.0".

-------------------------------------------------------------------------------
The following dependent module(s) are not currently loaded: OpenBLAS/0.2.20 (required by: ScaLAPACK/2.0.2-OpenBLAS-0.2.20, Boost/1.67.0, Python/3.6.4, ScaLAPACK/2.0.2-OpenBLAS-0.2.20, Boost/1.67.0, Python/3.6.4)
-------------------------------------------------------------------------------

Inactive Modules:
  1) CMake/3.11.1        5) Python/3.6.4                        9) imkl/2018.1.163
  2) FFTW/3.3.7          6) SQLite/3.21.0                      10) libreadline/7.0
  3) OpenBLAS/0.2.20     7) ScaLAPACK/2.0.2-OpenBLAS-0.2.20    11) tbb/2018_U3
  4) OpenMPI/2.1.2       8) Tcl/8.6.8

Due to MODULEPATH changes, the following have been reloaded:
  1) Boost/1.67.0     3) bzip2/1.0.6      5) zlib/1.2.11
  2) GMP/6.1.2        4) libffi/3.2.1

The following have been reloaded with a version change:
  1) GCCcore/6.4.0 => GCCcore/8.3.0     2) binutils/2.28 => binutils/2.32

cp: cannot stat ‘/home/salotz/tree/lab/projects/seh.pathway_hopping/hpcc/simulations/10_simulations/tasks/lig-10_contig-0-0_production.sh’: No such file or directory
slurmstepd: error: execve(): /home/salotz/tree/lab/projects/seh.pathway_hopping/hpcc/simulations/10_simulations/tasks/lig-10_contig-0-0_production.sh: No such file or directory
srun: error: nvl-002: task 0: Exited with exit code 2
