stty: standard input: Inappropriate ioctl for device
executing: icer.sh env
Lmod Warning: Input module (python) not found, unloading module: Python . . .
(ICER) 


Lmod Warning: Input module (openmpi) not found, unloading module: OpenMPI . .
. (ICER) 



Inactive Modules:
  1) FFTW/3.3.7          3) ScaLAPACK/2.0.2-OpenBLAS-0.2.20     5) zlib/1.2.11
  2) OpenBLAS/0.2.20     4) imkl/2018.1.163

Due to MODULEPATH changes, the following have been reloaded:
  1) Boost/1.67.0

Lmod Warning: Input module (cmake) not found, unloading module: CMake . . .
(ICER) 


Lmod Warning: Input module (matlab) not found, unloading module: MATLAB . . .
(ICER) 


Lmod Warning: Input module (gnu) not found, unloading module: GNU . . . (ICER) 



Inactive Modules:
  1) Tcl/8.6.8     2) tbb/2018_U3

Due to MODULEPATH changes, the following have been reloaded:
  1) bzip2/1.0.6


Due to MODULEPATH changes, the following have been reloaded:
  1) git/2.21.0


Inactive Modules:
  1) CMake/3.11.1        5) Python/3.6.4                        9) imkl/2018.1.163
  2) FFTW/3.3.7          6) SQLite/3.21.0                      10) libreadline/7.0
  3) OpenBLAS/0.2.20     7) ScaLAPACK/2.0.2-OpenBLAS-0.2.20    11) tbb/2018_U3
  4) OpenMPI/2.1.2       8) Tcl/8.6.8

Due to MODULEPATH changes, the following have been reloaded:
  1) Boost/1.67.0     3) bzip2/1.0.6      5) zlib/1.2.11
  2) GMP/6.1.2        4) libffi/3.2.1

The following have been reloaded with a version change:
  1) GNU/6.4.0-2.28 => GNU/4.8.3

stty: standard input: Inappropriate ioctl for device
executing: icer.sh env
Lmod Warning: Input module (python) not found, unloading module: Python . . .
(ICER) 


Lmod Warning: Input module (openmpi) not found, unloading module: OpenMPI . .
. (ICER) 



Inactive Modules:
  1) FFTW/3.3.7          3) ScaLAPACK/2.0.2-OpenBLAS-0.2.20     5) zlib/1.2.11
  2) OpenBLAS/0.2.20     4) imkl/2018.1.163

Due to MODULEPATH changes, the following have been reloaded:
  1) Boost/1.67.0

Lmod Warning: Input module (cmake) not found, unloading module: CMake . . .
(ICER) 


Lmod Warning: Input module (matlab) not found, unloading module: MATLAB . . .
(ICER) 


Lmod Warning: Input module (gnu) not found, unloading module: GNU . . . (ICER) 



Inactive Modules:
  1) Tcl/8.6.8     2) tbb/2018_U3

Due to MODULEPATH changes, the following have been reloaded:
  1) bzip2/1.0.6


Due to MODULEPATH changes, the following have been reloaded:
  1) git/2.21.0

stty: standard input: Inappropriate ioctl for device

Currently Loaded Modules:
  1) powertools/1.2   7) libxml2/2.9.4     13) NASM/2.13.01
  2) GCCcore/6.4.0    8) ncurses/6.0       14) libjpeg-turbo/1.5.2
  3) zlib/1.2.11      9) gettext/0.19.8.1  15) Emacs/25.3
  4) cURL/7.58.0     10) Perl/5.28.1       16) CUDA/9.2.88
  5) expat/2.2.5     11) git/2.21.0
  6) XZ/5.2.3        12) libpng/1.6.32

 

/mnt/home/lotzsamu/.pyenv/versions/miniconda3-latest/bin/python: Error while finding module specification for 'simtk.testInstallation' (ModuleNotFoundError: No module named 'simtk')

Currently Loaded Modules:
  1) powertools/1.2   7) libxml2/2.9.4     13) NASM/2.13.01
  2) GCCcore/6.4.0    8) ncurses/6.0       14) libjpeg-turbo/1.5.2
  3) zlib/1.2.11      9) gettext/0.19.8.1  15) Emacs/25.3
  4) cURL/7.58.0     10) Perl/5.28.1       16) CUDA/9.2.88
  5) expat/2.2.5     11) git/2.21.0
  6) XZ/5.2.3        12) libpng/1.6.32

 

/mnt/gs18/scratch/users/lotzsamu/tree/lab/projects/seh.pathway_hopping/hpcc/simulations/10_simulations/tasks/lig-10_contig-0-0_production.sh: line 78: unexpected EOF while looking for matching `"'
/mnt/gs18/scratch/users/lotzsamu/tree/lab/projects/seh.pathway_hopping/hpcc/simulations/10_simulations/tasks/lig-10_contig-0-0_production.sh: line 89: syntax error: unexpected end of file
srun: error: lac-025: task 0: Exited with exit code 2
