
Inactive Modules:
  1) CMake/3.11.1        6) Python/3.6.4                       11) libffi/3.2.1
  2) FFTW/3.3.7          7) SQLite/3.21.0                      12) libreadline/7.0
  3) GMP/6.1.2           8) ScaLAPACK/2.0.2-OpenBLAS-0.2.20    13) tbb/2018_U3
  4) OpenBLAS/0.2.20     9) Tcl/8.6.8
  5) OpenMPI/2.1.2      10) imkl/2018.1.163

Due to MODULEPATH changes, the following have been reloaded:
  1) bzip2/1.0.6     2) zlib/1.2.11

The following have been reloaded with a version change:
  1) GNU/6.4.0-2.28 => GNU/4.8.3

INFO:root:Orchestrator loaded
INFO:root:Starting simulation
INFO:root:Worker process started as name: OpenMMGPUWorker-0; PID: 31086
INFO:root:Worker process started as name: OpenMMGPUWorker-0; PID: 31086
INFO:root:Worker process started as name: OpenMMGPUWorker-1; PID: 31087
INFO:root:Worker process started as name: OpenMMGPUWorker-1; PID: 31087
INFO:root:Worker process started as name: OpenMMGPUWorker-2; PID: 31088
INFO:root:Worker process started as name: OpenMMGPUWorker-2; PID: 31088
INFO:root:Worker process started as name: OpenMMGPUWorker-3; PID: 31089
INFO:root:Worker process started as name: OpenMMGPUWorker-3; PID: 31089
INFO:root:Worker process started as name: OpenMMGPUWorker-4; PID: 31090
INFO:root:Worker process started as name: OpenMMGPUWorker-4; PID: 31090
INFO:root:Worker process started as name: OpenMMGPUWorker-5; PID: 31091
INFO:root:Worker process started as name: OpenMMGPUWorker-5; PID: 31091
INFO:root:Worker process started as name: OpenMMGPUWorker-6; PID: 31092
INFO:root:Worker process started as name: OpenMMGPUWorker-6; PID: 31092
INFO:root:Worker process started as name: OpenMMGPUWorker-7; PID: 31093
INFO:root:Initializing HDF5 file at /mnt/gs18/scratch/users/lotzsamu/seh.pathway_hopping/jobs/21499165_lig_10_sims/lig-10_contig-2-3_production/lig-10_contig-2-3_production.wepy.h5
INFO:root:Worker process started as name: OpenMMGPUWorker-7; PID: 31093
/mnt/home/lotzsamu/devel/wepy/src/wepy/runners/openmm.py:710: UserWarning: Unknown exception handled from `self.sim_state.getEnergyParameterDerivatives()`, this is probably because this attribute is not in the State.
  warn("Unknown exception handled from `self.sim_state.getEnergyParameterDerivatives()`, "
INFO:root:Writing initial state to /mnt/gs18/scratch/users/lotzsamu/seh.pathway_hopping/jobs/21499165_lig_10_sims/lig-10_contig-2-3_production/lig-10_contig-2-3_production.init_top.pdb
INFO:root:Writing initial image to /mnt/gs18/scratch/users/lotzsamu/seh.pathway_hopping/jobs/21499165_lig_10_sims/lig-10_contig-2-3_production/lig-10_contig-2-3_production.image_top.pdb
INFO:root:Begin cycle 0
INFO:root:Starting segment
INFO:root:Mapping from process MainProcess; PID 30655
INFO:root:Waiting for tasks to be run
INFO:root:Worker: OpenMMGPUWorker-0; task_idx : 0; args : (<wepy.runners.openmm.OpenMMWalker object at 0x2b26e5c76f28>, 10000) 
INFO:root:Time to generate the system: 0.577296257019043
INFO:root:Worker: OpenMMGPUWorker-1; task_idx : 1; args : (<wepy.runners.openmm.OpenMMWalker object at 0x2b26e5c76f98>, 10000) 
INFO:root:Time to generate the system: 0.5293459892272949
INFO:root:Worker: OpenMMGPUWorker-2; task_idx : 2; args : (<wepy.runners.openmm.OpenMMWalker object at 0x2b26e6958048>, 10000) 
Process OpenMMGPUWorker-2:
Traceback (most recent call last):
  File "/mnt/home/lotzsamu/anaconda3/envs/seh_pathway_hopping/lib/python3.7/multiprocessing/process.py", line 297, in _bootstrap
    self.run()
  File "/mnt/home/lotzsamu/devel/wepy/src/wepy/work_mapper/worker.py", line 101, in run
    answer = self.run_task(next_task)
  File "/mnt/home/lotzsamu/devel/wepy/src/wepy/runners/openmm.py", line 973, in run_task
    return task(DeviceIndex=str(self.worker_idx))
  File "/mnt/home/lotzsamu/devel/wepy/src/wepy/work_mapper/worker.py", line 140, in __call__
    return self.func(*self.args, **kwargs)
  File "/mnt/home/lotzsamu/devel/wepy/src/wepy/runners/openmm.py", line 209, in run_segment
    new_integrator, platform)
  File "/mnt/home/lotzsamu/anaconda3/envs/seh_pathway_hopping/lib/python3.7/site-packages/simtk/openmm/app/simulation.py", line 103, in __init__
    self.context = mm.Context(self.system, self.integrator, platform)
  File "/mnt/home/lotzsamu/anaconda3/envs/seh_pathway_hopping/lib/python3.7/site-packages/simtk/openmm/openmm.py", line 12231, in __init__
    this = _openmm.new_Context(*args)
Exception: Illegal value for DeviceIndex: 2
INFO:root:Worker: OpenMMGPUWorker-3; task_idx : 3; args : (<wepy.runners.openmm.OpenMMWalker object at 0x2b26e69580b8>, 10000) 
Process OpenMMGPUWorker-3:
Traceback (most recent call last):
  File "/mnt/home/lotzsamu/anaconda3/envs/seh_pathway_hopping/lib/python3.7/multiprocessing/process.py", line 297, in _bootstrap
    self.run()
  File "/mnt/home/lotzsamu/devel/wepy/src/wepy/work_mapper/worker.py", line 101, in run
    answer = self.run_task(next_task)
  File "/mnt/home/lotzsamu/devel/wepy/src/wepy/runners/openmm.py", line 973, in run_task
    return task(DeviceIndex=str(self.worker_idx))
  File "/mnt/home/lotzsamu/devel/wepy/src/wepy/work_mapper/worker.py", line 140, in __call__
    return self.func(*self.args, **kwargs)
  File "/mnt/home/lotzsamu/devel/wepy/src/wepy/runners/openmm.py", line 209, in run_segment
    new_integrator, platform)
  File "/mnt/home/lotzsamu/anaconda3/envs/seh_pathway_hopping/lib/python3.7/site-packages/simtk/openmm/app/simulation.py", line 103, in __init__
    self.context = mm.Context(self.system, self.integrator, platform)
  File "/mnt/home/lotzsamu/anaconda3/envs/seh_pathway_hopping/lib/python3.7/site-packages/simtk/openmm/openmm.py", line 12231, in __init__
    this = _openmm.new_Context(*args)
Exception: Illegal value for DeviceIndex: 3
INFO:root:Worker: OpenMMGPUWorker-4; task_idx : 4; args : (<wepy.runners.openmm.OpenMMWalker object at 0x2b26e696b128>, 10000) 
Process OpenMMGPUWorker-4:
Traceback (most recent call last):
  File "/mnt/home/lotzsamu/anaconda3/envs/seh_pathway_hopping/lib/python3.7/multiprocessing/process.py", line 297, in _bootstrap
    self.run()
  File "/mnt/home/lotzsamu/devel/wepy/src/wepy/work_mapper/worker.py", line 101, in run
    answer = self.run_task(next_task)
  File "/mnt/home/lotzsamu/devel/wepy/src/wepy/runners/openmm.py", line 973, in run_task
    return task(DeviceIndex=str(self.worker_idx))
  File "/mnt/home/lotzsamu/devel/wepy/src/wepy/work_mapper/worker.py", line 140, in __call__
    return self.func(*self.args, **kwargs)
  File "/mnt/home/lotzsamu/devel/wepy/src/wepy/runners/openmm.py", line 209, in run_segment
    new_integrator, platform)
  File "/mnt/home/lotzsamu/anaconda3/envs/seh_pathway_hopping/lib/python3.7/site-packages/simtk/openmm/app/simulation.py", line 103, in __init__
    self.context = mm.Context(self.system, self.integrator, platform)
  File "/mnt/home/lotzsamu/anaconda3/envs/seh_pathway_hopping/lib/python3.7/site-packages/simtk/openmm/openmm.py", line 12231, in __init__
    this = _openmm.new_Context(*args)
Exception: Illegal value for DeviceIndex: 4
INFO:root:Worker: OpenMMGPUWorker-5; task_idx : 5; args : (<wepy.runners.openmm.OpenMMWalker object at 0x2b26e696b198>, 10000) 
Process OpenMMGPUWorker-5:
Traceback (most recent call last):
  File "/mnt/home/lotzsamu/anaconda3/envs/seh_pathway_hopping/lib/python3.7/multiprocessing/process.py", line 297, in _bootstrap
    self.run()
  File "/mnt/home/lotzsamu/devel/wepy/src/wepy/work_mapper/worker.py", line 101, in run
    answer = self.run_task(next_task)
  File "/mnt/home/lotzsamu/devel/wepy/src/wepy/runners/openmm.py", line 973, in run_task
    return task(DeviceIndex=str(self.worker_idx))
  File "/mnt/home/lotzsamu/devel/wepy/src/wepy/work_mapper/worker.py", line 140, in __call__
    return self.func(*self.args, **kwargs)
  File "/mnt/home/lotzsamu/devel/wepy/src/wepy/runners/openmm.py", line 209, in run_segment
    new_integrator, platform)
  File "/mnt/home/lotzsamu/anaconda3/envs/seh_pathway_hopping/lib/python3.7/site-packages/simtk/openmm/app/simulation.py", line 103, in __init__
    self.context = mm.Context(self.system, self.integrator, platform)
  File "/mnt/home/lotzsamu/anaconda3/envs/seh_pathway_hopping/lib/python3.7/site-packages/simtk/openmm/openmm.py", line 12231, in __init__
    this = _openmm.new_Context(*args)
Exception: Illegal value for DeviceIndex: 5
INFO:root:Worker: OpenMMGPUWorker-6; task_idx : 6; args : (<wepy.runners.openmm.OpenMMWalker object at 0x2b26e696b208>, 10000) 
Process OpenMMGPUWorker-6:
Traceback (most recent call last):
  File "/mnt/home/lotzsamu/anaconda3/envs/seh_pathway_hopping/lib/python3.7/multiprocessing/process.py", line 297, in _bootstrap
    self.run()
  File "/mnt/home/lotzsamu/devel/wepy/src/wepy/work_mapper/worker.py", line 101, in run
    answer = self.run_task(next_task)
  File "/mnt/home/lotzsamu/devel/wepy/src/wepy/runners/openmm.py", line 973, in run_task
    return task(DeviceIndex=str(self.worker_idx))
  File "/mnt/home/lotzsamu/devel/wepy/src/wepy/work_mapper/worker.py", line 140, in __call__
    return self.func(*self.args, **kwargs)
  File "/mnt/home/lotzsamu/devel/wepy/src/wepy/runners/openmm.py", line 209, in run_segment
    new_integrator, platform)
  File "/mnt/home/lotzsamu/anaconda3/envs/seh_pathway_hopping/lib/python3.7/site-packages/simtk/openmm/app/simulation.py", line 103, in __init__
    self.context = mm.Context(self.system, self.integrator, platform)
  File "/mnt/home/lotzsamu/anaconda3/envs/seh_pathway_hopping/lib/python3.7/site-packages/simtk/openmm/openmm.py", line 12231, in __init__
    this = _openmm.new_Context(*args)
Exception: Illegal value for DeviceIndex: 6
INFO:root:Worker: OpenMMGPUWorker-7; task_idx : 7; args : (<wepy.runners.openmm.OpenMMWalker object at 0x2b26e696b278>, 10000) 
Process OpenMMGPUWorker-7:
Traceback (most recent call last):
  File "/mnt/home/lotzsamu/anaconda3/envs/seh_pathway_hopping/lib/python3.7/multiprocessing/process.py", line 297, in _bootstrap
    self.run()
  File "/mnt/home/lotzsamu/devel/wepy/src/wepy/work_mapper/worker.py", line 101, in run
    answer = self.run_task(next_task)
  File "/mnt/home/lotzsamu/devel/wepy/src/wepy/runners/openmm.py", line 973, in run_task
    return task(DeviceIndex=str(self.worker_idx))
  File "/mnt/home/lotzsamu/devel/wepy/src/wepy/work_mapper/worker.py", line 140, in __call__
    return self.func(*self.args, **kwargs)
  File "/mnt/home/lotzsamu/devel/wepy/src/wepy/runners/openmm.py", line 209, in run_segment
    new_integrator, platform)
  File "/mnt/home/lotzsamu/anaconda3/envs/seh_pathway_hopping/lib/python3.7/site-packages/simtk/openmm/app/simulation.py", line 103, in __init__
    self.context = mm.Context(self.system, self.integrator, platform)
  File "/mnt/home/lotzsamu/anaconda3/envs/seh_pathway_hopping/lib/python3.7/site-packages/simtk/openmm/openmm.py", line 12231, in __init__
    this = _openmm.new_Context(*args)
Exception: Illegal value for DeviceIndex: 7
INFO:root:Time to run 10000 sim steps: 45.22011947631836
INFO:root:Getting context state time: 0.0
INFO:root:Total internal run_segment time: 45.81156516075134
INFO:root:Worker: OpenMMGPUWorker-0; task_idx : 0; COMPLETED in 45.881568908691406 s
INFO:root:Worker: OpenMMGPUWorker-0; task_idx : 8; args : (<wepy.runners.openmm.OpenMMWalker object at 0x2b26e4f02ba8>, 10000) 
INFO:root:Time to generate the system: 0.4489285945892334
INFO:root:Time to run 10000 sim steps: 48.41553044319153
INFO:root:Getting context state time: 2.384185791015625e-07
INFO:root:Total internal run_segment time: 48.959681034088135
INFO:root:Worker: OpenMMGPUWorker-1; task_idx : 1; COMPLETED in 49.04100203514099 s
INFO:root:Worker: OpenMMGPUWorker-1; task_idx : 9; args : (<wepy.runners.openmm.OpenMMWalker object at 0x2b26e6958518>, 10000) 
INFO:root:Time to generate the system: 0.5437145233154297
INFO:root:Time to run 10000 sim steps: 45.73873591423035
INFO:root:Getting context state time: 2.384185791015625e-07
INFO:root:Total internal run_segment time: 46.20137572288513
INFO:root:Worker: OpenMMGPUWorker-0; task_idx : 8; COMPLETED in 46.286505937576294 s
INFO:root:Worker: OpenMMGPUWorker-0; task_idx : 10; args : (<wepy.runners.openmm.OpenMMWalker object at 0x2b26eb9c40f0>, 10000) 
INFO:root:Time to generate the system: 0.4576404094696045
INFO:root:Time to run 10000 sim steps: 48.913151025772095
INFO:root:Getting context state time: 2.384185791015625e-07
INFO:root:Total internal run_segment time: 49.47148776054382
INFO:root:Worker: OpenMMGPUWorker-1; task_idx : 9; COMPLETED in 49.59997916221619 s
INFO:root:Worker: OpenMMGPUWorker-1; task_idx : 11; args : (<wepy.runners.openmm.OpenMMWalker object at 0x2b26e4f05c18>, 10000) 
INFO:root:Time to generate the system: 0.5062494277954102
INFO:root:Time to run 10000 sim steps: 45.687031984329224
INFO:root:Getting context state time: 2.384185791015625e-07
INFO:root:Total internal run_segment time: 46.15964889526367
INFO:root:Worker: OpenMMGPUWorker-0; task_idx : 10; COMPLETED in 46.2316951751709 s
INFO:root:Worker: OpenMMGPUWorker-0; task_idx : 12; args : (<wepy.runners.openmm.OpenMMWalker object at 0x2b26e5c76ef0>, 10000) 
INFO:root:Time to generate the system: 0.46250033378601074
INFO:root:Time to run 10000 sim steps: 49.41912317276001
INFO:root:Getting context state time: 2.384185791015625e-07
INFO:root:Total internal run_segment time: 49.94080591201782
INFO:root:Worker: OpenMMGPUWorker-1; task_idx : 11; COMPLETED in 50.016382932662964 s
INFO:root:Worker: OpenMMGPUWorker-1; task_idx : 13; args : (<wepy.runners.openmm.OpenMMWalker object at 0x2b26e5c76f60>, 10000) 
INFO:root:Time to generate the system: 0.5089428424835205
INFO:root:Time to run 10000 sim steps: 45.701335191726685
INFO:root:Getting context state time: 2.384185791015625e-07
INFO:root:Total internal run_segment time: 46.178640604019165
INFO:root:Worker: OpenMMGPUWorker-0; task_idx : 12; COMPLETED in 46.25224256515503 s
INFO:root:Worker: OpenMMGPUWorker-0; task_idx : 14; args : (<wepy.runners.openmm.OpenMMWalker object at 0x2b26edf1b438>, 10000) 
INFO:root:Time to generate the system: 0.4592616558074951
INFO:root:Time to run 10000 sim steps: 49.4362690448761
INFO:root:Getting context state time: 2.384185791015625e-07
INFO:root:Total internal run_segment time: 49.96109628677368
INFO:root:Worker: OpenMMGPUWorker-1; task_idx : 13; COMPLETED in 50.036346197128296 s
INFO:root:Worker: OpenMMGPUWorker-1; task_idx : 15; args : (<wepy.runners.openmm.OpenMMWalker object at 0x2b26edf43828>, 10000) 
INFO:root:Time to generate the system: 0.5200538635253906
INFO:root:Time to run 10000 sim steps: 45.756422996520996
INFO:root:Getting context state time: 2.384185791015625e-07
INFO:root:Total internal run_segment time: 46.23029613494873
INFO:root:Worker: OpenMMGPUWorker-0; task_idx : 14; COMPLETED in 46.30083394050598 s
INFO:root:Worker: OpenMMGPUWorker-0; task_idx : 16; args : (<wepy.runners.openmm.OpenMMWalker object at 0x2b26ed2ca4e0>, 10000) 
INFO:root:Time to generate the system: 0.4616823196411133
INFO:root:Time to run 10000 sim steps: 49.305707693099976
INFO:root:Getting context state time: 2.384185791015625e-07
INFO:root:Total internal run_segment time: 49.84129571914673
INFO:root:Worker: OpenMMGPUWorker-1; task_idx : 15; COMPLETED in 49.91593551635742 s
INFO:root:Worker: OpenMMGPUWorker-1; task_idx : 17; args : (<wepy.runners.openmm.OpenMMWalker object at 0x2b26e806b4a8>, 10000) 
INFO:root:Time to generate the system: 0.48055148124694824
INFO:root:Time to run 10000 sim steps: 45.64658546447754
INFO:root:Getting context state time: 2.384185791015625e-07
INFO:root:Total internal run_segment time: 46.12319731712341
INFO:root:Worker: OpenMMGPUWorker-0; task_idx : 16; COMPLETED in 46.19711637496948 s
INFO:root:Worker: OpenMMGPUWorker-0; task_idx : 18; args : (<wepy.runners.openmm.OpenMMWalker object at 0x2b26ebc0cb38>, 10000) 
INFO:root:Time to generate the system: 0.46311497688293457
INFO:root:Time to run 10000 sim steps: 49.33384966850281
INFO:root:Getting context state time: 2.384185791015625e-07
INFO:root:Total internal run_segment time: 49.82962918281555
INFO:root:Worker: OpenMMGPUWorker-1; task_idx : 17; COMPLETED in 49.902599573135376 s
INFO:root:Worker: OpenMMGPUWorker-1; task_idx : 19; args : (<wepy.runners.openmm.OpenMMWalker object at 0x2b26efe2d5f8>, 10000) 
INFO:root:Time to generate the system: 0.44741082191467285
INFO:root:Time to run 10000 sim steps: 45.794230937957764
INFO:root:Getting context state time: 2.384185791015625e-07
INFO:root:Total internal run_segment time: 46.27238082885742
INFO:root:Worker: OpenMMGPUWorker-0; task_idx : 18; COMPLETED in 46.344186544418335 s
INFO:root:Worker: OpenMMGPUWorker-0; task_idx : 20; args : (<wepy.runners.openmm.OpenMMWalker object at 0x2b26edf4cb00>, 10000) 
INFO:root:Time to generate the system: 0.457991361618042
INFO:root:Time to run 10000 sim steps: 49.27768111228943
INFO:root:Getting context state time: 4.76837158203125e-07
INFO:root:Total internal run_segment time: 49.74027943611145
INFO:root:Worker: OpenMMGPUWorker-1; task_idx : 19; COMPLETED in 49.81058597564697 s
INFO:root:Worker: OpenMMGPUWorker-1; task_idx : 21; args : (<wepy.runners.openmm.OpenMMWalker object at 0x2b26ef0de6a0>, 10000) 
INFO:root:Time to generate the system: 0.4468574523925781
INFO:root:Time to run 10000 sim steps: 45.705047845840454
INFO:root:Getting context state time: 2.384185791015625e-07
INFO:root:Total internal run_segment time: 46.177868604660034
INFO:root:Worker: OpenMMGPUWorker-0; task_idx : 20; COMPLETED in 46.25202822685242 s
INFO:root:Worker: OpenMMGPUWorker-0; task_idx : 22; args : (<wepy.runners.openmm.OpenMMWalker object at 0x2b26edf4ccc0>, 10000) 
INFO:root:Time to generate the system: 0.47171688079833984
INFO:root:Time to run 10000 sim steps: 49.17345643043518
INFO:root:Getting context state time: 2.384185791015625e-07
INFO:root:Total internal run_segment time: 49.63572883605957
INFO:root:Worker: OpenMMGPUWorker-1; task_idx : 21; COMPLETED in 49.70785188674927 s
INFO:root:Worker: OpenMMGPUWorker-1; task_idx : 23; args : (<wepy.runners.openmm.OpenMMWalker object at 0x2b26ed4d8470>, 10000) 
INFO:root:Time to generate the system: 0.443744421005249
INFO:root:Time to run 10000 sim steps: 45.65493702888489
INFO:root:Getting context state time: 2.384185791015625e-07
INFO:root:Total internal run_segment time: 46.141681432724
INFO:root:Worker: OpenMMGPUWorker-0; task_idx : 22; COMPLETED in 46.21773719787598 s
INFO:root:Worker: OpenMMGPUWorker-0; task_idx : 24; args : (<wepy.runners.openmm.OpenMMWalker object at 0x2b26e5c047b8>, 10000) 
INFO:root:Time to generate the system: 0.46060848236083984
INFO:root:Time to run 10000 sim steps: 49.30945897102356
INFO:root:Getting context state time: 2.384185791015625e-07
INFO:root:Total internal run_segment time: 49.7684268951416
INFO:root:Worker: OpenMMGPUWorker-1; task_idx : 23; COMPLETED in 49.84265732765198 s
INFO:root:Worker: OpenMMGPUWorker-1; task_idx : 25; args : (<wepy.runners.openmm.OpenMMWalker object at 0x2b26e71c9668>, 10000) 
INFO:root:Time to generate the system: 0.4451620578765869
INFO:root:Time to run 10000 sim steps: 45.751474380493164
INFO:root:Getting context state time: 2.384185791015625e-07
INFO:root:Total internal run_segment time: 46.22593092918396
INFO:root:Worker: OpenMMGPUWorker-0; task_idx : 24; COMPLETED in 46.29665732383728 s
INFO:root:Worker: OpenMMGPUWorker-0; task_idx : 26; args : (<wepy.runners.openmm.OpenMMWalker object at 0x2b26e86d6b00>, 10000) 
INFO:root:Time to generate the system: 0.4616429805755615
INFO:root:Time to run 10000 sim steps: 49.28611421585083
INFO:root:Getting context state time: 2.384185791015625e-07
INFO:root:Total internal run_segment time: 49.74694848060608
INFO:root:Worker: OpenMMGPUWorker-1; task_idx : 25; COMPLETED in 49.82146167755127 s
INFO:root:Worker: OpenMMGPUWorker-1; task_idx : 27; args : (<wepy.runners.openmm.OpenMMWalker object at 0x2b26e83dfa20>, 10000) 
INFO:root:Time to generate the system: 0.45044493675231934
INFO:root:Time to run 10000 sim steps: 45.66885566711426
INFO:root:Getting context state time: 2.384185791015625e-07
INFO:root:Total internal run_segment time: 46.14394974708557
INFO:root:Worker: OpenMMGPUWorker-0; task_idx : 26; COMPLETED in 46.21535062789917 s
INFO:root:Worker: OpenMMGPUWorker-0; task_idx : 28; args : (<wepy.runners.openmm.OpenMMWalker object at 0x2b26e923dcc0>, 10000) 
INFO:root:Time to generate the system: 0.46715378761291504
INFO:root:Time to run 10000 sim steps: 49.347591400146484
INFO:root:Getting context state time: 2.384185791015625e-07
INFO:root:Total internal run_segment time: 49.81317853927612
INFO:root:Worker: OpenMMGPUWorker-1; task_idx : 27; COMPLETED in 49.888678550720215 s
INFO:root:Worker: OpenMMGPUWorker-1; task_idx : 29; args : (<wepy.runners.openmm.OpenMMWalker object at 0x2b26efe2d5f8>, 10000) 
INFO:root:Time to generate the system: 0.45654797554016113
INFO:root:Time to run 10000 sim steps: 45.689615964889526
INFO:root:Getting context state time: 0.0
INFO:root:Total internal run_segment time: 46.170884132385254
INFO:root:Worker: OpenMMGPUWorker-0; task_idx : 28; COMPLETED in 46.24203038215637 s
INFO:root:Worker: OpenMMGPUWorker-0; task_idx : 30; args : (<wepy.runners.openmm.OpenMMWalker object at 0x2b26ff654748>, 10000) 
INFO:root:Time to generate the system: 0.4884214401245117
INFO:root:Time to run 10000 sim steps: 49.41051125526428
INFO:root:Getting context state time: 0.0
INFO:root:Total internal run_segment time: 49.881404876708984
INFO:root:Worker: OpenMMGPUWorker-1; task_idx : 29; COMPLETED in 49.951998472213745 s
INFO:root:Time to run 10000 sim steps: 45.68109345436096
INFO:root:Getting context state time: 2.384185791015625e-07
INFO:root:Total internal run_segment time: 46.183390617370605
INFO:root:Worker: OpenMMGPUWorker-0; task_idx : 30; COMPLETED in 46.257264614105225 s
INFO:root:Worker: OpenMMGPUWorker-1; task_idx : 31; args : (<wepy.runners.openmm.OpenMMWalker object at 0x2b26e706e898>, 10000) 
INFO:root:Time to generate the system: 0.46858716011047363
INFO:root:Worker: OpenMMGPUWorker-0; task_idx : 32; args : (<wepy.runners.openmm.OpenMMWalker object at 0x2b26ee73b240>, 10000) 
INFO:root:Time to generate the system: 0.504866361618042
INFO:root:Time to run 10000 sim steps: 49.340866804122925
INFO:root:Getting context state time: 2.384185791015625e-07
INFO:root:Total internal run_segment time: 49.823914766311646
INFO:root:Worker: OpenMMGPUWorker-1; task_idx : 31; COMPLETED in 49.89437127113342 s
INFO:root:Time to run 10000 sim steps: 45.71916604042053
INFO:root:Getting context state time: 0.0
INFO:root:Total internal run_segment time: 46.238399267196655
INFO:root:Worker: OpenMMGPUWorker-0; task_idx : 32; COMPLETED in 46.30897355079651 s
INFO:root:Worker: OpenMMGPUWorker-1; task_idx : 33; args : (<wepy.runners.openmm.OpenMMWalker object at 0x2b26f5d71710>, 10000) 
INFO:root:Time to generate the system: 0.4875063896179199
INFO:root:Worker: OpenMMGPUWorker-0; task_idx : 34; args : (<wepy.runners.openmm.OpenMMWalker object at 0x2b26ed931898>, 10000) 
INFO:root:Time to generate the system: 0.4436323642730713
INFO:root:Time to run 10000 sim steps: 49.18079686164856
INFO:root:Getting context state time: 0.0
INFO:root:Total internal run_segment time: 49.68358302116394
INFO:root:Worker: OpenMMGPUWorker-1; task_idx : 33; COMPLETED in 49.755205154418945 s
INFO:root:Time to run 10000 sim steps: 45.69609308242798
INFO:root:Getting context state time: 2.384185791015625e-07
INFO:root:Total internal run_segment time: 46.15258765220642
INFO:root:Worker: OpenMMGPUWorker-0; task_idx : 34; COMPLETED in 46.220935583114624 s
INFO:root:Worker: OpenMMGPUWorker-1; task_idx : 35; args : (<wepy.runners.openmm.OpenMMWalker object at 0x2b26efe97940>, 10000) 
INFO:root:Time to generate the system: 0.46949315071105957
INFO:root:Worker: OpenMMGPUWorker-0; task_idx : 36; args : (<wepy.runners.openmm.OpenMMWalker object at 0x2b26e7c00828>, 10000) 
INFO:root:Time to generate the system: 0.44612908363342285
INFO:root:Time to run 10000 sim steps: 49.11039423942566
INFO:root:Getting context state time: 2.384185791015625e-07
INFO:root:Total internal run_segment time: 49.59424924850464
INFO:root:Worker: OpenMMGPUWorker-1; task_idx : 35; COMPLETED in 49.66496992111206 s
INFO:root:Time to run 10000 sim steps: 45.66300654411316
INFO:root:Getting context state time: 0.0
INFO:root:Total internal run_segment time: 46.12228965759277
INFO:root:Worker: OpenMMGPUWorker-0; task_idx : 36; COMPLETED in 46.192095041275024 s
INFO:root:Worker: OpenMMGPUWorker-1; task_idx : 37; args : (<wepy.runners.openmm.OpenMMWalker object at 0x2b26ed9799e8>, 10000) 
INFO:root:Time to generate the system: 0.46083545684814453
INFO:root:Worker: OpenMMGPUWorker-0; task_idx : 38; args : (<wepy.runners.openmm.OpenMMWalker object at 0x2b26f00f29e8>, 10000) 
INFO:root:Time to generate the system: 0.4584381580352783
INFO:root:Time to run 10000 sim steps: 45.65990972518921
INFO:root:Getting context state time: 0.0
INFO:root:Total internal run_segment time: 46.13128066062927
INFO:root:Time to run 10000 sim steps: 49.12494945526123
INFO:root:Getting context state time: 2.384185791015625e-07
INFO:root:Total internal run_segment time: 49.60040593147278
INFO:root:Worker: OpenMMGPUWorker-0; task_idx : 38; COMPLETED in 46.25949549674988 s
INFO:root:Worker: OpenMMGPUWorker-1; task_idx : 37; COMPLETED in 49.752718687057495 s
INFO:root:Worker: OpenMMGPUWorker-0; task_idx : 39; args : (<wepy.runners.openmm.OpenMMWalker object at 0x2b26efa208d0>, 10000) 
INFO:root:Time to generate the system: 0.4641389846801758
INFO:root:Worker: OpenMMGPUWorker-1; task_idx : 40; args : (<wepy.runners.openmm.OpenMMWalker object at 0x2b26ef665a90>, 10000) 
INFO:root:Time to generate the system: 0.5080907344818115
INFO:root:Time to run 10000 sim steps: 45.668400287628174
INFO:root:Getting context state time: 2.384185791015625e-07
INFO:root:Total internal run_segment time: 46.14571189880371
INFO:root:Worker: OpenMMGPUWorker-0; task_idx : 39; COMPLETED in 46.216455936431885 s
INFO:root:Worker: OpenMMGPUWorker-0; task_idx : 41; args : (<wepy.runners.openmm.OpenMMWalker object at 0x2b26ed9b99b0>, 10000) 
INFO:root:Time to generate the system: 0.44869327545166016
INFO:root:Time to run 10000 sim steps: 49.15009427070618
INFO:root:Getting context state time: 2.384185791015625e-07
INFO:root:Total internal run_segment time: 49.67250394821167
INFO:root:Worker: OpenMMGPUWorker-1; task_idx : 40; COMPLETED in 49.74195957183838 s
INFO:root:Worker: OpenMMGPUWorker-1; task_idx : 42; args : (<wepy.runners.openmm.OpenMMWalker object at 0x2b26ffdcf9b0>, 10000) 
INFO:root:Time to generate the system: 0.44510674476623535
INFO:root:Time to run 10000 sim steps: 45.63627862930298
INFO:root:Getting context state time: 2.384185791015625e-07
INFO:root:Total internal run_segment time: 46.09816288948059
INFO:root:Worker: OpenMMGPUWorker-0; task_idx : 41; COMPLETED in 46.16745591163635 s
INFO:root:Worker: OpenMMGPUWorker-0; task_idx : 43; args : (<wepy.runners.openmm.OpenMMWalker object at 0x2b26ed940b00>, 10000) 
INFO:root:Time to generate the system: 0.4638488292694092
INFO:root:Time to run 10000 sim steps: 49.26246476173401
INFO:root:Getting context state time: 2.384185791015625e-07
INFO:root:Total internal run_segment time: 49.72205352783203
INFO:root:Worker: OpenMMGPUWorker-1; task_idx : 42; COMPLETED in 49.79111075401306 s
INFO:root:Worker: OpenMMGPUWorker-1; task_idx : 44; args : (<wepy.runners.openmm.OpenMMWalker object at 0x2b26e7dd5be0>, 10000) 
INFO:root:Time to generate the system: 0.4435908794403076
INFO:root:Time to run 10000 sim steps: 45.75906777381897
INFO:root:Getting context state time: 2.384185791015625e-07
INFO:root:Total internal run_segment time: 46.2366988658905
INFO:root:Worker: OpenMMGPUWorker-0; task_idx : 43; COMPLETED in 46.306313276290894 s
INFO:root:Worker: OpenMMGPUWorker-0; task_idx : 45; args : (<wepy.runners.openmm.OpenMMWalker object at 0x2b26ff2fbc50>, 10000) 
INFO:root:Time to generate the system: 0.4923133850097656
INFO:root:Time to run 10000 sim steps: 49.298765420913696
INFO:root:Getting context state time: 2.384185791015625e-07
INFO:root:Total internal run_segment time: 49.756569147109985
INFO:root:Worker: OpenMMGPUWorker-1; task_idx : 44; COMPLETED in 49.82681918144226 s
INFO:root:Worker: OpenMMGPUWorker-1; task_idx : 46; args : (<wepy.runners.openmm.OpenMMWalker object at 0x2b26eff28780>, 10000) 
INFO:root:Time to generate the system: 0.4476282596588135
INFO:root:Time to run 10000 sim steps: 45.69042372703552
INFO:root:Getting context state time: 0.0
INFO:root:Total internal run_segment time: 46.196484327316284
INFO:root:Worker: OpenMMGPUWorker-0; task_idx : 45; COMPLETED in 46.2676203250885 s
INFO:root:Worker: OpenMMGPUWorker-0; task_idx : 47; args : (<wepy.runners.openmm.OpenMMWalker object at 0x2b26e7133cc0>, 10000) 
INFO:root:Time to generate the system: 0.5498509407043457
INFO:root:Time to run 10000 sim steps: 49.349629402160645
INFO:root:Getting context state time: 2.384185791015625e-07
INFO:root:Total internal run_segment time: 49.81215476989746
INFO:root:Worker: OpenMMGPUWorker-1; task_idx : 46; COMPLETED in 49.881561517715454 s
INFO:root:Time to run 10000 sim steps: 45.59592008590698
INFO:root:Getting context state time: 2.384185791015625e-07
INFO:root:Total internal run_segment time: 46.15961027145386
INFO:root:Worker: OpenMMGPUWorker-0; task_idx : 47; COMPLETED in 46.2319974899292 s
srun: Job step aborted: Waiting up to 32 seconds for job step to finish.
slurmstepd: error: *** STEP 21499165.0 ON lac-027 CANCELLED AT 2019-05-15T18:40:10 ***
slurmstepd: error: *** JOB 21499165 ON lac-027 CANCELLED AT 2019-05-15T18:40:10 ***
