stty: standard input: Inappropriate ioctl for device
executing: icer.sh env
Lmod Warning: Input module (python) not found, unloading module: Python . . .
(ICER) 


Lmod Warning: Input module (openmpi) not found, unloading module: OpenMPI . .
. (ICER) 



Inactive Modules:
  1) FFTW/3.3.7          3) ScaLAPACK/2.0.2-OpenBLAS-0.2.20     5) zlib/1.2.11
  2) OpenBLAS/0.2.20     4) imkl/2018.1.163

Due to MODULEPATH changes, the following have been reloaded:
  1) Boost/1.67.0

Lmod Warning: Input module (cmake) not found, unloading module: CMake . . .
(ICER) 


Lmod Warning: Input module (matlab) not found, unloading module: MATLAB . . .
(ICER) 


Lmod Warning: Input module (gnu) not found, unloading module: GNU . . . (ICER) 



Inactive Modules:
  1) Tcl/8.6.8     2) tbb/2018_U3

Due to MODULEPATH changes, the following have been reloaded:
  1) bzip2/1.0.6


Due to MODULEPATH changes, the following have been reloaded:
  1) git/2.21.0


Inactive Modules:
  1) CMake/3.11.1        5) Python/3.6.4                        9) imkl/2018.1.163
  2) FFTW/3.3.7          6) SQLite/3.21.0                      10) libreadline/7.0
  3) OpenBLAS/0.2.20     7) ScaLAPACK/2.0.2-OpenBLAS-0.2.20    11) tbb/2018_U3
  4) OpenMPI/2.1.2       8) Tcl/8.6.8

Due to MODULEPATH changes, the following have been reloaded:
  1) Boost/1.67.0     3) bzip2/1.0.6      5) zlib/1.2.11
  2) GMP/6.1.2        4) libffi/3.2.1

The following have been reloaded with a version change:
  1) GNU/6.4.0-2.28 => GNU/4.8.3

stty: standard input: Inappropriate ioctl for device
executing: icer.sh env
Lmod Warning: Input module (python) not found, unloading module: Python . . .
(ICER) 


Lmod Warning: Input module (openmpi) not found, unloading module: OpenMPI . .
. (ICER) 



Inactive Modules:
  1) FFTW/3.3.7          3) ScaLAPACK/2.0.2-OpenBLAS-0.2.20     5) zlib/1.2.11
  2) OpenBLAS/0.2.20     4) imkl/2018.1.163

Due to MODULEPATH changes, the following have been reloaded:
  1) Boost/1.67.0

Lmod Warning: Input module (cmake) not found, unloading module: CMake . . .
(ICER) 


Lmod Warning: Input module (matlab) not found, unloading module: MATLAB . . .
(ICER) 


Lmod Warning: Input module (gnu) not found, unloading module: GNU . . . (ICER) 



Inactive Modules:
  1) Tcl/8.6.8     2) tbb/2018_U3

Due to MODULEPATH changes, the following have been reloaded:
  1) bzip2/1.0.6


Due to MODULEPATH changes, the following have been reloaded:
  1) git/2.21.0

stty: standard input: Inappropriate ioctl for device

Currently Loaded Modules:
  1) powertools/1.2   7) libxml2/2.9.4     13) NASM/2.13.01
  2) GCCcore/6.4.0    8) ncurses/6.0       14) libjpeg-turbo/1.5.2
  3) zlib/1.2.11      9) gettext/0.19.8.1  15) Emacs/25.3
  4) cURL/7.58.0     10) Perl/5.28.1       16) CUDA/9.2.88
  5) expat/2.2.5     11) git/2.21.0
  6) XZ/5.2.3        12) libpng/1.6.32

 

INFO:root:Loading the starting snapshot file
INFO:root:Creating orchestrating orch database
INFO:root:Adding the starting snapshot to database
DEBUG:matplotlib:CONFIGDIR=/mnt/home/lotzsamu/.config/matplotlib
DEBUG:matplotlib:(private) matplotlib data path: /mnt/gs18/scratch/users/lotzsamu/tree/lab/projects/seh.pathway_hopping/_conda_envs/sims/lib/python3.7/site-packages/matplotlib/mpl-data
DEBUG:matplotlib:matplotlib data path: /mnt/gs18/scratch/users/lotzsamu/tree/lab/projects/seh.pathway_hopping/_conda_envs/sims/lib/python3.7/site-packages/matplotlib/mpl-data
DEBUG:matplotlib:loaded rc file /mnt/gs18/scratch/users/lotzsamu/tree/lab/projects/seh.pathway_hopping/_conda_envs/sims/lib/python3.7/site-packages/matplotlib/mpl-data/matplotlibrc
DEBUG:matplotlib:matplotlib version 3.2.1
DEBUG:matplotlib:interactive is False
DEBUG:matplotlib:platform is linux
DEBUG:matplotlib:loaded modules: ['sys', 'builtins', '_frozen_importlib', '_imp', '_thread', '_warnings', '_weakref', 'zipimport', '_frozen_importlib_external', '_io', 'marshal', 'posix', 'encodings', 'codecs', '_codecs', 'encodings.aliases', 'encodings.utf_8', '_signal', '__main__', 'encodings.latin_1', 'io', 'abc', '_abc', '_bootlocale', '_locale', 'site', 'os', 'stat', '_stat', 'posixpath', 'genericpath', 'os.path', '_collections_abc', '_sitebuiltins', 'types', 'importlib', 'importlib._bootstrap', 'importlib._bootstrap_external', 'warnings', 'importlib.util', 'importlib.abc', 'importlib.machinery', 'contextlib', 'collections', 'operator', '_operator', 'keyword', 'heapq', '_heapq', 'itertools', 'reprlib', '_collections', 'functools', '_functools', 'mpl_toolkits', 're', 'enum', 'sre_compile', '_sre', 'sre_parse', 'sre_constants', 'copyreg', 'wepy', 'wepy._version', 'wepy.cli', 'click', 'click.core', 'errno', 'inspect', 'dis', 'opcode', '_opcode', 'collections.abc', 'linecache', 'tokenize', 'token', 'click._compat', 'weakref', '_weakrefset', 'shlex', 'click._unicodefun', 'click.exceptions', 'click.utils', 'click.globals', 'threading', 'time', 'traceback', 'click.formatting', 'click.parser', 'click.termui', 'struct', '_struct', 'click.types', 'datetime', 'math', '_datetime', 'click.decorators', 'wepy.orchestration', 'wepy.orchestration.cli', 'logging', 'string', '_string', 'atexit', 'subprocess', 'signal', '_posixsubprocess', 'select', 'selectors', 'wepy.orchestration.orchestrator', 'copy', 'sqlite3', 'sqlite3.dbapi2', '_sqlite3', 'hashlib', '_hashlib', '_blake2', '_sha3', 'base64', 'binascii', 'zlib', 'dill', 'dill.info', 'dill._dill', 'pickle', '_compat_pickle', '_pickle', 'gc', 'ctypes', '_ctypes', 'ctypes._endian', '_pyio', 'locale', 'socket', '_socket', 'multiprocessing', 'multiprocessing.context', 'multiprocessing.process', 'multiprocessing.reduction', 'array', '__mp_main__', 'dill.settings', 'dill.source', 'dill.temp', 'dill.detect', 'dill.pointers', 'dill.objtypes', 'wepy.sim_manager', 'numpy', '__future__', 'numpy._globals', 'numpy.__config__', 'numpy.version', 'numpy._distributor_init', 'numpy.core', 'numpy.core.multiarray', 'numpy.core.overrides', 'textwrap', 'numpy.core._multiarray_umath', 'numpy.compat', 'numpy.compat._inspect', 'numpy.compat.py3k', 'pathlib', 'fnmatch', 'ntpath', 'urllib', 'urllib.parse', 'numpy.core.umath', 'numpy.core.numerictypes', 'numbers', 'numpy.core._string_helpers', 'numpy.core._type_aliases', 'numpy.core._dtype', 'numpy.core.numeric', 'numpy.core.shape_base', 'numpy.core._asarray', 'numpy.core.fromnumeric', 'numpy.core._methods', 'numpy.core._exceptions', 'numpy.core._ufunc_config', 'numpy.core.arrayprint', 'numpy.core.defchararray', 'numpy.core.records', 'numpy.core.memmap', 'numpy.core.function_base', 'numpy.core.machar', 'numpy.core.getlimits', 'numpy.core.einsumfunc', 'numpy.core._add_newdocs', 'numpy.core._multiarray_tests', 'numpy.core._dtype_ctypes', 'numpy.core._internal', 'platform', 'numpy._pytesttester', 'numpy.lib', 'numpy.lib.mixins', 'numpy.lib.scimath', 'numpy.lib.type_check', 'numpy.lib.ufunclike', 'numpy.lib.index_tricks', 'numpy.matrixlib', 'numpy.matrixlib.defmatrix', 'ast', '_ast', 'numpy.linalg', 'numpy.linalg.linalg', 'numpy.lib.twodim_base', 'numpy.linalg.lapack_lite', 'numpy.linalg._umath_linalg', 'numpy.lib.function_base', 'numpy.lib.histograms', 'numpy.lib.stride_tricks', 'numpy.lib.nanfunctions', 'numpy.lib.shape_base', 'numpy.lib.polynomial', 'numpy.lib.utils', 'numpy.lib.arraysetops', 'numpy.lib.npyio', 'numpy.lib.format', 'numpy.lib._datasource', 'shutil', 'bz2', '_compression', '_bz2', 'lzma', '_lzma', 'pwd', 'grp', 'numpy.lib._iotools', 'numpy.lib.financial', 'decimal', '_decimal', 'numpy.lib.arrayterator', 'numpy.lib.arraypad', 'numpy.lib._version', 'numpy.fft', 'numpy.fft._pocketfft', 'numpy.fft._pocketfft_internal', 'numpy.fft.helper', 'numpy.polynomial', 'numpy.polynomial.polynomial', 'numpy.polynomial.polyutils', 'numpy.polynomial._polybase', 'numpy.polynomial.chebyshev', 'numpy.polynomial.legendre', 'numpy.polynomial.hermite', 'numpy.polynomial.hermite_e', 'numpy.polynomial.laguerre', 'numpy.random', 'numpy.random._pickle', 'numpy.random.mtrand', 'cython_runtime', 'numpy.random._bit_generator', '_cython_0_29_15', 'numpy.random._common', 'secrets', 'hmac', 'random', 'bisect', '_bisect', '_random', 'numpy.random._bounded_integers', 'numpy.random._mt19937', 'numpy.random._philox', 'numpy.random._pcg64', 'numpy.random._sfc64', 'numpy.random._generator', 'numpy.ctypeslib', 'numpy.ma', 'numpy.ma.core', 'numpy.ma.extras', 'wepy.work_mapper', 'wepy.work_mapper.mapper', 'queue', '_queue', 'wepy.orchestration.configuration', 'wepy.work_mapper.worker', 'wepy.orchestration.snapshot', 'wepy.util', 'wepy.util.kv', 'wepy.reporter', 'wepy.reporter.hdf5', 'wepy.reporter.reporter', 'wepy.hdf5', 'json', 'json.decoder', 'json.scanner', '_json', 'json.encoder', 'h5py', 'h5py._errors', 'h5py._hl', 'h5py._hl.compat', 'six', 'h5py.version', 'h5py.h5', '_cython_0_29_13', 'h5py.defs', 'h5py._objects', 'h5py._conv', 'h5py.h5r', 'h5py.h5t', 'h5py.utils', 'h5py.h5py_warnings', 'h5py.h5z', 'h5py.h5a', 'h5py.h5s', 'h5py.h5p', 'h5py.h5ac', 'h5py._proxy', 'h5py.h5d', 'h5py.h5ds', 'h5py.h5f', 'h5py.h5g', 'h5py.h5i', 'h5py.h5fd', 'h5py.h5pl', 'h5py._hl.filters', 'h5py._hl.base', 'h5py._hl.files', 'h5py._hl.group', 'h5py.h5o', 'h5py.h5l', 'h5py._hl.dataset', 'six.moves', 'h5py._hl.selections', 'h5py._hl.selections2', 'h5py._hl.datatype', 'h5py._hl.vds', 'h5py._hl.attrs', 'uuid', 'networkx', 'networkx.release', 'networkx.exception', 'networkx.utils', 'networkx.utils.misc', 'networkx.utils.decorators', 'decorator', 'networkx.utils.random_sequence', 'networkx.utils.union_find', 'networkx.utils.rcm', 'networkx.utils.heaps', 'networkx.utils.contextmanagers', 'networkx.classes', 'networkx.classes.graph', 'networkx.classes.coreviews', 'networkx.classes.reportviews', 'networkx.convert', 'networkx.classes.digraph', 'networkx.classes.multigraph', 'networkx.classes.multidigraph', 'networkx.classes.ordered', 'networkx.classes.function', 'networkx.classes.filters', 'networkx.classes.graphviews', 'networkx.convert_matrix', 'networkx.relabel', 'networkx.generators', 'networkx.generators.atlas', 'gzip', 'networkx.generators.classic', 'networkx.generators.community', 'networkx.generators.degree_seq', 'networkx.generators.directed', 'networkx.generators.duplication', 'networkx.generators.ego', 'networkx.generators.expanders', 'networkx.generators.geometric', 'scipy', 'scipy._lib', 'scipy._lib._testutils', 'scipy._lib.deprecation', 'scipy._distributor_init', 'scipy.__config__', 'scipy.version', 'scipy._lib._version', 'scipy._lib.six', 'scipy._lib._ccallback', 'scipy._lib._ccallback_c', 'scipy.fft', 'scipy.fft._basic', 'scipy._lib.uarray', 'scipy._lib._uarray', 'scipy._lib._uarray._backend', 'typing', 'typing.io', 'typing.re', 'scipy._lib._uarray._uarray', 'scipy.fft._realtransforms', 'scipy.fft._helper', 'scipy.fft._pocketfft', 'scipy.fft._pocketfft.basic', 'scipy.fft._pocketfft.pypocketfft', 'scipy.fft._pocketfft.helper', 'scipy.fft._pocketfft.realtransforms', 'scipy.fft._backend', 'numpy.dual', 'scipy.spatial', 'scipy.spatial.kdtree', 'scipy.sparse', 'scipy.sparse.base', 'scipy._lib._numpy_compat', 'numpy.testing', 'unittest', 'unittest.result', 'unittest.util', 'unittest.case', 'difflib', 'pprint', 'unittest.suite', 'unittest.loader', 'unittest.main', 'argparse', 'gettext', 'unittest.runner', 'unittest.signals', 'numpy.testing._private', 'numpy.testing._private.utils', 'tempfile', 'numpy.testing._private.decorators', 'numpy.testing._private.nosetester', 'scipy.sparse.sputils', 'scipy.sparse.csr', 'scipy.sparse._sparsetools', 'scipy.sparse.compressed', 'scipy._lib._util', 'scipy.sparse.data', 'scipy.sparse.dia', 'scipy.sparse._index', 'scipy.sparse.csc', 'scipy.sparse.lil', 'scipy.sparse._csparsetools', 'scipy.sparse.dok', 'scipy.sparse.coo', 'scipy.sparse.bsr', 'scipy.sparse.construct', 'scipy.sparse.extract', 'scipy.sparse._matrix_io', 'scipy.sparse.csgraph', 'scipy.sparse.csgraph._laplacian', 'scipy.sparse.csgraph._shortest_path', '_cython_0_29_16', 'scipy.sparse.csgraph._validation', 'scipy.sparse.csgraph._tools', 'scipy.sparse.csgraph._traversal', 'scipy.sparse.csgraph._min_spanning_tree', 'scipy.sparse.csgraph._flow', 'scipy.sparse.csgraph._matching', 'scipy.sparse.csgraph._reordering', 'scipy.spatial.ckdtree', 'scipy.spatial.qhull', 'scipy._lib.messagestream', 'scipy.spatial._spherical_voronoi', 'scipy.spatial._voronoi', 'scipy.spatial._plotutils', 'scipy._lib.decorator', 'scipy.spatial._procrustes', 'scipy.linalg', 'scipy.linalg.linalg_version', 'scipy.linalg.misc', 'scipy.linalg.blas', 'scipy.linalg._fblas', 'scipy.linalg.lapack', 'scipy.linalg._flapack', 'scipy.linalg.basic', 'scipy.linalg.flinalg', 'scipy.linalg._flinalg', 'scipy.linalg.decomp', 'scipy.linalg.decomp_svd', 'scipy.linalg._solve_toeplitz', 'scipy.linalg.decomp_lu', 'scipy.linalg._decomp_ldl', 'scipy.linalg.decomp_cholesky', 'scipy.linalg.decomp_qr', 'scipy.linalg._decomp_qz', 'scipy.linalg.decomp_schur', 'scipy.linalg._decomp_polar', 'scipy.linalg.matfuncs', 'scipy.linalg.special_matrices', 'scipy.linalg._expm_frechet', 'scipy.linalg._matfuncs_sqrtm', 'scipy.linalg._solvers', 'scipy.linalg._procrustes', 'scipy.linalg._decomp_update', 'scipy.linalg.cython_blas', 'scipy.linalg.cython_lapack', 'scipy.linalg._sketches', 'scipy.spatial.distance', 'scipy.spatial._distance_wrap', 'scipy.spatial._hausdorff', 'scipy.special', 'scipy.special.sf_error', 'scipy.special._ufuncs', 'scipy.special._ufuncs_cxx', 'scipy.special._basic', 'scipy.special.specfun', 'scipy.special.orthogonal', 'scipy.special._comb', 'scipy.special._logsumexp', 'scipy.special.spfun_stats', 'scipy.special._ellip_harm', 'scipy.special._ellip_harm_2', 'scipy.special.lambertw', 'scipy.special._spherical_bessel', 'scipy.spatial.transform', 'scipy.spatial.transform.rotation', 'scipy.spatial.transform._rotation_groups', 'scipy.constants', 'scipy.constants.codata', 'scipy.constants.constants', 'scipy.spatial.transform._rotation_spline', 'networkx.generators.intersection', 'networkx.algorithms', 'networkx.algorithms.assortativity', 'networkx.algorithms.assortativity.connectivity', 'networkx.algorithms.assortativity.correlation', 'networkx.algorithms.assortativity.mixing', 'networkx.algorithms.assortativity.pairs', 'networkx.algorithms.assortativity.neighbor_degree', 'networkx.algorithms.boundary', 'networkx.algorithms.bridges', 'networkx.algorithms.chains', 'networkx.algorithms.centrality', 'networkx.algorithms.centrality.betweenness', 'networkx.algorithms.centrality.betweenness_subset', 'networkx.algorithms.centrality.closeness', 'networkx.algorithms.centrality.subgraph_alg', 'networkx.algorithms.centrality.current_flow_closeness', 'networkx.algorithms.centrality.flow_matrix', 'networkx.algorithms.centrality.current_flow_betweenness', 'networkx.algorithms.centrality.current_flow_betweenness_subset', 'networkx.algorithms.centrality.degree_alg', 'networkx.algorithms.centrality.dispersion', 'networkx.algorithms.centrality.eigenvector', 'networkx.algorithms.centrality.harmonic', 'networkx.algorithms.centrality.katz', 'networkx.algorithms.centrality.load', 'networkx.algorithms.centrality.reaching', 'networkx.algorithms.centrality.percolation', 'networkx.algorithms.centrality.second_order', 'networkx.algorithms.centrality.voterank_alg', 'networkx.algorithms.chordal', 'networkx.algorithms.cluster', 'networkx.algorithms.clique', 'networkx.algorithms.communicability_alg', 'networkx.algorithms.components', 'networkx.algorithms.components.connected', 'networkx.algorithms.components.strongly_connected', 'networkx.algorithms.components.weakly_connected', 'networkx.algorithms.components.attracting', 'networkx.algorithms.components.biconnected', 'networkx.algorithms.components.semiconnected', 'networkx.algorithms.coloring', 'networkx.algorithms.coloring.greedy_coloring', 'networkx.algorithms.coloring.greedy_coloring_with_interchange', 'networkx.algorithms.coloring.equitable_coloring', 'networkx.algorithms.core', 'networkx.algorithms.covering', 'networkx.algorithms.cycles', 'networkx.algorithms.cuts', 'networkx.algorithms.dag', 'fractions', 'networkx.generators.trees', 'networkx.algorithms.distance_measures', 'networkx.algorithms.distance_regular', 'networkx.algorithms.dominance', 'networkx.algorithms.dominating', 'networkx.algorithms.efficiency', 'networkx.algorithms.euler', 'networkx.algorithms.graphical', 'networkx.algorithms.hierarchy', 'networkx.algorithms.hybrid', 'networkx.algorithms.link_analysis', 'networkx.algorithms.link_analysis.pagerank_alg', 'networkx.algorithms.link_analysis.hits_alg', 'networkx.algorithms.link_prediction', 'networkx.algorithms.lowest_common_ancestors', 'networkx.algorithms.isolate', 'networkx.algorithms.matching', 'networkx.algorithms.minors', 'networkx.algorithms.mis', 'networkx.algorithms.operators', 'networkx.algorithms.operators.all', 'networkx.algorithms.operators.binary', 'networkx.algorithms.operators.product', 'networkx.algorithms.operators.unary', 'networkx.algorithms.planarity', 'networkx.algorithms.planar_drawing', 'networkx.algorithms.reciprocity', 'networkx.algorithms.richclub', 'networkx.algorithms.shortest_paths', 'networkx.algorithms.shortest_paths.generic', 'networkx.algorithms.shortest_paths.unweighted', 'networkx.algorithms.shortest_paths.weighted', 'networkx.algorithms.shortest_paths.astar', 'networkx.algorithms.shortest_paths.dense', 'networkx.algorithms.similarity', 'networkx.algorithms.simple_paths', 'networkx.algorithms.smallworld', 'networkx.algorithms.smetric', 'networkx.algorithms.structuralholes', 'networkx.algorithms.sparsifiers', 'networkx.algorithms.swap', 'networkx.algorithms.traversal', 'networkx.algorithms.traversal.beamsearch', 'networkx.algorithms.traversal.breadth_first_search', 'networkx.algorithms.traversal.depth_first_search', 'networkx.algorithms.traversal.edgedfs', 'networkx.algorithms.traversal.edgebfs', 'networkx.algorithms.triads', 'networkx.algorithms.vitality', 'networkx.algorithms.voronoi', 'networkx.algorithms.wiener', 'networkx.algorithms.bipartite', 'networkx.algorithms.bipartite.basic', 'networkx.algorithms.bipartite.centrality', 'networkx.algorithms.bipartite.cluster', 'networkx.algorithms.bipartite.covering', 'networkx.algorithms.bipartite.matching', 'networkx.algorithms.bipartite.edgelist', 'networkx.algorithms.bipartite.matrix', 'networkx.algorithms.bipartite.projection', 'networkx.algorithms.bipartite.redundancy', 'networkx.algorithms.bipartite.spectral', 'networkx.algorithms.bipartite.generators', 'networkx.algorithms.node_classification', 'networkx.algorithms.node_classification.hmn', 'networkx.algorithms.node_classification.utils', 'networkx.algorithms.node_classification.lgc', 'networkx.algorithms.connectivity', 'networkx.algorithms.connectivity.connectivity', 'networkx.algorithms.flow', 'networkx.algorithms.flow.maxflow', 'networkx.algorithms.flow.boykovkolmogorov', 'networkx.algorithms.flow.utils', 'networkx.algorithms.flow.dinitz_alg', 'networkx.algorithms.flow.edmondskarp', 'networkx.algorithms.flow.preflowpush', 'networkx.algorithms.flow.shortestaugmentingpath', 'networkx.algorithms.flow.mincost', 'networkx.algorithms.flow.gomory_hu', 'networkx.algorithms.flow.capacityscaling', 'networkx.algorithms.flow.networksimplex', 'networkx.algorithms.connectivity.utils', 'networkx.algorithms.connectivity.cuts', 'networkx.algorithms.connectivity.edge_augmentation', 'networkx.algorithms.connectivity.edge_kcomponents', 'networkx.algorithms.connectivity.disjoint_paths', 'networkx.algorithms.connectivity.kcomponents', 'networkx.algorithms.connectivity.kcutsets', 'networkx.algorithms.connectivity.stoerwagner', 'networkx.algorithms.community', 'networkx.algorithms.community.asyn_fluid', 'networkx.algorithms.community.centrality', 'networkx.algorithms.community.community_generators', 'networkx.algorithms.community.kclique', 'networkx.algorithms.community.kernighan_lin', 'networkx.algorithms.community.community_utils', 'networkx.algorithms.community.label_propagation', 'networkx.algorithms.community.modularity_max', 'networkx.algorithms.community.quality', 'networkx.utils.mapped_queue', 'networkx.algorithms.isomorphism', 'networkx.algorithms.isomorphism.isomorph', 'networkx.algorithms.isomorphism.vf2userfunc', 'networkx.algorithms.isomorphism.isomorphvf2', 'networkx.algorithms.isomorphism.matchhelpers', 'networkx.algorithms.isomorphism.temporalisomorphvf2', 'networkx.algorithms.tournament', 'networkx.algorithms.tree', 'networkx.algorithms.tree.branchings', 'networkx.algorithms.tree.recognition', 'networkx.algorithms.tree.coding', 'networkx.algorithms.tree.mst', 'networkx.algorithms.tree.operations', 'networkx.generators.joint_degree_seq', 'networkx.generators.lattice', 'networkx.generators.line', 'networkx.generators.mycielski', 'networkx.generators.nonisomorphic_trees', 'networkx.generators.random_clustered', 'networkx.generators.random_graphs', 'networkx.generators.small', 'networkx.generators.social', 'networkx.generators.spectral_graph_forge', 'networkx.generators.stochastic', 'networkx.generators.triads', 'networkx.readwrite', 'networkx.readwrite.adjlist', 'networkx.readwrite.multiline_adjlist', 'networkx.readwrite.edgelist', 'networkx.readwrite.gpickle', 'networkx.readwrite.pajek', 'networkx.readwrite.leda', 'networkx.readwrite.sparse6', 'networkx.readwrite.graph6', 'networkx.readwrite.nx_yaml', 'networkx.readwrite.gml', 'html', 'html.entities', 'networkx.readwrite.graphml', 'xml', 'xml.etree', 'xml.etree.cElementTree', 'xml.etree.ElementTree', 'xml.etree.ElementPath', 'pyexpat.errors', 'pyexpat.model', 'pyexpat', '_elementtree', 'networkx.readwrite.gexf', 'networkx.readwrite.nx_shp', 'networkx.readwrite.json_graph', 'networkx.readwrite.json_graph.node_link', 'networkx.readwrite.json_graph.adjacency', 'networkx.readwrite.json_graph.tree', 'networkx.readwrite.json_graph.jit', 'networkx.readwrite.json_graph.cytoscape', 'networkx.linalg', 'networkx.linalg.attrmatrix', 'networkx.linalg.spectrum', 'networkx.linalg.graphmatrix', 'networkx.linalg.laplacianmatrix', 'networkx.linalg.algebraicconnectivity', 'scipy.sparse.linalg', 'scipy.sparse.linalg.isolve', 'scipy.sparse.linalg.isolve.iterative', 'scipy.sparse.linalg.isolve._iterative', 'scipy.sparse.linalg.interface', 'scipy.sparse.linalg.isolve.utils', 'scipy._lib._threadsafety', 'scipy.sparse.linalg.isolve.minres', 'scipy.sparse.linalg.isolve.lgmres', 'scipy.sparse.linalg.isolve._gcrotmk', 'scipy.sparse.linalg.isolve.lsqr', 'scipy.sparse.linalg.isolve.lsmr', 'scipy.sparse.linalg.dsolve', 'scipy.sparse.linalg.dsolve.linsolve', 'scipy.sparse.linalg.dsolve._superlu', 'scipy.sparse.linalg.dsolve._add_newdocs', 'scipy.sparse.linalg.eigen', 'scipy.sparse.linalg.eigen.arpack', 'scipy.sparse.linalg.eigen.arpack.arpack', 'scipy.sparse.linalg.eigen.arpack._arpack', 'scipy.sparse.linalg.eigen.lobpcg', 'scipy.sparse.linalg.eigen.lobpcg.lobpcg', 'scipy.sparse.linalg.matfuncs', 'scipy.sparse.linalg._expm_multiply', 'scipy.sparse.linalg._onenormest', 'scipy.sparse.linalg._norm', 'networkx.linalg.modularitymatrix', 'networkx.tests', 'networkx.tests.test', 'networkx.drawing', 'networkx.drawing.layout', 'networkx.drawing.nx_pylab', 'networkx.drawing.nx_agraph', 'networkx.drawing.nx_pydot', 'wepy.analysis', 'wepy.analysis.parents', 'wepy.util.mdtraj', 'mdtraj', 'mdtraj.formats', 'mdtraj.formats.arc', 'mdtraj.utils', 'mdtraj.utils.delay_import', 'mdtraj.utils.validation', 'mdtraj.utils.six', 'mdtraj.utils.six.moves', 'mdtraj.utils.six.moves.urllib_parse', 'mdtraj.utils.six.moves.urllib.parse', 'mdtraj.utils.six.moves.urllib_error', 'mdtraj.utils.six.moves.urllib.error', 'mdtraj.utils.six.moves.urllib_request', 'mdtraj.utils.six.moves.urllib.request', 'mdtraj.utils.six.moves.urllib_response', 'mdtraj.utils.six.moves.urllib.response', 'mdtraj.utils.six.moves.urllib_robotparser', 'mdtraj.utils.six.moves.urllib.robotparser', 'mdtraj.utils.six.moves.urllib', 'mdtraj.utils.unit', 'mdtraj.utils.unit.quantity', 'mdtraj.utils.unit.standard_dimensions', 'mdtraj.utils.unit.basedimension', 'mdtraj.utils.unit.unit', 'mdtraj.utils.unit.mymatrix', 'mdtraj.utils.unit.baseunit', 'mdtraj.utils.unit.unit_definitions', 'mdtraj.utils.unit.unit_operators', 'mdtraj.utils.unit.prefix', 'simtk', 'simtk.unit', 'simtk.unit.unit', 'simtk.unit.mymatrix', 'simtk.unit.basedimension', 'simtk.unit.baseunit', 'simtk.unit.standard_dimensions', 'simtk.unit.quantity', 'simtk.unit.unit_math', 'simtk.unit.unit_definitions', 'simtk.unit.unit_operators', 'simtk.unit.prefix', 'simtk.unit.constants', 'mdtraj.utils.rotation', 'mdtraj.utils.unitcell', 'mdtraj.utils.contextmanagers', 'mdtraj.utils.zipped', 'mdtraj.formats.registry', 'mdtraj.formats.dcd', 'mdtraj.formats.binpos', 'mdtraj.formats.xtc', '_cython_0_29_7', 'xdrlib', 'mdtraj.formats.trr', 'mdtraj.formats.hdf5', 'mdtraj.version', 'mdtraj.core', 'mdtraj.core.element', 'mdtraj.core.topology', 'mdtraj.core.residue_names', 'mdtraj.core.selection', 'mdtraj.utils.external', 'mdtraj.utils.external.pyparsing', 'mdtraj.utils.external.astor', 'mdtraj.utils.external.astor.codegen', 'mdtraj.utils.external.astor.misc', 'mdtraj.utils.external.astor.treewalk', 'mdtraj.utils.singleton', 'mdtraj.formats.netcdf', 'distutils', 'distutils.version', 'mdtraj.formats.pdb', 'mdtraj.formats.pdb.pdbfile', 'mdtraj.formats.pdb.pdbstructure', 'urllib.request', 'email', 'http', 'http.client', 'email.parser', 'email.feedparser', 'email.errors', 'email._policybase', 'email.header', 'email.quoprimime', 'email.base64mime', 'email.charset', 'email.encoders', 'quopri', 'email.utils', 'email._parseaddr', 'calendar', 'email.message', 'uu', 'email._encoded_words', 'email.iterators', 'ssl', '_ssl', 'urllib.error', 'urllib.response', 'mdtraj.formats.lh5', 'mdtraj.formats.mdcrd', 'mdtraj.formats.amberrst', 'mdtraj.formats.lammpstrj', 'mdtraj.formats.dtr', 'mdtraj.formats.gro', 'mdtraj.formats.xyzfile', 'mdtraj.formats.tng', 'mdtraj.formats.openmmxml', 'mdtraj.formats.prmtop', 'mdtraj.formats.psf', 'mdtraj.formats.mol2', 'mdtraj.formats.hoomdxml', 'mdtraj._rmsd', 'mdtraj._lprmsd', 'mdtraj.geometry', 'mdtraj.geometry.rg', 'mdtraj.geometry.angle', 'mdtraj.geometry._geometry', 'mdtraj.geometry.distance', 'mdtraj.geometry.dihedral', 'mdtraj.geometry.hbond', 'mdtraj.geometry.sasa', 'mdtraj.geometry.contact', 'mdtraj.geometry.drid', 'mdtraj.geometry.dssp', 'mdtraj.geometry.neighbors', 'mdtraj.geometry.neighborlist', 'mdtraj.geometry.thermodynamic_properties', 'mdtraj.geometry.rdf', 'mdtraj.geometry.order', 'pkg_resources', 'zipfile', 'pkgutil', 'plistlib', 'xml.parsers', 'xml.parsers.expat', 'xml.parsers.expat.model', 'xml.parsers.expat.errors', 'pkg_resources.extern', 'pkg_resources._vendor', 'pkg_resources._vendor.six', 'pkg_resources.extern.six', 'pkg_resources._vendor.six.moves', 'pkg_resources.extern.six.moves', 'pkg_resources._vendor.six.moves.urllib', 'pkg_resources.py31compat', 'pkg_resources._vendor.appdirs', 'pkg_resources.extern.appdirs', 'pkg_resources._vendor.packaging', 'pkg_resources._vendor.packaging.__about__', 'pkg_resources.extern.packaging', 'pkg_resources.extern.packaging.version', 'pkg_resources.extern.packaging._structures', 'pkg_resources.extern.packaging.specifiers', 'pkg_resources.extern.packaging._compat', 'pkg_resources.extern.packaging.requirements', 'pkg_resources._vendor.pyparsing', 'pkg_resources.extern.pyparsing', 'pkg_resources.extern.six.moves.urllib', 'pkg_resources.extern.packaging.markers', 'pkg_resources.py2_warn', 'sysconfig', 'mdtraj.core.trajectory', 'mdtraj.nmr', 'mdtraj.nmr.shift_wrappers', 'distutils.spawn', 'distutils.errors', 'distutils.debug', 'distutils.log', 'mdtraj.nmr.scalar_couplings', 'mdtraj.reporters', 'mdtraj.reporters.hdf5reporter', 'mdtraj.reporters.basereporter', 'simtk.openmm', 'simtk.openmm.version', 'simtk.openmm.openmm', 'imp', 'swig_runtime_data4', '_openmm', 'simtk.openmm.vec3', 'simtk.openmm.mtsintegrator', 'simtk.openmm.amd', 'mdtraj.reporters.netcdfreporter', 'mdtraj.reporters.dcdreporter', 'mdtraj.reporters.xtcreporter', 'wepy.util.util', 'wepy.util.json_top', 'pandas', 'pytz', 'pytz.exceptions', 'pytz.lazy', 'pytz.tzinfo', 'pytz.tzfile', 'dateutil', 'dateutil._version', 'pandas.compat', 'pandas.compat.numpy', 'pandas._libs', 'pandas._libs.tslibs', 'pandas._libs.tslibs.conversion', 'pandas._libs.tslibs.c_timestamp', 'pandas._libs.tslibs.nattype', 'pandas._libs.missing', 'pandas._libs.tslibs.np_datetime', 'pandas._libs.ops_dispatch', 'pandas._libs.tslibs.timezones', 'dateutil.tz', 'dateutil.tz.tz', 'dateutil.tz._common', 'dateutil.tz._factories', 'pandas._libs.tslibs.tzconversion', 'pandas._libs.tslibs.timedeltas', 'pandas._libs.tslibs.offsets', 'pandas._libs.tslibs.ccalendar', 'pandas._config', 'pandas._config.config', 'pandas._config.dates', 'pandas._config.display', 'pandas._config.localization', 'pandas._libs.tslibs.strptime', 'dateutil.relativedelta', 'dateutil._common', 'pandas._libs.tslibs.fields', 'pandas._libs.tslibs.parsing', 'pandas._libs.tslibs.frequencies', 'dateutil.parser', 'dateutil.parser._parser', 'dateutil.parser.isoparser', 'pandas._libs.tslibs.period', 'pandas._libs.tslibs.timestamps', 'pandas._libs.tslibs.resolution', 'pandas._libs.hashtable', 'pandas._libs.lib', 'pandas._libs.tslib', 'pandas.core', 'pandas.core.config_init', 'pandas.core.api', 'pandas.core.dtypes', 'pandas.core.dtypes.dtypes', 'pandas._libs.interval', 'pandas._libs.algos', 'pandas._typing', 'pandas.core.dtypes.base', 'pandas.errors', 'pandas.core.dtypes.generic', 'pandas.core.dtypes.inference', 'pandas.core.dtypes.missing', 'pandas.core.dtypes.common', 'pandas.core.algorithms', 'pandas.util', 'pandas.util._decorators', 'pandas._libs.properties', 'pandas.core.util', 'pandas.core.util.hashing', 'pandas._libs.hashing', 'pandas.core.dtypes.cast', 'pandas.util._validators', 'pandas.core.common', 'pandas.core.construction', 'pandas.core.indexers', 'pandas.core.arrays', 'pandas.core.arrays.base', 'pandas.compat.numpy.function', 'pandas.core.ops', 'pandas.core.ops.array_ops', 'pandas._libs.ops', 'pandas.core.ops.missing', 'pandas.core.ops.roperator', 'pandas.core.ops.dispatch', 'pandas.core.ops.invalid', 'pandas.core.ops.common', 'pandas.core.ops.docstrings', 'pandas.core.ops.mask_ops', 'pandas.core.ops.methods', 'pandas.core.missing', 'pandas.compat._optional', 'pandas.core.sorting', 'pandas.core.arrays.boolean', 'pandas.core.nanops', 'pandas.core.arrays.masked', 'pandas.core.arrays.categorical', 'pandas.core.accessor', 'pandas.core.base', 'pandas.io', 'pandas.io.formats', 'pandas.io.formats.console', 'pandas.core.arrays.datetimes', 'pandas.core.arrays.datetimelike', 'pandas.tseries', 'pandas.tseries.frequencies', 'pandas.tseries.offsets', 'dateutil.easter', 'pandas.core.arrays._ranges', 'pandas.core.arrays.integer', 'pandas.core.tools', 'pandas.core.tools.numeric', 'pandas.core.arrays.interval', 'pandas.core.indexes', 'pandas.core.indexes.base', 'pandas._libs.index', 'pandas._libs.join', 'pandas.core.dtypes.concat', 'pandas.core.indexes.frozen', 'pandas.io.formats.printing', 'pandas.core.strings', 'pandas.core.arrays.numpy_', 'pandas.core.arrays.period', 'pandas.core.arrays.sparse', 'pandas.core.arrays.sparse.accessor', 'pandas.core.arrays.sparse.array', 'pandas._libs.sparse', 'pandas.core.arrays.sparse.dtype', 'pandas.core.arrays.string_', 'pandas.core.arrays.timedeltas', 'pandas.core.groupby', 'pandas.core.groupby.generic', 'pandas.core.frame', 'pandas.core.generic', 'pandas.core.indexes.api', 'pandas.core.indexes.category', 'pandas.core.indexes.extension', 'pandas.core.indexes.datetimes', 'pandas.core.indexes.datetimelike', 'pandas.core.indexes.numeric', 'pandas.core.tools.timedeltas', 'pandas.core.tools.datetimes', 'pandas.arrays', 'pandas.core.indexes.interval', 'pandas.util._exceptions', 'pandas.core.indexes.multi', 'pandas.core.indexes.timedeltas', 'pandas.core.indexes.period', 'pandas.core.indexes.range', 'pandas.core.indexing', 'pandas._libs.indexing', 'pandas.core.internals', 'pandas.core.internals.blocks', 'pandas._libs.writers', 'pandas._libs.internals', 'pandas.core.internals.managers', 'pandas.core.internals.concat', 'pandas.io.formats.format', 'unicodedata', 'pandas.io.common', 'mmap', 'pandas.core.internals.construction', 'pandas.core.series', 'pandas._libs.reshape', 'pandas.core.indexes.accessors', 'pandas.plotting', 'pandas.plotting._core', 'pandas.plotting._misc', 'pandas.core.window', 'pandas.core.window.ewm', 'pandas._libs.window', 'pandas._libs.window.aggregations', 'pandas.core.window.common', 'pandas.core.groupby.base', 'pandas.core.window.rolling', 'pandas.core.window.indexers', 'pandas._libs.window.indexers', 'pandas.core.window.numba_', 'pandas.core.window.expanding', 'pandas.core.groupby.groupby', 'pandas._libs.groupby', 'pandas.core.groupby.ops', 'pandas._libs.reduction', 'pandas.core.groupby.grouper', 'pandas.core.groupby.categorical', 'pandas.tseries.api', 'pandas.core.computation', 'pandas.core.computation.api', 'pandas.core.computation.eval', 'pandas.core.computation.engines', 'pandas.core.computation.align', 'pandas.core.computation.common', 'pandas.core.computation.ops', 'pandas.core.computation.scope', 'pandas.compat.chainmap', 'pandas.core.computation.expr', 'pandas.core.computation.parsing', 'pandas.core.reshape', 'pandas.core.reshape.api', 'pandas.core.reshape.concat', 'pandas.core.reshape.melt', 'pandas.core.reshape.merge', 'pandas.core.reshape.pivot', 'pandas.core.reshape.util', 'pandas.core.reshape.reshape', 'pandas.core.reshape.tile', 'pandas.api', 'pandas.api.extensions', 'pandas.api.indexers', 'pandas.api.types', 'pandas.core.dtypes.api', 'pandas.util._print_versions', 'pandas.io.api', 'pandas.io.clipboards', 'pandas.io.excel', 'pandas.io.excel._base', 'pandas._libs.parsers', 'csv', '_csv', 'pandas.io.excel._util', 'pandas.io.parsers', 'pandas.io.date_converters', 'pandas.io.excel._odfreader', 'pandas.io.excel._openpyxl', 'pandas.io.excel._xlrd', 'pandas.io.excel._pyxlsb', 'pandas.io.excel._xlsxwriter', 'pandas._libs.json', 'pandas.io.excel._xlwt', 'pandas.io.feather_format', 'pandas.io.gbq', 'pandas.io.html', 'pandas.io.json', 'pandas.io.json._json', 'pandas.io.json._normalize', 'pandas.io.json._table_schema', 'pandas.io.orc', 'pandas.io.parquet', 'pandas.io.pickle', 'pandas.compat.pickle_compat', 'pandas.io.pytables', 'pandas.core.computation.pytables', 'pandas.io.sas', 'pandas.io.sas.sasreader', 'pandas.io.spss', 'pandas.io.sql', 'pandas.io.stata', 'pandas.util._tester', 'pandas.testing', 'pandas._testing', 'pandas._libs.testing', 'pandas._version', 'wepy.walker', 'wepy.reporter.dashboard', 'tabulate', 'jinja2', 'markupsafe', 'markupsafe._compat', 'markupsafe._speedups', 'jinja2.bccache', 'jinja2._compat', 'jinja2.utils', 'jinja2.environment', 'jinja2.nodes', 'jinja2.compiler', 'jinja2.exceptions', 'jinja2.idtracking', 'jinja2.visitor', 'jinja2.optimizer', 'jinja2.defaults', 'jinja2.filters', 'jinja2.runtime', 'jinja2.tests', 'jinja2.lexer', 'jinja2._identifier', 'jinja2.parser', 'jinja2.loaders', 'seh_prep', 'seh_prep.modules', 'geomm', 'geomm.grouping', 'geomm.centering', 'geomm.centroid', 'geomm.superimpose', 'geomm.theobald_qcp', 'geomm.pyqcprot', 'wepy.runners', 'wepy.runners.openmm', 'simtk.openmm.app', 'simtk.openmm.app.topology', 'simtk.openmm.app.internal', 'simtk.openmm.app.internal.singleton', 'simtk.openmm.app.pdbfile', 'simtk.openmm.app.internal.pdbstructure', 'simtk.openmm.app.element', 'simtk.openmm.app.internal.unitcell', 'simtk.openmm.app.pdbxfile', 'simtk.openmm.app.internal.pdbx', 'simtk.openmm.app.internal.pdbx.reader', 'simtk.openmm.app.internal.pdbx.reader.PdbxReader', 'simtk.openmm.app.internal.pdbx.reader.PdbxContainers', 'simtk.openmm.app.forcefield', 'simtk.openmm.app.internal.compiled', '_cython_0_29_14', 'simtk.openmm.app.simulation', 'simtk.openmm.app.pdbreporter', 'simtk.openmm.app.amberprmtopfile', 'simtk.openmm.app.internal.amber_file_parser', 'simtk.openmm.app.internal.customgbforces', 'simtk.openmm.app.amberinpcrdfile', 'simtk.openmm.app.dcdfile', 'simtk.openmm.app.gromacsgrofile', 'simtk.openmm.app.gromacstopfile', 'simtk.openmm.app.dcdreporter', 'simtk.openmm.app.modeller', 'simtk.openmm.app.statedatareporter', 'simtk.openmm.app.desmonddmsfile', 'simtk.openmm.app.checkpointreporter', 'simtk.openmm.app.charmmcrdfiles', 'simtk.openmm.app.internal.charmm', 'simtk.openmm.app.internal.charmm.exceptions', 'simtk.openmm.app.charmmparameterset', 'simtk.openmm.app.internal.charmm._charmmfile', 'simtk.openmm.app.internal.charmm.topologyobjects', 'simtk.openmm.app.charmmpsffile', 'simtk.openmm.app.simulatedtempering', 'simtk.openmm.app.metadynamics', 'wepy.runners.runner', 'wepy.work_mapper.task_mapper', 'wepy.reporter.walker', 'seh_prep.parameters', 'wepy.reporter.restree', 'matplotlib', 'matplotlib.cbook', 'glob', 'matplotlib.cbook.deprecation', 'matplotlib.rcsetup', 'matplotlib.fontconfig_pattern', 'pyparsing', 'matplotlib.colors', 'matplotlib.docstring', 'matplotlib._color_data', 'cycler', 'matplotlib._version', 'matplotlib.ft2font', 'kiwisolver']
INFO:root:Orchestrator loaded
INFO:root:Running snapshot by time
DEBUG:root:checkpoint directory defaulted to the work_dir
DEBUG:root:In the orchestrate run, calling to run_snapshot by time
DEBUG:root:Initialization of checkpoint database is requested
DEBUG:root:Initializing checkpoint orch database
DEBUG:root:Creating checkpoint database
DEBUG:root:Setting the starting snapshot
DEBUG:root:closing connection to checkpoint database
DEBUG:root:finished initializing checkpoint database
DEBUG:root:Running sim_manager.init
INFO:root:Starting simulation
DEBUG:root:OpenMMGPUWorker-0 process created
DEBUG:root:OpenMMGPUWorker-1 process created
DEBUG:root:OpenMMGPUWorker-2 process created
DEBUG:root:OpenMMGPUWorker-3 process created
DEBUG:root:OpenMMGPUWorker-4 process created
DEBUG:root:OpenMMGPUWorker-5 process created
DEBUG:root:OpenMMGPUWorker-6 process created
DEBUG:root:OpenMMGPUWorker-7 process created
INFO:root:Worker process started as name: OpenMMGPUWorker-0; PID: 13161
DEBUG:root:OpenMMGPUWorker-0: starting to run
INFO:root:OpenMMGPUWorker-0: Worker process started as name: OpenMMGPUWorker-0; PID: 13161
INFO:root:Worker process started as name: OpenMMGPUWorker-1; PID: 13166
DEBUG:root:OpenMMGPUWorker-1: starting to run
INFO:root:OpenMMGPUWorker-1: Worker process started as name: OpenMMGPUWorker-1; PID: 13166
INFO:root:Worker process started as name: OpenMMGPUWorker-2; PID: 13171
DEBUG:root:OpenMMGPUWorker-2: starting to run
INFO:root:OpenMMGPUWorker-2: Worker process started as name: OpenMMGPUWorker-2; PID: 13171
INFO:root:Worker process started as name: OpenMMGPUWorker-3; PID: 13176
DEBUG:root:OpenMMGPUWorker-3: starting to run
INFO:root:OpenMMGPUWorker-3: Worker process started as name: OpenMMGPUWorker-3; PID: 13176
INFO:root:Worker process started as name: OpenMMGPUWorker-4; PID: 13181
DEBUG:root:OpenMMGPUWorker-4: starting to run
INFO:root:OpenMMGPUWorker-4: Worker process started as name: OpenMMGPUWorker-4; PID: 13181
INFO:root:Worker process started as name: OpenMMGPUWorker-5; PID: 13186
DEBUG:root:OpenMMGPUWorker-5: starting to run
INFO:root:OpenMMGPUWorker-5: Worker process started as name: OpenMMGPUWorker-5; PID: 13186
INFO:root:Worker process started as name: OpenMMGPUWorker-6; PID: 13191
INFO:root:Worker process started as name: OpenMMGPUWorker-7; PID: 13194
INFO:root:Initializing HDF5 file at /mnt/gs18/scratch/users/lotzsamu/tree/lab/resources/project-resources/seh.pathway_hopping/hpcc/simulations/10_simulations/jobs/59874312/lig-10_contig-1-0_production/lig-10_contig-1-0_production.wepy.h5
DEBUG:root:OpenMMGPUWorker-6: starting to run
INFO:root:OpenMMGPUWorker-6: Worker process started as name: OpenMMGPUWorker-6; PID: 13191
DEBUG:root:OpenMMGPUWorker-7: starting to run
INFO:root:OpenMMGPUWorker-7: Worker process started as name: OpenMMGPUWorker-7; PID: 13194
/mnt/gs18/scratch/users/lotzsamu/tree/lab/projects/seh.pathway_hopping/_conda_envs/sims/lib/python3.7/site-packages/wepy/runners/openmm.py:762: UserWarning: Unknown exception handled from `self.sim_state.getEnergyParameterDerivatives()`, this is probably because this attribute is not in the State.
  warn("Unknown exception handled from `self.sim_state.getEnergyParameterDerivatives()`, "
INFO:root:Writing initial state to /mnt/gs18/scratch/users/lotzsamu/tree/lab/resources/project-resources/seh.pathway_hopping/hpcc/simulations/10_simulations/jobs/59874312/lig-10_contig-1-0_production/lig-10_contig-1-0_production.init_top.pdb
INFO:root:Writing initial image to /mnt/gs18/scratch/users/lotzsamu/tree/lab/resources/project-resources/seh.pathway_hopping/hpcc/simulations/10_simulations/jobs/59874312/lig-10_contig-1-0_production/lig-10_contig-1-0_production.image_top.pdb
DEBUG:root:Starting run loop
DEBUG:root:Running cycle 0
INFO:root:Begin cycle 0
INFO:root:Entering run segment
INFO:root:Starting segment
INFO:root:Mapping from process MainProcess; PID 12249
DEBUG:root:OpenMMGPUWorker-3: Got task 0
INFO:root:OpenMMGPUWorker-3; task_idx : 0; args : (<wepy.walker.Walker object at 0x2ba23c5b0cd0>, 10000) 
INFO:root:Running task
CRITICAL:root:Exception 'Exception(Error initializing context: clGetPlatformInfo (-33))' caught in a task.
Traceback:
--------------------------------------------------------------------------------
Traceback (most recent call last):
  File "/mnt/gs18/scratch/users/lotzsamu/tree/lab/projects/seh.pathway_hopping/_conda_envs/sims/lib/python3.7/site-packages/wepy/work_mapper/mapper.py", line 1025, in _run_task
    return task()
  File "/mnt/gs18/scratch/users/lotzsamu/tree/lab/projects/seh.pathway_hopping/_conda_envs/sims/lib/python3.7/site-packages/wepy/work_mapper/mapper.py", line 220, in __call__
    return self.func(*self.args, **self.kwargs, **worker_kwargs)
  File "/mnt/gs18/scratch/users/lotzsamu/tree/lab/projects/seh.pathway_hopping/_conda_envs/sims/lib/python3.7/site-packages/wepy/runners/openmm.py", line 253, in run_segment
    new_integrator, platform)
  File "/mnt/gs18/scratch/users/lotzsamu/tree/lab/projects/seh.pathway_hopping/_conda_envs/sims/lib/python3.7/site-packages/simtk/openmm/app/simulation.py", line 103, in __init__
    self.context = mm.Context(self.system, self.integrator, platform)
  File "/mnt/gs18/scratch/users/lotzsamu/tree/lab/projects/seh.pathway_hopping/_conda_envs/sims/lib/python3.7/site-packages/simtk/openmm/openmm.py", line 18608, in __init__
    this = _openmm.new_Context(*args)
Exception: Error initializing context: clGetPlatformInfo (-33)

--------------------------------------------------------------------------------
                
ERROR:root:OpenMMGPUWorker-3: TaskException caught
DEBUG:root:OpenMMGPUWorker-3: Putting exception on exception queue
DEBUG:root:OpenMMGPUWorker-5: Got task 1
INFO:root:OpenMMGPUWorker-5; task_idx : 1; args : (<wepy.walker.Walker object at 0x2ba23c5b0cd0>, 10000) 
INFO:root:Running task
CRITICAL:root:Exception 'Exception(Error initializing context: clGetPlatformInfo (-33))' caught in a task.
Traceback:
--------------------------------------------------------------------------------
Traceback (most recent call last):
  File "/mnt/gs18/scratch/users/lotzsamu/tree/lab/projects/seh.pathway_hopping/_conda_envs/sims/lib/python3.7/site-packages/wepy/work_mapper/mapper.py", line 1025, in _run_task
    return task()
  File "/mnt/gs18/scratch/users/lotzsamu/tree/lab/projects/seh.pathway_hopping/_conda_envs/sims/lib/python3.7/site-packages/wepy/work_mapper/mapper.py", line 220, in __call__
    return self.func(*self.args, **self.kwargs, **worker_kwargs)
  File "/mnt/gs18/scratch/users/lotzsamu/tree/lab/projects/seh.pathway_hopping/_conda_envs/sims/lib/python3.7/site-packages/wepy/runners/openmm.py", line 253, in run_segment
    new_integrator, platform)
  File "/mnt/gs18/scratch/users/lotzsamu/tree/lab/projects/seh.pathway_hopping/_conda_envs/sims/lib/python3.7/site-packages/simtk/openmm/app/simulation.py", line 103, in __init__
    self.context = mm.Context(self.system, self.integrator, platform)
  File "/mnt/gs18/scratch/users/lotzsamu/tree/lab/projects/seh.pathway_hopping/_conda_envs/sims/lib/python3.7/site-packages/simtk/openmm/openmm.py", line 18608, in __init__
    this = _openmm.new_Context(*args)
Exception: Error initializing context: clGetPlatformInfo (-33)

--------------------------------------------------------------------------------
                
ERROR:root:OpenMMGPUWorker-5: TaskException caught
DEBUG:root:OpenMMGPUWorker-5: Putting exception on exception queue
DEBUG:root:OpenMMGPUWorker-0: Got task 2
INFO:root:OpenMMGPUWorker-0; task_idx : 2; args : (<wepy.walker.Walker object at 0x2ba23c5b0cd0>, 10000) 
INFO:root:Running task
CRITICAL:root:Exception 'Exception(Error initializing context: clGetPlatformInfo (-33))' caught in a task.
Traceback:
--------------------------------------------------------------------------------
Traceback (most recent call last):
  File "/mnt/gs18/scratch/users/lotzsamu/tree/lab/projects/seh.pathway_hopping/_conda_envs/sims/lib/python3.7/site-packages/wepy/work_mapper/mapper.py", line 1025, in _run_task
    return task()
  File "/mnt/gs18/scratch/users/lotzsamu/tree/lab/projects/seh.pathway_hopping/_conda_envs/sims/lib/python3.7/site-packages/wepy/work_mapper/mapper.py", line 220, in __call__
    return self.func(*self.args, **self.kwargs, **worker_kwargs)
  File "/mnt/gs18/scratch/users/lotzsamu/tree/lab/projects/seh.pathway_hopping/_conda_envs/sims/lib/python3.7/site-packages/wepy/runners/openmm.py", line 253, in run_segment
    new_integrator, platform)
  File "/mnt/gs18/scratch/users/lotzsamu/tree/lab/projects/seh.pathway_hopping/_conda_envs/sims/lib/python3.7/site-packages/simtk/openmm/app/simulation.py", line 103, in __init__
    self.context = mm.Context(self.system, self.integrator, platform)
  File "/mnt/gs18/scratch/users/lotzsamu/tree/lab/projects/seh.pathway_hopping/_conda_envs/sims/lib/python3.7/site-packages/simtk/openmm/openmm.py", line 18608, in __init__
    this = _openmm.new_Context(*args)
Exception: Error initializing context: clGetPlatformInfo (-33)

--------------------------------------------------------------------------------
                
ERROR:root:OpenMMGPUWorker-0: TaskException caught
DEBUG:root:OpenMMGPUWorker-0: Putting exception on exception queue
DEBUG:root:OpenMMGPUWorker-4: Got task 3
INFO:root:OpenMMGPUWorker-4; task_idx : 3; args : (<wepy.walker.Walker object at 0x2ba23c5b0cd0>, 10000) 
INFO:root:Running task
CRITICAL:root:Exception 'Exception(Error initializing context: clGetPlatformInfo (-33))' caught in a task.
Traceback:
--------------------------------------------------------------------------------
Traceback (most recent call last):
  File "/mnt/gs18/scratch/users/lotzsamu/tree/lab/projects/seh.pathway_hopping/_conda_envs/sims/lib/python3.7/site-packages/wepy/work_mapper/mapper.py", line 1025, in _run_task
    return task()
  File "/mnt/gs18/scratch/users/lotzsamu/tree/lab/projects/seh.pathway_hopping/_conda_envs/sims/lib/python3.7/site-packages/wepy/work_mapper/mapper.py", line 220, in __call__
    return self.func(*self.args, **self.kwargs, **worker_kwargs)
  File "/mnt/gs18/scratch/users/lotzsamu/tree/lab/projects/seh.pathway_hopping/_conda_envs/sims/lib/python3.7/site-packages/wepy/runners/openmm.py", line 253, in run_segment
    new_integrator, platform)
  File "/mnt/gs18/scratch/users/lotzsamu/tree/lab/projects/seh.pathway_hopping/_conda_envs/sims/lib/python3.7/site-packages/simtk/openmm/app/simulation.py", line 103, in __init__
    self.context = mm.Context(self.system, self.integrator, platform)
  File "/mnt/gs18/scratch/users/lotzsamu/tree/lab/projects/seh.pathway_hopping/_conda_envs/sims/lib/python3.7/site-packages/simtk/openmm/openmm.py", line 18608, in __init__
    this = _openmm.new_Context(*args)
Exception: Error initializing context: clGetPlatformInfo (-33)

--------------------------------------------------------------------------------
                
ERROR:root:OpenMMGPUWorker-4: TaskException caught
DEBUG:root:OpenMMGPUWorker-4: Putting exception on exception queue
DEBUG:root:OpenMMGPUWorker-6: Got task 4
INFO:root:OpenMMGPUWorker-6; task_idx : 4; args : (<wepy.walker.Walker object at 0x2ba23c5b0cd0>, 10000) 
INFO:root:Running task
CRITICAL:root:Exception 'Exception(Error initializing context: clGetPlatformInfo (-33))' caught in a task.
Traceback:
--------------------------------------------------------------------------------
Traceback (most recent call last):
  File "/mnt/gs18/scratch/users/lotzsamu/tree/lab/projects/seh.pathway_hopping/_conda_envs/sims/lib/python3.7/site-packages/wepy/work_mapper/mapper.py", line 1025, in _run_task
    return task()
  File "/mnt/gs18/scratch/users/lotzsamu/tree/lab/projects/seh.pathway_hopping/_conda_envs/sims/lib/python3.7/site-packages/wepy/work_mapper/mapper.py", line 220, in __call__
    return self.func(*self.args, **self.kwargs, **worker_kwargs)
  File "/mnt/gs18/scratch/users/lotzsamu/tree/lab/projects/seh.pathway_hopping/_conda_envs/sims/lib/python3.7/site-packages/wepy/runners/openmm.py", line 253, in run_segment
    new_integrator, platform)
  File "/mnt/gs18/scratch/users/lotzsamu/tree/lab/projects/seh.pathway_hopping/_conda_envs/sims/lib/python3.7/site-packages/simtk/openmm/app/simulation.py", line 103, in __init__
    self.context = mm.Context(self.system, self.integrator, platform)
  File "/mnt/gs18/scratch/users/lotzsamu/tree/lab/projects/seh.pathway_hopping/_conda_envs/sims/lib/python3.7/site-packages/simtk/openmm/openmm.py", line 18608, in __init__
    this = _openmm.new_Context(*args)
Exception: Error initializing context: clGetPlatformInfo (-33)

--------------------------------------------------------------------------------
                
ERROR:root:OpenMMGPUWorker-6: TaskException caught
DEBUG:root:OpenMMGPUWorker-6: Putting exception on exception queue
DEBUG:root:OpenMMGPUWorker-1: Got task 5
INFO:root:OpenMMGPUWorker-1; task_idx : 5; args : (<wepy.walker.Walker object at 0x2ba23c5b0cd0>, 10000) 
INFO:root:Running task
CRITICAL:root:Exception 'Exception(Error initializing context: clGetPlatformInfo (-33))' caught in a task.
Traceback:
--------------------------------------------------------------------------------
Traceback (most recent call last):
  File "/mnt/gs18/scratch/users/lotzsamu/tree/lab/projects/seh.pathway_hopping/_conda_envs/sims/lib/python3.7/site-packages/wepy/work_mapper/mapper.py", line 1025, in _run_task
    return task()
  File "/mnt/gs18/scratch/users/lotzsamu/tree/lab/projects/seh.pathway_hopping/_conda_envs/sims/lib/python3.7/site-packages/wepy/work_mapper/mapper.py", line 220, in __call__
    return self.func(*self.args, **self.kwargs, **worker_kwargs)
  File "/mnt/gs18/scratch/users/lotzsamu/tree/lab/projects/seh.pathway_hopping/_conda_envs/sims/lib/python3.7/site-packages/wepy/runners/openmm.py", line 253, in run_segment
    new_integrator, platform)
  File "/mnt/gs18/scratch/users/lotzsamu/tree/lab/projects/seh.pathway_hopping/_conda_envs/sims/lib/python3.7/site-packages/simtk/openmm/app/simulation.py", line 103, in __init__
    self.context = mm.Context(self.system, self.integrator, platform)
  File "/mnt/gs18/scratch/users/lotzsamu/tree/lab/projects/seh.pathway_hopping/_conda_envs/sims/lib/python3.7/site-packages/simtk/openmm/openmm.py", line 18608, in __init__
    this = _openmm.new_Context(*args)
Exception: Error initializing context: clGetPlatformInfo (-33)

--------------------------------------------------------------------------------
                
ERROR:root:OpenMMGPUWorker-1: TaskException caught
DEBUG:root:OpenMMGPUWorker-1: Putting exception on exception queue
DEBUG:root:OpenMMGPUWorker-7: Got task 6
INFO:root:OpenMMGPUWorker-7; task_idx : 6; args : (<wepy.walker.Walker object at 0x2ba23c5b0cd0>, 10000) 
INFO:root:Running task
CRITICAL:root:Exception 'Exception(Error initializing context: clGetPlatformInfo (-33))' caught in a task.
Traceback:
--------------------------------------------------------------------------------
Traceback (most recent call last):
  File "/mnt/gs18/scratch/users/lotzsamu/tree/lab/projects/seh.pathway_hopping/_conda_envs/sims/lib/python3.7/site-packages/wepy/work_mapper/mapper.py", line 1025, in _run_task
    return task()
  File "/mnt/gs18/scratch/users/lotzsamu/tree/lab/projects/seh.pathway_hopping/_conda_envs/sims/lib/python3.7/site-packages/wepy/work_mapper/mapper.py", line 220, in __call__
    return self.func(*self.args, **self.kwargs, **worker_kwargs)
  File "/mnt/gs18/scratch/users/lotzsamu/tree/lab/projects/seh.pathway_hopping/_conda_envs/sims/lib/python3.7/site-packages/wepy/runners/openmm.py", line 253, in run_segment
    new_integrator, platform)
  File "/mnt/gs18/scratch/users/lotzsamu/tree/lab/projects/seh.pathway_hopping/_conda_envs/sims/lib/python3.7/site-packages/simtk/openmm/app/simulation.py", line 103, in __init__
    self.context = mm.Context(self.system, self.integrator, platform)
  File "/mnt/gs18/scratch/users/lotzsamu/tree/lab/projects/seh.pathway_hopping/_conda_envs/sims/lib/python3.7/site-packages/simtk/openmm/openmm.py", line 18608, in __init__
    this = _openmm.new_Context(*args)
Exception: Error initializing context: clGetPlatformInfo (-33)

--------------------------------------------------------------------------------
                
ERROR:root:OpenMMGPUWorker-7: TaskException caught
DEBUG:root:OpenMMGPUWorker-7: Putting exception on exception queue
DEBUG:root:OpenMMGPUWorker-2: Got task 7
INFO:root:OpenMMGPUWorker-2; task_idx : 7; args : (<wepy.walker.Walker object at 0x2ba23c5b0cd0>, 10000) 
INFO:root:Running task
CRITICAL:root:Exception 'Exception(Error initializing context: clGetPlatformInfo (-33))' caught in a task.
Traceback:
--------------------------------------------------------------------------------
Traceback (most recent call last):
  File "/mnt/gs18/scratch/users/lotzsamu/tree/lab/projects/seh.pathway_hopping/_conda_envs/sims/lib/python3.7/site-packages/wepy/work_mapper/mapper.py", line 1025, in _run_task
    return task()
  File "/mnt/gs18/scratch/users/lotzsamu/tree/lab/projects/seh.pathway_hopping/_conda_envs/sims/lib/python3.7/site-packages/wepy/work_mapper/mapper.py", line 220, in __call__
    return self.func(*self.args, **self.kwargs, **worker_kwargs)
  File "/mnt/gs18/scratch/users/lotzsamu/tree/lab/projects/seh.pathway_hopping/_conda_envs/sims/lib/python3.7/site-packages/wepy/runners/openmm.py", line 253, in run_segment
    new_integrator, platform)
  File "/mnt/gs18/scratch/users/lotzsamu/tree/lab/projects/seh.pathway_hopping/_conda_envs/sims/lib/python3.7/site-packages/simtk/openmm/app/simulation.py", line 103, in __init__
    self.context = mm.Context(self.system, self.integrator, platform)
  File "/mnt/gs18/scratch/users/lotzsamu/tree/lab/projects/seh.pathway_hopping/_conda_envs/sims/lib/python3.7/site-packages/simtk/openmm/openmm.py", line 18608, in __init__
    this = _openmm.new_Context(*args)
Exception: Error initializing context: clGetPlatformInfo (-33)

--------------------------------------------------------------------------------
                
ERROR:root:OpenMMGPUWorker-2: TaskException caught
DEBUG:root:OpenMMGPUWorker-2: Putting exception on exception queue
srun: Job step aborted: Waiting up to 32 seconds for job step to finish.
slurmstepd: error: *** JOB 59874312 ON lac-027 CANCELLED AT 2020-04-08T00:51:00 ***
slurmstepd: error: *** STEP 59874312.0 ON lac-027 CANCELLED AT 2020-04-08T00:51:00 ***
